{
	"credit": "Made with Blockbench",
	"texture_size": [32, 32],
	"textures": {
		"19": "block/antidote"
	},
	"elements": [
		{
			"from": [6.5, 6, 5],
			"to": [9.5, 10, 10],
			"faces": {
				"north": {"uv": [1.5, 6, 3, 8], "texture": "#19"},
				"east": {"uv": [4, 0, 6.5, 2], "texture": "#19"},
				"south": {"uv": [6, 4, 7.5, 6], "texture": "#19"},
				"west": {"uv": [4, 2, 6.5, 4], "texture": "#19"},
				"up": {"uv": [5.5, 6.5, 4, 4], "texture": "#19"},
				"down": {"uv": [1.5, 6, 0, 8.5], "texture": "#19"}
			}
		},
		{
			"from": [7, 6, 7],
			"to": [9, 8, 9],
			"faces": {
				"north": {"uv": [6.5, 2, 7.5, 3], "texture": "#19"},
				"east": {"uv": [6.5, 3, 7.5, 4], "texture": "#19"},
				"south": {"uv": [4, 6.5, 5, 7.5], "texture": "#19"},
				"west": {"uv": [5, 6.5, 6, 7.5], "texture": "#19"},
				"up": {"uv": [8.5, 3, 7.5, 2], "texture": "#19"},
				"down": {"uv": [8.5, 3, 7.5, 4], "texture": "#19"}
			}
		},
		{
			"from": [6, 0, 6],
			"to": [10, 6, 10],
			"faces": {
				"north": {"uv": [0, 0, 2, 3], "texture": "#19"},
				"east": {"uv": [2, 0, 4, 3], "texture": "#19"},
				"south": {"uv": [0, 3, 2, 6], "texture": "#19"},
				"west": {"uv": [2, 3, 4, 6], "texture": "#19"},
				"up": {"uv": [8, 8, 6, 6], "texture": "#19"},
				"down": {"uv": [8.5, 0, 6.5, 2], "texture": "#19"}
			}
		}
	],
	"display": {
		"thirdperson_righthand": {
			"translation": [-1.5, 0, 0]
		},
		"thirdperson_lefthand": {
			"translation": [-1.5, 0, 0],
			"scale": [-1, 1, 1]
		},
		"firstperson_righthand": {
			"rotation": [0, -5, 0],
			"translation": [0, 5, 0]
		},
		"firstperson_lefthand": {
			"rotation": [0, -5, 0],
			"translation": [0, 5, 0]
		},
		"ground": {
			"translation": [0, 4.5, 0]
		},
		"gui": {
			"rotation": [25, -142, 0],
			"translation": [0, 3.5, 0],
			"scale": [1.25, 1.25, 1.25]
		},
		"head": {
			"translation": [0, 14.5, 0]
		},
		"fixed": {
			"rotation": [0, 90, 0],
			"translation": [0, 4.5, 0],
			"scale": [2, 1.5, 1.5]
		}
	},
	"groups": [
		{
			"name": "Antidote",
			"origin": [0, 0, 0],
			"color": 0,
			"children": [0, 1, 2]
		}
	]
}