{
	"format_version": "1.8.0",
	"animations": {
		"animation.stufful.blink": {
			"animation_length": 0.16667,
			"bones": {
				"eyelid_right": {
					"position": {
						"0.0": [0, 0, -0.1],
						"0.125": [0, 0, -0.1],
						"0.1667": [0, 0, 0]
					}
				},
				"eyelid_left": {
					"position": {
						"0.0": [0, 0, -0.1],
						"0.125": [0, 0, -0.1],
						"0.1667": [0, 0, 0]
					}
				}
			}
		},
		"animation.stufful.ground_idle": {
			"loop": true,
			"animation_length": 2,
			"bones": {
				"torso": {
					"position": [0, "-0.1+0.1*math.sin(q.anim_time*90*2-90)", 0]
				},
				"head": {
					"rotation": ["1*math.cos(q.anim_time*90*2-90)", 0, 0]
				},
				"leg_front_right": {
					"rotation": {
						"0.0": {
							"post": [4, 0, 0],
							"lerp_mode": "catmullrom"
						},
						"1.0": {
							"post": [0, 0, 0],
							"lerp_mode": "catmullrom"
						},
						"2.0": {
							"post": [4, 0, 0],
							"lerp_mode": "catmullrom"
						}
					},
					"position": [0, "-0.25+0.05*math.sin(q.anim_time*90*2-90)", "0.1*math.sin(q.anim_time*90*2-90)"]
				},
				"leg_front_right2": {
					"rotation": {
						"0.0": {
							"post": [-6, 0, 0],
							"lerp_mode": "catmullrom"
						},
						"1.0": {
							"post": [-2, 0, 0],
							"lerp_mode": "catmullrom"
						},
						"2.0": {
							"post": [-6, 0, 0],
							"lerp_mode": "catmullrom"
						}
					}
				},
				"leg_back_right": {
					"rotation": {
						"0.0": [-3.5, 0, 0],
						"1.0": [0, 0, 0],
						"2.0": [-3.5, 0, 0]
					},
					"position": [0, "-0.25+0.05*math.sin(q.anim_time*90*2-90)", -0.2]
				},
				"leg_back_right2": {
					"rotation": {
						"0.0": [6.5, 0, 0],
						"1.0": [0, 0, 0],
						"2.0": [6.5, 0, 0]
					}
				},
				"tail": {
					"rotation": [0, "3*math.sin(q.anim_time*90*4-150)", 0],
					"position": [0, -0.25, 0]
				},
				"tag": {
					"rotation": [0, "4*math.cos(q.anim_time*90*2-45)", 0]
				},
				"leg_front_left": {
					"rotation": {
						"0.0": {
							"post": [4, 0, 0],
							"lerp_mode": "catmullrom"
						},
						"1.0": {
							"post": [0, 0, 0],
							"lerp_mode": "catmullrom"
						},
						"2.0": {
							"post": [4, 0, 0],
							"lerp_mode": "catmullrom"
						}
					},
					"position": [0, "-0.25+0.05*math.sin(q.anim_time*90*2-90)", "0.1*math.sin(q.anim_time*90*2-90)"]
				},
				"leg_front_left2": {
					"rotation": {
						"0.0": {
							"post": [-6, 0, 0],
							"lerp_mode": "catmullrom"
						},
						"1.0": {
							"post": [-2, 0, 0],
							"lerp_mode": "catmullrom"
						},
						"2.0": {
							"post": [-6, 0, 0],
							"lerp_mode": "catmullrom"
						}
					}
				},
				"leg_back_left": {
					"rotation": {
						"0.0": [-3.5, 0, 0],
						"1.0": [0, 0, 0],
						"2.0": [-3.5, 0, 0]
					},
					"position": [0, "-0.25+0.05*math.sin(q.anim_time*90*2-90)", -0.2]
				},
				"leg_back_left2": {
					"rotation": {
						"0.0": [6.5, 0, 0],
						"1.0": [0, 0, 0],
						"2.0": [6.5, 0, 0]
					}
				}
			}
		},
		"animation.stufful.ground_walk": {
			"loop": true,
			"animation_length": 2,
			"bones": {
				"torso": {
					"rotation": ["-3*math.cos(q.anim_time*90*8-10)", 0, 0],
					"position": [0, "0.2*math.sin(q.anim_time*90*8)", 0]
				},
				"head": {
					"rotation": ["-1*math.cos(q.anim_time*90*8-90)", "-5*math.cos(q.anim_time*90*4-90)", "-5*math.cos(q.anim_time*90*4-20)"]
				},
				"ear_right_upper": {
					"rotation": [0, "-3*math.cos(q.anim_time*90*8-90)", "-3*math.cos(q.anim_time*90*8-90)"]
				},
				"ear_right_bottom": {
					"rotation": [0, 0, "3*math.cos(q.anim_time*90*8-90)"]
				},
				"ear_left_upper": {
					"rotation": [0, "5*math.cos(q.anim_time*90*8-90)", "3*math.cos(q.anim_time*90*8-90)"]
				},
				"ear_left_bottom": {
					"rotation": [0, 0, "-3*math.cos(q.anim_time*90*8-90)"]
				},
				"tail": {
					"rotation": ["-3*math.cos(q.anim_time*90*8-90)", "-15*math.sin(q.anim_time*90*4-90)", 0],
					"position": [0, 0.3, 0.2]
				},
				"tag": {
					"rotation": [0, "3*math.cos(q.anim_time*90*4-90)", 0]
				},
				"leg_back_right": {
					"rotation": ["12-25*math.cos(q.anim_time*90*4-90)", 0, 0],
					"position": [0, "0.3+0.5*math.cos(q.anim_time*90*4)", 0.5]
				},
				"leg_back_right2": {
					"rotation": ["5+5*math.cos(q.anim_time*90*4)", 0, 0]
				},
				"leg_front_right": {
					"rotation": ["-12+25*math.cos(q.anim_time*90*4-90)", 0, 0],
					"position": [0, "0.3-0.5*math.cos(q.anim_time*90*4)", 0]
				},
				"leg_front_right2": {
					"rotation": ["-5+5*math.cos(q.anim_time*90*4)", 0, 0]
				},
				"leg_front_left": {
					"rotation": ["-12-25*math.cos(q.anim_time*90*4-90)", 0, 0],
					"position": [0, "0.5*math.cos(q.anim_time*90*4)", 0]
				},
				"leg_front_left2": {
					"rotation": ["-5+5*math.cos(q.anim_time*90*4)", 0, 0]
				},
				"leg_back_left": {
					"rotation": ["12+25*math.cos(q.anim_time*90*4-90)", 0, 0],
					"position": [0, "-0.5*math.cos(q.anim_time*90*4)", 0.4]
				},
				"leg_back_left2": {
					"rotation": ["5+5*math.cos(q.anim_time*90*4)", 0, 0]
				}
			}
		},
		"animation.stufful.ground_run": {
			"loop": true,
			"animation_length": 1.5,
			"bones": {
				"torso": {
					"rotation": ["5*math.sin(q.anim_time*90*10.7+100)", 0, 0],
					"position": [0, "0.2+0.5*math.sin(q.anim_time*90*10.7+170)", 0]
				},
				"head": {
					"rotation": ["7-5*math.sin(q.anim_time*90*10.7+40)", 0, 0]
				},
				"ear_right_upper": {
					"rotation": [0, "-10*math.sin(q.anim_time*90*10.7+180)", 0]
				},
				"ear_right_bottom": {
					"rotation": [0, "-10*math.sin(q.anim_time*90*10.7+180)", 0]
				},
				"ear_left_upper": {
					"rotation": [0, "10*math.sin(q.anim_time*90*10.7+180)", 0]
				},
				"ear_left_bottom": {
					"rotation": [0, "10*math.sin(q.anim_time*90*10.7+180)", 0]
				},
				"tail": {
					"rotation": ["7+10*math.sin(q.anim_time*90*10.7+100)", "-0.1-7*math.sin(q.anim_time*90*10.7+200)", 0]
				},
				"tag": {
					"rotation": ["-7+7*math.sin(q.anim_time*90*10.7)", "-0.1-3*math.sin(q.anim_time*90*10.7)", 0]
				},
				"leg_back_right": {
					"rotation": ["22.5997+45*math.cos(q.anim_time*90*10.7+120)", -0.00872, 4.99999],
					"position": [0, "0.2+0.5*math.sin(q.anim_time*90*10.7+220)", 0.7]
				},
				"leg_back_right2": {
					"rotation": ["5.9-6*math.cos(q.anim_time*90*10.7+140)", 0, 0]
				},
				"leg_front_right": {
					"rotation": ["-19.6482+45*math.cos(q.anim_time*90*10.7-20)", 1.25325, "8.9084+5*math.sin(q.anim_time*90*10.7-20)"],
					"position": [0, "0.2+0.5*math.sin(q.anim_time*90*10.7-20)", 0]
				},
				"leg_front_right2": {
					"rotation": ["-5.9+6*math.cos(q.anim_time*90*10.7+130)", 0, 0]
				},
				"leg_front_left": {
					"rotation": ["-22.152+45*math.cos(q.anim_time*90*10.7+28)", -2.57068, "-8.6231-5*math.sin(q.anim_time*90*10.7+28)"],
					"position": [0, "0.2+0.5*math.sin(q.anim_time*90*10.7+400)", 0]
				},
				"leg_front_left2": {
					"rotation": ["-5.9+6*math.cos(q.anim_time*90*10.7+130)", 0, 0]
				},
				"leg_back_left": {
					"rotation": ["7.6969+45*math.cos(q.anim_time*90*10.7+150)", -2.60049, -4.272],
					"position": [0, "0.2+0.5*math.sin(q.anim_time*90*10.7+220)", 1.1]
				},
				"leg_back_left2": {
					"rotation": ["5.9-6*math.cos(q.anim_time*90*10.7+140)", 0, 0]
				}
			}
		},
		"animation.stufful.battle_idle": {
			"loop": true,
			"animation_length": 2,
			"bones": {
				"body": {
					"position": ["0.2*math.cos(q.anim_time*90*4+90)", "-0.3+0.1*math.cos(q.anim_time*90*8+90)", 0]
				},
				"head": {
					"rotation": ["-1*math.sin(q.anim_time*90*8+90)", "-1*math.sin(q.anim_time*90*4+90)", 0]
				},
				"ear_right_upper": {
					"rotation": [0, 0, "-2*math.cos(q.anim_time*90*8+100)"]
				},
				"ear_left_upper": {
					"rotation": [0, 0, "2*math.cos(q.anim_time*90*8+100)"]
				},
				"tail": {
					"rotation": ["2*math.sin(q.anim_time*90*8+100)", "5*math.sin(q.anim_time*90*4+100)", 0]
				},
				"tag": {
					"rotation": ["2*math.sin(q.anim_time*90*8+50)", 0, 0]
				},
				"leg_back_right": {
					"rotation": ["-3+3*math.cos(q.anim_time*90*8+90)", 0, "4+2*math.cos(q.anim_time*90*4+90)"],
					"position": [0, 0, 0.2]
				},
				"leg_back_right2": {
					"rotation": ["4+5*math.cos(q.anim_time*90*-8+90)", 0, 0]
				},
				"leg_front_right": {
					"rotation": {
						"0.0": ["3+3*math.cos(q.anim_time*90*-8+90)", 0, "4+2*math.cos(q.anim_time*90*4+90)"],
						"0.5": ["3+3*math.cos(q.anim_time*90*-8+90)", 0, "4+2*math.cos(q.anim_time*90*4+90)"],
						"1.0": ["3+3*math.cos(q.anim_time*90*-8+90)", 0, "4+2*math.cos(q.anim_time*90*4+90)"]
					}
				},
				"leg_front_right2": {
					"rotation": ["-4+5*math.cos(q.anim_time*90*8+90)", 0, 0]
				},
				"leg_front_left": {
					"rotation": ["3+3*math.cos(q.anim_time*90*-8+90)", 0, "-4+2*math.cos(q.anim_time*90*4+90)"]
				},
				"leg_front_left2": {
					"rotation": ["-4+5*math.cos(q.anim_time*90*8+90)", 0, 0]
				},
				"leg_back_left": {
					"rotation": ["-3+3*math.cos(q.anim_time*90*8+90)", 0, "-4+2*math.cos(q.anim_time*90*4+90)"],
					"position": [0, 0, 0.2]
				},
				"leg_back_left2": {
					"rotation": ["4+5*math.cos(q.anim_time*90*-8+90)", 0, 0]
				}
			}
		},
		"animation.stufful.faint": {
			"loop": true,
			"animation_length": 3,
			"bones": {
				"torso": {
					"rotation": {
						"0.0": [0, 0, 0],
						"0.4583": [17.5, 0, 0],
						"0.7083": [-32.5, 0, 0],
						"1.75": ["2-25*math.cos(q.anim_time*90*1-90)", 0, 0],
						"1.9167": [0.24, 0, 0]
					},
					"position": {
						"0.3333": [0, 0, 0],
						"0.7917": [0, 1, -3],
						"1.5417": [0, "0.4+1*math.cos(q.anim_time*180*0.5-90)", "-4.1+1*math.cos(q.anim_time*180*0.5-90)"],
						"1.6667": [0, "-3.4+1*math.cos(q.anim_time*180*1-90)", -4.6],
						"1.9583": [0, -4, -5.9]
					}
				},
				"head": {
					"rotation": {
						"0.0": [0, 0, 0],
						"0.3333": [12.5, 0, 0],
						"0.5": [12.5, 0, 0],
						"0.75": [5, 0, 0],
						"1.5": [5, 0, 0],
						"1.75": [17.5, 0, 0],
						"1.875": [7.5, 0, 0],
						"1.9583": [10, 0, 0]
					}
				},
				"eye_v_right": {
					"position": {
						"0.0": [0, 0, 0],
						"0.8333": [0, 0, -0.1]
					}
				},
				"eye_v_left": {
					"position": {
						"0.0": [0, 0, 0],
						"0.8333": [0, 0, -0.1]
					}
				},
				"ear_right_upper": {
					"rotation": {
						"0.1667": [0, 0, 0],
						"0.4167": [0, -15, 0],
						"1.0": [0, 5, 0],
						"1.6667": [0, 10, 0],
						"1.875": [0, -30, 0],
						"1.9583": [0, -10, 0],
						"2.0833": [0, -15, 0],
						"2.5417": [-0.32603, -15.30452, -2.42089]
					}
				},
				"ear_left_upper": {
					"rotation": {
						"0.1667": [0, 0, 0],
						"0.4167": [0, 15, 0],
						"1.0": [0, -5, 0],
						"1.6667": [0, -10, 0],
						"1.8333": [0, 30, 0],
						"1.9583": [0, 10, 0],
						"2.0417": [0, 17.5, 0],
						"2.625": [-0.32812, 17.80448, 2.40647]
					}
				},
				"tail": {
					"rotation": {
						"0.0": [0, 0, 0],
						"0.5": [-30, -1, 0],
						"0.7917": [-13.5, "-2.5+20*math.cos(q.anim_time*90*8-90)", 0],
						"1.5417": [-7.5, 0, 0],
						"1.6667": [10.5, 0, 0],
						"1.75": [-28, 0, 0],
						"1.875": [-18.5, 0, 0],
						"2.5": [-27.5, 0, 0]
					}
				},
				"leg_back_right": {
					"rotation": {
						"0.0": [0, 0, 0],
						"0.3333": [-17.5, 0, 0],
						"0.7083": [30, 0, 0],
						"1.5": [36.5, 0, 0],
						"1.6667": [87.37884, -17.48281, 0.78795],
						"1.75": [84.87884, -17.48281, 0.78795],
						"1.9583": [89.87884, -17.48281, 0.78795]
					},
					"position": {
						"0.0": [0, 0, 0.3],
						"0.3333": [0, -0.6, 0.7],
						"0.7917": [0, -0.5, -2.6],
						"1.5": [0, -0.5, -3.1],
						"1.6667": [0, -4.5, -3.2],
						"1.75": [0, -4, -3.5],
						"1.9583": [0, -4.5, -4.2]
					}
				},
				"leg_back_right2": {
					"rotation": {
						"0.0": [0, 0, 0],
						"0.3333": [17.5, 0, 0],
						"0.7083": [0, 0, 0]
					}
				},
				"leg_front_right": {
					"rotation": {
						"0.0": [0, 0, 0],
						"0.3333": [13, 0, 0],
						"0.4167": [0.242, 3.08021, 0.94184],
						"0.625": ["-81.653-20*math.cos(q.anim_time*90*12-90)", 10.78075, 3.29643],
						"1.0833": ["-65.5993-45*math.cos(q.anim_time*90*12-90)", 11.58893, 1.50332],
						"1.4167": ["-67.5993-45*math.cos(q.anim_time*90*12-90)", 11.58893, 1.50332],
						"1.6667": [-87.77051, 28.87288, 4.17345],
						"1.8333": [-83.97051, 28.87288, 4.17345],
						"1.9583": [-87.77051, 28.87288, 4.17345]
					},
					"position": {
						"0.0": [0, 0, 0],
						"0.3333": [0, -1.5, 1],
						"0.75": [0, 2.4, -1.9],
						"1.5417": [0, 2.67, -2.8],
						"1.6667": [0, -4.86, -4.15],
						"1.8333": [0, -4.34, -4.71],
						"1.9583": [0, -4.79, -5.21]
					}
				},
				"leg_front_right2": {
					"rotation": {
						"0.0": [0, 0, 0],
						"0.3333": [-40, 0, 0],
						"0.4167": [-3.61, 0, 0],
						"0.7083": [0, 0, 0]
					}
				},
				"leg_front_left": {
					"rotation": {
						"0.0": [0, 0, 0],
						"0.3333": [13, 0, 0],
						"0.4167": [2.28571, -2.89968, -2.09595],
						"0.625": ["-79.5+20*math.cos(q.anim_time*90*12-90)", -10.1489, -7.33584],
						"0.9167": ["-56.5+45*math.cos(q.anim_time*90*12-90)", -10.15, -7.34],
						"1.25": ["-56.5+45*math.cos(q.anim_time*90*12-90)", -10.15, -7.34],
						"1.7083": [-89.14455, -25.92543, -5.35431],
						"1.8333": [-84.14455, -25.92543, -5.35431],
						"1.9583": [-89.14455, -25.92543, -5.35431]
					},
					"position": {
						"0.0": [0, 0, 0],
						"0.3333": [0, -1.4, 1],
						"0.75": [0, 3.6, -2],
						"1.5417": [0, 2.6, -2.8],
						"1.6667": [0, -5, -3.8],
						"1.8333": [0, -4.4, -4.4],
						"1.9583": [0, -5, -5]
					}
				},
				"leg_front_left2": {
					"rotation": {
						"0.0": [0, 0, 0],
						"0.3333": [-37.5, 0, 0],
						"0.4167": [-6.67, 0, 0],
						"0.7083": [0, 0, 0]
					},
					"position": [0, 0, 0]
				},
				"leg_back_left": {
					"rotation": {
						"0.0": [0, 0, 0],
						"0.3333": [-10, 0, 0],
						"0.7917": [26, 0, 0],
						"1.5": [31.5, 0, 0],
						"1.6667": [88.40378, 19.99285, -0.54588],
						"1.75": [85.90378, 19.99285, -0.54588],
						"1.9583": [88.40378, 19.99285, -0.54588]
					},
					"position": {
						"0.0": [0, 0, 0.2],
						"0.3333": [0, -0.4, 0.7],
						"0.7917": [0, -0.4, -2.3],
						"1.5": [0, -0.4, -2.7],
						"1.6667": [0, -4.7, -2.9],
						"1.75": [0, -4.3, -3.3],
						"1.9583": [0, -4.7, -4]
					}
				},
				"leg_back_left2": {
					"rotation": {
						"0.0": [0, 0, 0],
						"0.3333": [15, 0, 0],
						"0.7083": [2, 0, 0]
					}
				},
				"mouth": {
					"position": {
						"0.7083": [0, 0, 0],
						"0.75": [0, 0, -0.1],
						"1.7083": [0, 0, -0.1],
						"1.75": [0, 0, 0]
					}
				},
				"body": {
					"rotation": {
						"0.0": [0, 0, 0],
						"1.7917": [0, 0, 0],
						"1.8333": [1, 0, 0],
						"1.9167": [0, 0, 0]
					},
					"position": {
						"0.0": [0, 0, 0],
						"1.7917": [0, 0, 0],
						"1.875": [0, 0, -0.3]
					}
				}
			}
		},
		"animation.stufful.sleep": {
			"loop": true,
			"animation_length": 3,
			"bones": {
				"eyelid_right": {
					"position": [0, 0, -0.1]
				},
				"eyelid_left": {
					"position": [0, 0, -0.1]
				},
				"body": {
					"position": [0, "-4.1+0.1*math.cos(q.anim_time*90*1.33-180)", 0]
				},
				"head": {
					"rotation": ["12+1.5*math.cos(q.anim_time*90*1.33-90)", 0, 0]
				},
				"ear_right_upper": {
					"rotation": [0, "-3*math.cos(q.anim_time*90*1.33-180)", 0]
				},
				"ear_left_upper": {
					"rotation": [0, "3*math.cos(q.anim_time*90*1.33-180)", 0]
				},
				"tail": {
					"rotation": ["-30-3*math.cos(q.anim_time*90*1.33-90)", 0, 0],
					"position": [0, -0.4, 0]
				},
				"tag": {
					"rotation": [-22.5, 0, 0]
				},
				"leg_back_right": {
					"rotation": ["83.1448-2*math.cos(q.anim_time*90*1.33-180)", -35.07524, 0.45433]
				},
				"leg_front_right": {
					"rotation": ["-83.0068+2*math.cos(q.anim_time*90*1.33-180)", 42.54589, 1.19557]
				},
				"leg_front_left": {
					"rotation": ["-83.00683+2*math.cos(q.anim_time*90*1.33-180)", -42.54589, -1.19557]
				},
				"leg_back_left": {
					"rotation": ["83.1448-2*math.cos(q.anim_time*90*1.33-180)", 35.07524, -0.45433]
				}
			}
		},
		"animation.stufful.cry": {
			"animation_length": 1.16667,
			"bones": {
				"head": {
					"rotation": {
						"0.0": ["0+20*math.cos(q.anim_time*90*1+90)", 0, 0],
						"0.125": [4.08592, 0, 0],
						"0.375": {
							"pre": [-2.08149, 0, 0],
							"post": [-2.08149, 0, 0],
							"lerp_mode": "catmullrom"
						},
						"0.8333": {
							"post": [-2.08149, 0, 0],
							"lerp_mode": "catmullrom"
						},
						"1.1667": [0, 0, 0]
					},
					"position": [0, 0, 0]
				},
				"eye_v_right": {
					"position": {
						"0.0": [0, 0, 0],
						"0.0417": [0, 0, -0.11],
						"0.9583": [0, 0, -0.1],
						"1.0": [0, 0, 0]
					}
				},
				"eye_v_left": {
					"position": {
						"0.0": [0, 0, 0],
						"0.0417": [0, 0, -0.11],
						"0.9583": [0, 0, -0.1],
						"1.0": [0, 0, 0]
					}
				},
				"ear_right_upper": {
					"rotation": {
						"0.0": [0, 0, 0],
						"0.25": [0, "-7.7+20*math.cos(q.anim_time*90*-1+90)", 0],
						"1.1667": [0, 0, 0]
					}
				},
				"ear_left_upper": {
					"rotation": {
						"0.0": [0, 0, 0],
						"0.25": [0, "7.7+20*math.cos(q.anim_time*90*1+90)", 0],
						"1.1667": [0, 0, 0]
					}
				},
				"mouth": {
					"position": {
						"0.0": [0, 0, 0],
						"0.0417": [0, 0, -0.1],
						"0.6667": [0, 0, -0.1],
						"0.7083": [0, 0, 0]
					}
				}
			},
			"sound_effects": {
				"0.0": {
					"effect": "stufful_ambient"
				}
			}
		}
	}
}