{
	"format_version": "1.8.0",
	"animations": {
		"animation.sigilyph.idle": {
			"loop": true,
			"bones": {
				"wing_right": {
					"rotation": [10, 0, -25]
				},
				"wing_right2": {
					"rotation": [-10, 0, 10]
				},
				"wing_feather_right": {
					"rotation": [0, 15, 35]
				},
				"wing_feather_right2": {
					"rotation": [0, 10, 25]
				},
				"wing_feather_right3": {
					"rotation": [0, 15, 25]
				},
				"wing_feather_right4": {
					"rotation": [0, 20, 15]
				},
				"leg_right": {
					"rotation": [0, 15, -15]
				},
				"tail": {
					"rotation": [10, 0, 0]
				},
				"tail0": {
					"rotation": [10, 0, 0]
				},
				"tail_feather_outer_right": {
					"rotation": [10, 0, 0]
				},
				"tail_feather_inner_right": {
					"rotation": [5, 0, 0]
				},
				"tail_feather_outer_left": {
					"rotation": [20, 0, 0]
				},
				"tail_feather_inner_left": {
					"rotation": [15, 0, 0]
				},
				"leg_left": {
					"rotation": [0, -15, 15]
				},
				"wing_left": {
					"rotation": [10, 0, 25]
				},
				"wing_left2": {
					"rotation": [-7.5, 0, -10]
				},
				"wing_feather_left": {
					"rotation": [0, -15, -35]
				},
				"wing_feather_left2": {
					"rotation": [0, -10, -25]
				},
				"wing_feather_left3": {
					"rotation": [0, -15, -25]
				},
				"wing_feather_left4": {
					"rotation": [0, -20, -15]
				}
			}
		}
	}
}