{
	"format_version": "1.8.0",
	"animations": {
		"animation.qwilfish_hisuian.ground_idle": {
			"loop": true,
			"bones": {
				"qwilfish_hisuian": {
					"rotation": [0, 0, 0],
					"position": [0, 1.25, 0]
				},
				"body": {
					"rotation": [0, 0, 0]
				}
			}
		},
		"animation.qwilfish_hisuian.blink": {
			"animation_length": 0.20833,
			"bones": {
				"eyelid_left": {
					"position": [0, 0, -0.1]
				},
				"eyelid_right": {
					"position": [0, 0, -0.1]
				}
			}
		}
	}
}