{
	"credit": "Made with Blockbench by dhi_holo @holo_modeller",
	"textures": {
		"0": "block/azalea_leaves",
		"1": "block/oak_log",
		"particle": "block/azalea_leaves"
	},
	"elements": [
		{
			"from": [0, 1, 2],
			"to": [16, 16, 14],
			"rotation": {"angle": 0, "axis": "y", "origin": [0, 0, -6]},
			"faces": {
				"north": {"uv": [0, 0, 16, 15], "texture": "#0"},
				"east": {"uv": [2, 0, 14, 15], "texture": "#0"},
				"south": {"uv": [0, 0, 16, 15], "texture": "#0"},
				"west": {"uv": [2, 0, 14, 15], "texture": "#0"},
				"up": {"uv": [0, 2, 16, 14], "texture": "#0"},
				"down": {"uv": [0, 2, 16, 14], "texture": "#0"}
			}
		},
		{
			"from": [2, 0, 4],
			"to": [14, 1, 12],
			"rotation": {"angle": 0, "axis": "y", "origin": [0, 0, 4]},
			"faces": {
				"north": {"uv": [2, 15, 14, 16], "texture": "#1"},
				"east": {"uv": [4, 15, 12, 16], "texture": "#1"},
				"south": {"uv": [2, 15, 14, 16], "texture": "#1"},
				"west": {"uv": [4, 15, 12, 16], "texture": "#1"},
				"up": {"uv": [2, 4, 14, 12], "texture": "#1"},
				"down": {"uv": [2, 4, 14, 12], "texture": "#1"}
			}
		},
		{
			"name": "cube inverted",
			"from": [15.975, 15.975, 13.975],
			"to": [0.025, 1.025, 2.025],
			"rotation": {"angle": 0, "axis": "y", "origin": [-0.025, -0.525, -6.025]},
			"faces": {
				"north": {"uv": [0, 15, 16, 0], "texture": "#0"},
				"east": {"uv": [2, 15, 14, 0], "texture": "#0"},
				"south": {"uv": [0, 15, 16, 0], "texture": "#0"},
				"west": {"uv": [2, 15, 14, 0], "texture": "#0"},
				"up": {"uv": [16, 2, 0, 14], "texture": "#0"},
				"down": {"uv": [16, 2, 0, 14], "texture": "#0"}
			}
		}
	]
}