{
	"format_version": "1.8.0",
	"animations": {
		"animation.venipede.ground_idle": {
			"loop": true,
			"animation_length": 2,
			"bones": {
				"torso": {
					"rotation": ["2.5+math.sin(q.anim_time*90*4)*0.5", "0+math.sin(q.anim_time*90*4)*0.25", 0]
				},
				"neck": {
					"rotation": [2.5, 0, 0]
				},
				"head": {
					"rotation": ["2.5+math.sin(q.anim_time*90*8)*0.25", "0-math.sin(q.anim_time*90*4)*0.25", 0]
				},
				"head_antenna_left": {
					"rotation": [0, 0, "10+math.sin(q.anim_time*90*4)*1"]
				},
				"head_antenna_left2": {
					"rotation": [-5, 0, 0]
				},
				"waist": {
					"rotation": ["-2.5+math.sin(q.anim_time*90*4-90)*0.5", 0, 0]
				},
				"waist2": {
					"rotation": ["0+math.sin(q.anim_time*90*4-180)*0.5", -2.5, 0]
				},
				"waist3": {
					"rotation": ["0+math.sin(q.anim_time*90*4+180)*1", 2.5, 0]
				},
				"tail": {
					"rotation": ["-2.5+math.sin(q.anim_time*90*4+90)*1.5", 0, 0]
				},
				"tail2": {
					"rotation": [2.5, 0, 0]
				},
				"tail_antenna_left": {
					"rotation": [0, 0, 15]
				},
				"tail_antenna_left2": {
					"rotation": [-5, 0, 0]
				},
				"leg1_left": {
					"rotation": ["0+math.sin(q.anim_time*90*4-180)*4", 0, 10],
					"position": [0, 0, "0+math.sin(q.anim_time*90*4)*0.1"]
				},
				"leg2_left": {
					"rotation": ["0-math.sin(q.anim_time*90*4-35)*4", 0, 5],
					"position": [0, 0, "0+math.sin(q.anim_time*90*4-35)*0.1"]
				},
				"leg3_left": {
					"rotation": ["0-math.sin(q.anim_time*90*4-60)*4", 0, 5],
					"position": [0, 0, "0+math.sin(q.anim_time*90*4-60)*0.1"]
				},
				"leg4_left": {
					"rotation": ["0-math.sin(q.anim_time*90*4-85)*4", 0, 5],
					"position": [0, 0, "math.sin(q.anim_time*90*4-85)*0.1"]
				},
				"leg1_right": {
					"rotation": ["0+math.sin(q.anim_time*90*4-180)*4", 0, -5],
					"position": [0, 0, "0+math.sin(q.anim_time*90*4)*0.1"]
				},
				"leg2_right": {
					"rotation": ["0-math.sin(q.anim_time*90*4-35)*4", 0, -5],
					"position": [0, 0, "0+math.sin(q.anim_time*90*4-35)*0.1"]
				},
				"leg3_right": {
					"rotation": ["0-math.sin(q.anim_time*90*4-60)*4", 0, -5],
					"position": [0, 0, "0+math.sin(q.anim_time*90*4-60)*0.1"]
				},
				"leg4_right": {
					"rotation": ["0-math.sin(q.anim_time*90*4-85)*4", 0, -5],
					"position": [0, 0, "math.sin(q.anim_time*90*4-85)*0.1"]
				},
				"neck_back": {
					"rotation": [-2.5, 0, 0],
					"position": [0, 0, -0.4]
				},
				"head_antenna_right": {
					"rotation": [0, 0, "-10+math.sin(q.anim_time*90*4)*1"]
				},
				"head_antenna_right2": {
					"rotation": [-5, 0, 0]
				},
				"tail_antenna_right": {
					"rotation": [0, 0, -15]
				},
				"tail_antenna_right2": {
					"rotation": [-5, 0, 0]
				},
				"legs": {
					"position": [0, 0, 0]
				}
			}
		},
		"animation.venipede.ground_walk": {
			"loop": true,
			"animation_length": 2,
			"bones": {
				"torso": {
					"rotation": ["2.5+math.sin(q.anim_time*90*16)*0.75", "0+math.sin(q.anim_time*90*2)*2", 0],
					"position": ["math.sin(q.anim_time*90*2+90)*0.45", 0, 0]
				},
				"neck": {
					"rotation": [2.5, 0, 0]
				},
				"head": {
					"rotation": ["2.5+math.sin(q.anim_time*90*16+90)*0.5", "0-math.sin(q.anim_time*90*8+90)*0.5", 0]
				},
				"head_antenna_left": {
					"rotation": [0, 0, "10+math.sin(q.anim_time*90*16)*1"]
				},
				"head_antenna_left2": {
					"rotation": [-5, 0, 0]
				},
				"waist": {
					"rotation": ["-2.5+math.sin(q.anim_time*90*16-90)*0.5", "0+math.sin(q.anim_time*90*2-45)*3", 0]
				},
				"waist2": {
					"rotation": ["0+math.sin(q.anim_time*90*16-180)*0.5", "0+math.sin(q.anim_time*90*2-90)*3", 0]
				},
				"waist3": {
					"rotation": ["0+math.sin(q.anim_time*90*16+180)*1", "0+math.sin(q.anim_time*90*2-135)*4", 0]
				},
				"tail": {
					"rotation": ["-2.5+math.sin(q.anim_time*90*16+90)*1.5", "0+math.sin(q.anim_time*90*2-180)*3", 0]
				},
				"tail2": {
					"rotation": [2.5, 0, 0]
				},
				"tail_antenna_left": {
					"rotation": [0, 0, 15]
				},
				"tail_antenna_left2": {
					"rotation": [-5, 0, 0]
				},
				"leg1_left": {
					"rotation": ["0+math.sin(q.anim_time*90*8-180)*22", 0, 10]
				},
				"leg2_left": {
					"rotation": ["0-math.sin(q.anim_time*90*8-45)*22", 0, 5]
				},
				"leg3_left": {
					"rotation": ["0-math.sin(q.anim_time*90*8-90)*22", 0, 5]
				},
				"leg4_left": {
					"rotation": ["0-math.sin(q.anim_time*90*8-135)*22", 0, 5]
				},
				"leg1_right": {
					"rotation": ["0-math.sin(q.anim_time*90*8-180)*22", 0, -5]
				},
				"leg2_right": {
					"rotation": ["0+math.sin(q.anim_time*90*8-45)*22", 0, -5]
				},
				"leg3_right": {
					"rotation": ["0+math.sin(q.anim_time*90*8-90)*22", 0, -5]
				},
				"leg4_right": {
					"rotation": ["0+math.sin(q.anim_time*90*8-135)*22", 0, -5]
				},
				"neck_back": {
					"rotation": [-2.5, 0, 0],
					"position": [0, 0, -0.4]
				},
				"head_antenna_right": {
					"rotation": [0, 0, "-10+math.sin(q.anim_time*90*16)*1"]
				},
				"head_antenna_right2": {
					"rotation": [-5, 0, 0]
				},
				"tail_antenna_right": {
					"rotation": [0, 0, -15]
				},
				"tail_antenna_right2": {
					"rotation": [-5, 0, 0]
				},
				"legs": {
					"rotation": [0, "math.sin(q.anim_time*90*2)*3", 0],
					"position": ["-math.sin(q.anim_time*90*2-90)*0.4", 0, 0]
				}
			}
		},
		"animation.venipede.sleep": {
			"loop": true,
			"animation_length": 2,
			"bones": {
				"torso": {
					"rotation": ["2.5+math.sin(q.anim_time*90*2)*0.5", "0+math.sin(q.anim_time*90*2)*0.25", 0],
					"position": [0, -0.5, 0]
				},
				"neck": {
					"rotation": [5, 0, 0]
				},
				"head": {
					"rotation": ["2.5+math.sin(q.anim_time*90*4)*0.25", "0-math.sin(q.anim_time*90*2)*0.25", 0]
				},
				"head_antenna_left": {
					"rotation": [0, 0, "40+math.sin(q.anim_time*90*2)*1"]
				},
				"head_antenna_left2": {
					"rotation": [-5, 0, 0]
				},
				"waist": {
					"rotation": ["-2.5+math.sin(q.anim_time*90*2-90)*0.5", 0, 0]
				},
				"waist2": {
					"rotation": ["0+math.sin(q.anim_time*90*2-180)*0.5", -2.5, 0]
				},
				"waist3": {
					"rotation": ["0+math.sin(q.anim_time*90*2+180)*1", 2.5, 0]
				},
				"tail": {
					"rotation": ["-2.5+math.sin(q.anim_time*90*2+90)*1.5", 0, 0]
				},
				"tail2": {
					"rotation": [2.5, 0, 0]
				},
				"tail_antenna_left": {
					"rotation": [0, 0, 35]
				},
				"tail_antenna_left2": {
					"rotation": [-5, 0, 0]
				},
				"leg1_left": {
					"rotation": ["0+math.sin(q.anim_time*90*2-180)*4", 0, 10],
					"position": [0, 0, "0+math.sin(q.anim_time*90*2)*0.1"]
				},
				"leg2_left": {
					"rotation": ["0-math.sin(q.anim_time*90*2-35)*4", 0, 5],
					"position": [0, 0, "0+math.sin(q.anim_time*90*2-35)*0.1"]
				},
				"leg3_left": {
					"rotation": ["0-math.sin(q.anim_time*90*2-60)*4", 0, 5],
					"position": [0, 0, "0+math.sin(q.anim_time*90*2-60)*0.1"]
				},
				"leg4_left": {
					"rotation": ["0-math.sin(q.anim_time*90*2-85)*4", 0, 5],
					"position": [0, 0, "math.sin(q.anim_time*90*2-85)*0.1"]
				},
				"leg1_right": {
					"rotation": ["0+math.sin(q.anim_time*90*2-180)*4", 0, -5],
					"position": [0, 0, "0+math.sin(q.anim_time*90*2)*0.1"]
				},
				"leg2_right": {
					"rotation": ["0-math.sin(q.anim_time*90*2-35)*4", 0, -5],
					"position": [0, 0, "0+math.sin(q.anim_time*90*2-35)*0.1"]
				},
				"leg3_right": {
					"rotation": ["0-math.sin(q.anim_time*90*2-60)*4", 0, -5],
					"position": [0, 0, "0+math.sin(q.anim_time*90*2-60)*0.1"]
				},
				"leg4_right": {
					"rotation": ["0-math.sin(q.anim_time*90*2-85)*4", 0, -5],
					"position": [0, 0, "math.sin(q.anim_time*90*2-85)*0.1"]
				},
				"neck_back": {
					"rotation": [7.5, 0, 0],
					"position": [0, 0, 0.4]
				},
				"head_antenna_right": {
					"rotation": [0, 0, "-40+math.sin(q.anim_time*90*2)*1"]
				},
				"head_antenna_right2": {
					"rotation": [-5, 0, 0]
				},
				"tail_antenna_right": {
					"rotation": [0, 0, -35]
				},
				"tail_antenna_right2": {
					"rotation": [-5, 0, 0]
				},
				"legs": {
					"position": [0, 0, 0]
				},
				"eyelid_full_left": {
					"position": [2, 0, 0]
				},
				"eyelid_full_right": {
					"position": [-2, 0, 0]
				}
			}
		},
		"animation.venipede.blink": {
			"animation_length": 0.16667,
			"bones": {
				"eyelid_full_left": {
					"position": {
						"0.0": [2, 0, 0],
						"0.125": {"pre": [2, 0, 0], "post": [2, 0, 0]},
						"0.1667": {"pre": [2, 0, 0], "post": [0, 0, 0]}
					}
				},
				"eyelid_full_right": {
					"position": {
						"0.0": [-2, 0, 0],
						"0.125": {"pre": [-2, 0, 0], "post": [-2, 0, 0]},
						"0.1667": {"pre": [-2, 0, 0], "post": [0, 0, 0]}
					}
				}
			}
		},
		"animation.venipede.twitch": {
			"animation_length": 0.33333,
			"bones": {
				"head_antenna_left": {
					"rotation": {
						"0.0": [0, 0, 0],
						"0.1667": [0, 0, "math.sin(q.anim_time*90*50)*4"],
						"0.3333": [0, 0, 0]
					}
				},
				"head_antenna_right": {
					"rotation": {
						"0.0": [0, 0, 0],
						"0.1667": [0, 0, "-math.sin(q.anim_time*90*50)*4"],
						"0.3333": [0, 0, 0]
					}
				},
				"tail_antenna_left": {
					"rotation": {
						"0.0": [0, 0, 0],
						"0.1667": [0, 0, "-math.sin(q.anim_time*90*50)*4"],
						"0.3333": [0, 0, 0]
					}
				},
				"tail_antenna_right": {
					"rotation": {
						"0.0": [0, 0, 0],
						"0.1667": [0, 0, "math.sin(q.anim_time*90*50)*4"],
						"0.3333": [0, 0, 0]
					}
				}
			}
		}
	}
}