{
	"format_version": "1.8.0",
	"animations": {
		"animation.dudunsparce_three_segment.pose": {
			"loop": true,
			"bones": {
				"neck": {
					"rotation": [15, 0, 0]
				},
				"torso_connection": {
					"rotation": [0, 0, -7.5]
				},
				"tail2": {
					"rotation": [30, 0, 0]
				},
				"drill_1": {
					"rotation": [22.99008, -11.53486, -4.8493]
				},
				"torso2": {
					"rotation": [-25, 0, 0]
				},
				"tail": {
					"rotation": [15, 0, 0]
				},
				"wing_right2": {
					"rotation": [-25, 15, -25]
				},
				"wing_left2": {
					"rotation": [-25, -15, 25]
				},
				"wing_left": {
					"rotation": [-25, -15, 45]
				},
				"wing_right": {
					"rotation": [-25, 15, -45]
				},
				"torso_connection2": {
					"rotation": [0, 0, -10]
				},
				"torso3": {
					"rotation": [25, -15, 0]
				},
				"head": {
					"rotation": [-5, 0, 10]
				},
				"mouth_spikes_front": {
					"position": [0, 0, 3]
				},
				"mouth_spikes_bottom": {
					"rotation": [-40, 0, 0],
					"position": [0, -3, 0]
				},
				"mouth_open_left": {
					"position": [0.1, -0.1, -0.1]
				},
				"mouth_open_right": {
					"position": [-0.1, -0.1, -0.1]
				}
			}
		},
		"animation.dudunsparce_three_segment.ground_Idle": {
			"loop": true,
			"bones": {
				"tail2": {
					"rotation": [20, 0, 0]
				},
				"drill_1": {
					"rotation": [25, 0, 0]
				},
				"tail": {
					"rotation": [15, 0, 0]
				},
				"wing_right2": {
					"rotation": [-15, 0, -35]
				},
				"wing_left2": {
					"rotation": [-15, 0, 35]
				},
				"wing_left": {
					"rotation": [-20, 0, 30]
				},
				"wing_right": {
					"rotation": [-20, 0, -30]
				},
				"head": {
					"rotation": [-5, 0, 0]
				},
				"mouth_spikes_front": {
					"rotation": [30, 0, 0]
				}
			}
		},
		"animation.dudunsparce_three_segment.blink": {
			"animation_length": 0.6667,
			"bones": {
				"pupil_left": {
					"position": {
						"0.0": [-0.1, 0, 0],
						"0.625": [-0.1, 0, 0],
						"0.6667": [0, 0, 0]
					}
				},
				"pupil_right": {
					"position": {
						"0.0": [0.1, 0, 0],
						"0.625": [0.1, 0, 0],
						"0.6667": [0, 0, 0]
					}
				},
				"pupil_right_closed": {
					"position": {
						"0.0": [-0.1, 0, 0],
						"0.625": [-0.1, 0, 0],
						"0.6667": [0, 0, 0]
					}
				},
				"pupil_left_closed": {
					"position": {
						"0.0": [0.1, 0, 0],
						"0.625": [0.1, 0, 0],
						"0.6667": [0, 0, 0]
					}
				}
			}
		},
		"animation.dudunsparce_three_segment.chest_test": {
			"loop": "hold_on_last_frame",
			"animation_length": 0.75,
			"bones": {
				"neck": {
					"rotation": [-22.5, 0, 0],
					"position": {
						"0.0": [0, 0, 0],
						"0.2083": [0, 0, 0],
						"0.25": [0, 0, -2]
					}
				},
				"torso2_inflation": {
					"scale": {
						"0.0": [1, 1, 1],
						"0.25": {"pre": [1, 1, 1], "post": [0, 0, 0]}
					}
				},
				"torso2": {
					"position": {
						"0.0": [0, 0, 0],
						"0.2083": [0, 0, 0],
						"0.25": [0, 0, -3]
					}
				}
			}
		},
		"animation.dudunsparce_three_segment.mouths_test": {
			"loop": "hold_on_last_frame",
			"animation_length": 1,
			"bones": {
				"head": {
					"rotation": [-10, 0, 0]
				},
				"mouth_spikes_bottom": {
					"rotation": {
						"0.0": [0, 0, 0],
						"0.25": {"pre": [0, 0, 0], "post": [-27.5, 0, 0]},
						"0.5": {"pre": [-27.5, 0, 0], "post": [-35, 0, 0]}
					},
					"position": {
						"0.0": [0, 0, 0],
						"0.25": {"pre": [0, 0, 0], "post": [0, -3, 0]},
						"0.5": {"pre": [0, -3, 0], "post": [0, -3, -4]},
						"0.75": {"pre": [0, -3, -4], "post": [0, 0, 0]}
					}
				},
				"mouth_spikes_front": {
					"rotation": {
						"0.0": [35, 0, 0],
						"0.25": {"pre": [35, 0, 0], "post": [0, 0, 0]},
						"0.75": {"pre": [0, 0, 0], "post": [35, 0, 0]}
					},
					"position": {
						"0.0": [0, 0, 0],
						"0.25": {"pre": [0, 0, 0], "post": [0, 0, 3]},
						"0.75": {"pre": [0, 0, 3], "post": [0, 0, 0]}
					}
				},
				"mouth_open_small_left": {
					"position": {
						"0.0": [0, 0, 0],
						"0.5": {"pre": [0, 0, 0], "post": [0.1, -0.1, -0.1]},
						"0.75": {"pre": [0.1, -0.1, -0.1], "post": [0, 0, 0]}
					},
					"scale": 1
				},
				"mouth_open_left": {
					"position": {
						"0.0": [0, 0, 0],
						"0.25": {"pre": [0, 0, 0], "post": [0.1, -0.1, -0.1]},
						"0.5": {"pre": [0.1, -0.1, -0.1], "post": [0, 0, 0]}
					}
				},
				"mouth_open_right": {
					"position": {
						"0.0": [0, 0, 0],
						"0.25": {"pre": [0, 0, 0], "post": [-0.1, -0.1, -0.1]},
						"0.5": {"pre": [-0.1, -0.1, -0.1], "post": [0, 0, 0]}
					}
				},
				"mouth_open_small_right": {
					"position": {
						"0.0": [0, 0, 0],
						"0.5": {"pre": [0, 0, 0], "post": [-0.1, -0.1, -0.1]},
						"0.75": {"pre": [-0.1, -0.1, -0.1], "post": [0, 0, 0]}
					}
				}
			}
		},
		"animation.dudunsparce_three_segment.pose2": {
			"loop": true,
			"bones": {
				"body": {
					"rotation": [0, 102.5, 0],
					"position": [5, 0, 8]
				},
				"wing_left2": {
					"rotation": [-45, 0, 67.5]
				},
				"wing_right2": {
					"rotation": [-45, 0, -67.5]
				},
				"torso2": {
					"rotation": [0, -45, 0]
				},
				"neck": {
					"rotation": [0, -22.5, 0]
				},
				"wing_left": {
					"rotation": [-45, 0, 60]
				},
				"wing_right": {
					"rotation": [-45, 0, -60]
				},
				"tail": {
					"rotation": [0, 15, 0]
				},
				"tail2": {
					"rotation": [0, 22.5, 0]
				},
				"drill_1": {
					"rotation": [0, 22.5, 0]
				},
				"torso3": {
					"rotation": [0, 45, 0]
				},
				"mouth_spikes_front": {
					"rotation": [30, 0, 0]
				},
				"pupil_left": {
					"position": [-0.1, 0, 0]
				},
				"pupil_right": {
					"position": [0.1, 0, 0]
				},
				"pupil_right_closed": {
					"position": [-0.1, 0, 0]
				},
				"pupil_left_closed": {
					"position": [0.1, 0, 0]
				}
			}
		}
	}
}