{
	"format_version": "1.8.0",
	"animations": {
		"animation.impidimp.ground_idle": {
			"loop": true,
			"bones": {
				"body": {
					"position": [0, -1.9, 0]
				},
				"torso": {
					"rotation": [10, 0, 0]
				},
				"arm_left": {
					"rotation": [-2.25549, -17.255, 12.98529]
				},
				"arm_left2": {
					"rotation": [0, 22.5, 0]
				},
				"arm_left3": {
					"rotation": [0, 30, 0]
				},
				"hand_left": {
					"rotation": [0.6574, -7.4713, -7.54292]
				},
				"finger_back_left": {
					"rotation": [0, -10, -17.5]
				},
				"finger_front_left": {
					"rotation": [0, 10, -12.5]
				},
				"thumb_left": {
					"rotation": [0, -25, 0]
				},
				"thumb_left2": {
					"rotation": [0, -7.5, 0]
				},
				"arm_right": {
					"rotation": [-2.25549, 17.255, -12.98529]
				},
				"arm_right2": {
					"rotation": [0, -22.5, 0]
				},
				"arm_right3": {
					"rotation": [0, -30, 0]
				},
				"hand_right": {
					"rotation": [0.6574, 7.4713, 7.54292]
				},
				"finger_back_right": {
					"rotation": [0, 10, 17.5]
				},
				"finger_front_right": {
					"rotation": [0, -10, 12.5]
				},
				"thumb_right": {
					"rotation": [0, 25, 0]
				},
				"thumb_right2": {
					"rotation": [0, 7.5, 0]
				},
				"head": {
					"rotation": [-5, 0, 0]
				},
				"leg_left": {
					"rotation": [-37.41536, -16.72344, -26.19457]
				},
				"leg_left2": {
					"rotation": [27.5, 0, 0]
				},
				"leg_left3": {
					"rotation": [29.97638, -1.2497, 2.16541]
				},
				"foot_left": {
					"rotation": [-10.96819, 7.40701, 22.28959]
				},
				"leg_right": {
					"rotation": [-37.23825, 14.12922, 26.94225]
				},
				"leg_right2": {
					"rotation": [27.47766, 1.15408, -2.21783]
				},
				"leg_right3": {
					"rotation": [30, 0, 0]
				},
				"foot_right": {
					"rotation": [-12.48848, -0.54094, -24.94081]
				},
				"tongue": {
					"rotation": [-40, 0, 0]
				},
				"tongue2": {
					"rotation": [-27.5, 0, 0]
				},
				"mouth_closed": {
					"scale": 0.99
				}
			}
		},
		"animation.impidimp.blink": {
			"animation_length": 0.16667,
			"bones": {
				"pupil_left": {
					"position": {
						"0.0": [0, 0, 0.1],
						"0.125": [0, 0, 0.1],
						"0.1667": [0, 0, 0]
					}
				},
				"eyelid_left": {
					"position": {
						"0.0": [0, 0, -0.1],
						"0.125": [0, 0, -0.1],
						"0.1667": [0, 0, 0]
					}
				},
				"pupil_right": {
					"position": [0, 0, 0.1]
				},
				"eyelid_right": {
					"position": {
						"0.0": [0, 0, -0.1],
						"0.125": [0, 0, -0.1],
						"0.1667": [0, 0, 0]
					}
				}
			}
		}
	}
}