{
	"format_version": "1.8.0",
	"animations": {
		"animation.hattena.render": {
			"loop": true,
			"bones": {
				"torso": {
					"rotation": [-7.5, 0, 0]
				},
				"mouth_closed": {
					"position": [0, 0, 0.1]
				},
				"hat_mid": {
					"rotation": [12.5, 0, 0]
				},
				"hat__mid_bend": {
					"rotation": [5, 0, 0]
				},
				"hat_end": {
					"rotation": [10, 0, 0]
				},
				"hat_end_bend": {
					"rotation": [0, 0, 0]
				},
				"hat_tip": {
					"rotation": [5, 0, 0]
				},
				"right_foot": {
					"rotation": [10, 10, 0]
				},
				"right_toe": {
					"rotation": [-12.5, 0, 0]
				},
				"left_foot": {
					"rotation": [10, -12.5, 0]
				},
				"left_toe": {
					"rotation": [-12.5, 0, 0]
				},
				"left_hair_arm": {
					"rotation": [0, -15, 60]
				},
				"left_hair_elbow": {
					"rotation": [0, 0, -15]
				},
				"left_hair_hand": {
					"rotation": [0, 0, -45]
				},
				"right_hair_arm": {
					"rotation": [19.53424, 5.47999, -62.44893]
				},
				"right_hair_elbow": {
					"rotation": [0, 0, 47.5]
				},
				"right_hair_hand": {
					"rotation": [0, 0, 35]
				},
				"mouth_open": {
					"position": [0, 0, -0.1]
				}
			}
		}
	}
}