{
	"format_version": "1.8.0",
	"animations": {
		"animation.swoobat.ground_idle": {
			"loop": true,
			"bones": {
				"body": {
					"position": [0, 5, 0]
				},
				"torso": {
					"rotation": [20, 0, 0]
				},
				"head": {
					"rotation": [-15, 0, 0]
				},
				"left_wing": {
					"rotation": [34.57963, -50.26132, -33.71263]
				},
				"left_wing2": {
					"rotation": [0, 80, 0]
				},
				"left_wing3": {
					"rotation": [0, 65, 0]
				},
				"neck_fluff": {
					"rotation": [-7.5, 0, 0]
				},
				"left_upper_leg": {
					"rotation": [23.66477, -18.06914, -15.42976],
					"position": [0, 0, 0]
				},
				"left_lower_leg": {
					"rotation": [-42.5, 0, 0],
					"position": [0, 0, 0]
				},
				"left_foot": {
					"rotation": [-51.30736, -7.99264, 11.97535]
				},
				"left_toes": {
					"rotation": [-15.5, 0, 0]
				},
				"tail": {
					"rotation": [-5, 0, 0]
				},
				"tail2": {
					"rotation": [12.5, 0, 0]
				},
				"left_tail_tip": {
					"rotation": [10, 0, 0]
				},
				"right_tail_tip": {
					"rotation": [10, 0, 0]
				},
				"right_upper_leg": {
					"rotation": [23.66477, 18.06914, 15.42976],
					"position": [0, 0, 0]
				},
				"right_lower_leg": {
					"rotation": [-42.5, 0, 0],
					"position": [0, 0, 0]
				},
				"right_foot": {
					"rotation": [-51.30736, 7.99264, -11.97535]
				},
				"right_toes": {
					"rotation": [-15.5, 0, 0]
				},
				"left_wing4": {
					"rotation": [0, 30, 0]
				},
				"right_wing": {
					"rotation": [34.57963, 50.26132, 33.71263]
				},
				"right_wing2": {
					"rotation": [0, -80, 0]
				},
				"right_wing3": {
					"rotation": [0, -65, 0]
				},
				"right_wing4": {
					"rotation": [0, -30, 0]
				}
			}
		},
		"animation.swoobat.air_idle": {
			"loop": true,
			"bones": {
				"left_upper_leg": {
					"rotation": [-90, 0, 0],
					"position": [0, 3, 1]
				},
				"left_lower_leg": {
					"rotation": [0, 0, 0],
					"position": [0, 4, 0]
				},
				"left_foot": {
					"rotation": [80, 0, 0]
				},
				"left_toes": {
					"rotation": [15, 0, 0]
				},
				"body": {
					"position": [0, 5, 0]
				},
				"torso": {
					"rotation": [-2.5, 0, 0]
				},
				"head": {
					"rotation": [7.5, 0, 0]
				},
				"left_wing": {
					"rotation": [29.87691, -11.82015, -35.37102]
				},
				"left_wing2": {
					"rotation": [0, 12.5, 0]
				},
				"left_wing3": {
					"rotation": [0, 15, 0]
				},
				"neck_fluff": {
					"rotation": [5, 0, 0]
				},
				"tail": {
					"rotation": [-22.5, 0, 0]
				},
				"tail2": {
					"rotation": [-7.5, 0, 0]
				},
				"left_tail_tip": {
					"rotation": [-12.5, 0, 0]
				},
				"right_tail_tip": {
					"rotation": [-12.5, 0, 0]
				},
				"right_upper_leg": {
					"rotation": [-90, 0, 0],
					"position": [0, 3, 1]
				},
				"right_lower_leg": {
					"rotation": [0, 0, 0],
					"position": [0, 4, 0]
				},
				"right_foot": {
					"rotation": [80, 0, 0]
				},
				"right_toes": {
					"rotation": [15, 0, 0]
				},
				"right_wing": {
					"rotation": [29.87691, 11.82015, 35.37102]
				},
				"left_wing4": {
					"rotation": [0, 7.5, 0]
				},
				"right_wing2": {
					"rotation": [0, -12.5, 0]
				},
				"right_wing3": {
					"rotation": [0, -15, 0]
				},
				"right_wing4": {
					"rotation": [0, -7.5, 0]
				}
			}
		},
		"animation.swoobat.air_fly": {
			"loop": true,
			"bones": {
				"left_upper_leg": {
					"rotation": [-42.5, 0, 0],
					"position": [0, 3, -2]
				},
				"left_lower_leg": {
					"rotation": [0, 0, 0],
					"position": [0, 4, 0]
				},
				"left_foot": {
					"rotation": [80, 0, 0]
				},
				"left_toes": {
					"rotation": [15, 0, 0]
				},
				"body": {
					"position": [0, 5, 0]
				},
				"torso": {
					"rotation": [50, 0, 0]
				},
				"head": {
					"rotation": [-35, 0, 0]
				},
				"left_wing": {
					"rotation": [11.43257, -32.27115, -8.44973]
				},
				"left_wing2": {
					"rotation": [0, 12.5, 0]
				},
				"left_wing3": {
					"rotation": [0, 15, 0]
				},
				"neck_fluff": {
					"rotation": [-20, 0, 0]
				},
				"tail": {
					"rotation": [-10, 0, 0]
				},
				"tail2": {
					"rotation": [12.5, 0, 0]
				},
				"left_tail_tip": {
					"rotation": [10, 0, 0]
				},
				"right_tail_tip": {
					"rotation": [10, 0, 0]
				},
				"right_upper_leg": {
					"rotation": [-42.5, 0, 0],
					"position": [0, 3, -2]
				},
				"right_lower_leg": {
					"rotation": [0, 0, 0],
					"position": [0, 4, 0]
				},
				"right_foot": {
					"rotation": [80, 0, 0]
				},
				"right_toes": {
					"rotation": [15, 0, 0]
				},
				"right_wing": {
					"rotation": [11.43257, 32.27115, 8.44973]
				},
				"left_wing4": {
					"rotation": [0, 7.5, 0]
				},
				"right_wing2": {
					"rotation": [0, -12.5, 0]
				},
				"right_wing3": {
					"rotation": [0, -15, 0]
				},
				"right_wing4": {
					"rotation": [0, -7.5, 0]
				}
			}
		},
		"animation.swoobat.cry": {
			"animation_length": 1.45833,
			"bones": {
				"head": {
					"rotation": {
						"0.0": [0, 0, 0],
						"0.25": [-10, 0, 0],
						"1.0": [-10, 0, 0],
						"1.25": [0, 0, 0]
					}
				},
				"mouth": {
					"position": {
						"0.25": [0, 0, 0],
						"0.2917": [0, -0.2, 0],
						"0.9583": [0, -0.2, 0],
						"1.0": [0, 0, 0]
					}
				},
				"mouth_open": {
					"position": {
						"0.2083": [0, 0, 0],
						"0.25": {"pre": [0, 0, 0], "post": [0, -0.1, -0.1]},
						"1.0": {"pre": [0, -0.1, -0.1], "post": [0, -0.1, -0.1]},
						"1.0417": {"pre": [0, -0.1, -0.1], "post": [0, 0, 0]}
					}
				},
				"neck_fluff": {
					"rotation": {
						"0.0417": [0, 0, 0],
						"0.2917": [-7.5, 0, 0],
						"0.4583": [-6, 0, 0],
						"1.0417": [-6, 0, 0],
						"1.2917": [1.5, 0, 0],
						"1.4583": [0, 0, 0]
					}
				}
			}
		},
		"animation.swoobat.blink": {
			"animation_length": 0.16667,
			"bones": {
				"closed": {
					"position": {
						"0.0": [0, 0, -0.1],
						"0.125": {"pre": [0, 0, -0.1], "post": [0, 0, -0.1]},
						"0.1667": {"pre": [0, 0, -0.1], "post": [0, 0, 0]}
					}
				}
			}
		}
	}
}