{
	"format_version": "1.8.0",
	"animations": {
		"animation.fletchinder.ground_idle": {
			"loop": true,
			"bones": {
				"toe_inner_left": {
					"rotation": [0, 5, 0]
				},
				"toe_outer_left": {
					"rotation": [0, -5, 0]
				},
				"hair": {
					"rotation": [0, 0, 0]
				},
				"wing_left": {
					"rotation": [134.97272, -86.46503, -45.02728],
					"position": [0, -1.5, -1.5]
				},
				"wing_left2": {
					"rotation": [0, 30, 0]
				},
				"wing_left3": {
					"rotation": [0, -37.5, 0]
				},
				"wing_right": {
					"rotation": [134.97272, 86.46503, 45.02728],
					"position": [0, -1.5, -1.5]
				},
				"wing_right2": {
					"rotation": [0, -30, 0]
				},
				"wing_right3": {
					"rotation": [0, 37.5, 0]
				},
				"tail": {
					"rotation": [35, 0, 0]
				}
			}
		},
		"animation.fletchinder.cry": {
			"animation_length": 1.5,
			"bones": {
				"neck": {
					"rotation": {
						"0.0": [0, 0, 0],
						"0.25": [10, 0, 0],
						"1.25": [10, 0, 0],
						"1.5": [0, 0, 0]
					}
				},
				"head": {
					"rotation": {
						"0.0": [0, 0, 0],
						"0.25": [-15, 0, 0],
						"1.25": [-15, 0, 0],
						"1.5": [0, 0, 0]
					}
				},
				"jaw": {
					"rotation": {
						"0.0": [0, 0, 0],
						"0.25": [42.5, 0, 0],
						"1.25": [42.5, 0, 0],
						"1.5": [0, 0, 0]
					}
				}
			}
		},
		"animation.fletchinder.blink": {
			"animation_length": 0.1667,
			"bones": {
				"eyelid_left": {
					"position": {
						"0.0": [0.1, 0, -0.1],
						"0.125": [0.1, 0, -0.1],
						"0.1667": [0, 0, 0]
					}
				},
				"eyelid_right": {
					"position": {
						"0.0": [-0.1, 0, -0.1],
						"0.125": [-0.1, 0, -0.1],
						"0.1667": [0, 0, 0]
					}
				}
			}
		}
	}
}