{
	"format_version": "1.8.0",
	"animations": {
		"animation.miltank.render": {
			"loop": true,
			"bones": {
				"body": {
					"rotation": [-15, 0, 0],
					"position": [0, 4, 0]
				},
				"teat_right_top": {
					"rotation": [-20, 4.7, -1.75]
				},
				"teat_right_bottom": {
					"rotation": [-15, 5, -1.3]
				},
				"teat_left_top": {
					"rotation": [-20, -4.7, 1.75]
				},
				"teat_left_bottom": {
					"rotation": [-15, -5, 1.3]
				},
				"neck": {
					"position": [0, 0, -1]
				},
				"head": {
					"rotation": [10, 0, 0],
					"position": [0, 1, 0]
				},
				"jaw": {
					"rotation": [35, 0, 0]
				},
				"ear_left": {
					"rotation": [0, 0, -30]
				},
				"ear_right": {
					"rotation": [0, 0, 25]
				},
				"arm_left": {
					"rotation": [-20, 0, -40]
				},
				"hand_left": {
					"rotation": [0, 10, -15]
				},
				"arm_right": {
					"rotation": [-20, 0, 40]
				},
				"hand_right": {
					"rotation": [-0.9, -10, 5]
				},
				"tail": {
					"rotation": [-30, 0, 0]
				},
				"tail_2": {
					"rotation": [30, 0, 0]
				},
				"tail_3": {
					"rotation": [30, 0, 0]
				},
				"tail_4": {
					"rotation": [30, 0, 0]
				},
				"tail_5": {
					"rotation": [20, 0, 0]
				},
				"leg_left": {
					"rotation": [-82, -32, 8.5]
				},
				"foot_left": {
					"rotation": [20, 0, 0]
				},
				"leg_right": {
					"rotation": [-82, 32, -8.5]
				},
				"foot_right": {
					"rotation": [20, 0, 0]
				}
			}
		},
		"animation.miltank.ground_idle": {
			"loop": true,
			"bones": {
				"arm_left": {
					"rotation": ["3+math.sin(q.anim_time*90*2-150)*2", 5.5, "29-math.sin(q.anim_time*90*4-30)*3"],
					"position": [-1, 0, 0]
				},
				"arm_right": {
					"rotation": ["3+math.sin(q.anim_time*90*2-150)*2", -5.5, "-29+math.sin(q.anim_time*90*4-30)*3"],
					"position": [1, 0, 0]
				},
				"ear_right": {
					"rotation": [0, 0, "-30-2*math.sin(q.anim_time*90*4+90)*2"]
				},
				"ear_left": {
					"rotation": [0, 0, "30+2*math.sin(q.anim_time*90*4+90)*2"]
				},
				"torso": {
					"rotation": [2.5, 0, "0+math.sin(q.anim_time*90*2-30)*1"],
					"position": [0, "0.1*(math.sin(q.anim_time*90*4-30)*1+1)", 0]
				},
				"forearm_left": {
					"rotation": [0, 0, 45]
				},
				"forearm_right": {
					"rotation": [0, 0, -45]
				},
				"hand_left": {
					"rotation": [1, 2.35, "14.5+math.sin(q.anim_time*90*4-30)*1"]
				},
				"hand_right": {
					"rotation": [1, -2.35, "-14.5-math.sin(q.anim_time*90*4-30)*1"]
				},
				"head": {
					"rotation": [-2.5, 0, 0]
				},
				"teat_right_top": {
					"rotation": ["10-1.5*math.sin(q.anim_time*90*4-90)*3", 5, 0.85]
				},
				"teat_left_top": {
					"rotation": ["10-1.5*math.sin(q.anim_time*90*4-90)*3", -5, -0.87038]
				},
				"teat_right_bottom": {
					"rotation": ["20-1.5*math.sin(q.anim_time*90*4-90)*3", 4.75, 1.75]
				},
				"teat_left_bottom": {
					"rotation": ["20-1.5*math.sin(q.anim_time*90*4-90)*3", -4.75, -1.75]
				},
				"tail": {
					"rotation": [
						"-5+0.5*math.sin(q.anim_time*90*2-30*2)*8+math.sin(q.anim_time*90*1-30*2)",
						"6*math.sin(q.anim_time*90*2+180)+3*math.sin(q.anim_time*90*1+180)",
						"math.sin(q.anim_time*90*0.25-30*2)*8+math.sin(q.anim_time*90*0.25-30*2)*4"
					]
				},
				"tail_2": {
					"rotation": ["30+0.5*math.sin(q.anim_time*90*2-30*2)*8+math.sin(q.anim_time*90*1-30*2)", 0, 0]
				},
				"tail_3": {
					"rotation": ["30+0.5*math.sin(q.anim_time*90*2-30*2)*8+math.sin(q.anim_time*90*1-30*2)", 0, 0]
				},
				"tail_4": {
					"rotation": ["30+0.5*math.sin(q.anim_time*90*2-30*2)*8+math.sin(q.anim_time*90*1-30*2)", 0, 0]
				},
				"tail_5": {
					"rotation": ["15+0.5*math.sin(q.anim_time*90*2-30*2)*8+math.sin(q.anim_time*90*1-30*2)", 0, 0]
				}
			}
		},
		"animation.miltank.ground_walk": {
			"loop": true,
			"bones": {
				"body": {
					"rotation": [
						"math.clamp(math.sin(query.anim_time*180*4/2+20)*1,0.2,2)+math.clamp(-math.sin(query.anim_time*180*4/2+20)*1,0.2,2)+1",
						"math.sin(query.anim_time*90*4+20)*10",
						"math.sin(query.anim_time*90*4+20)*2"
					],
					"position": [
						0,
						"-math.clamp(math.sin(-query.anim_time*90*4+45/2)*0.6,0.1,1)-math.clamp(math.sin(-query.anim_time*90*4+45/2+180)*0.6,0.1,1)+0.95",
						"-math.clamp(math.sin(query.anim_time*90*4)*0.7,0.1,0.6)-math.clamp(math.sin(-query.anim_time*90*4)*0.7,0.1,0.6)+0.2"
					]
				},
				"torso": {
					"rotation": ["-math.sin(query.anim_time*90*4*2+30)*3+2", 0, "math.sin(query.anim_time*90*4-30)*2"]
				},
				"neck": {
					"rotation": [
						"-math.clamp(math.sin(query.anim_time*180*4/2+20)*1,0.2,2)-math.clamp(-math.sin(query.anim_time*180*4/2+20)*1,0.2,2)-1",
						"-math.sin(query.anim_time*90*4+20)*7",
						"-math.sin(query.anim_time*90*4+20)*2"
					]
				},
				"ear_right": {
					"rotation": [0, 0, "-30+2*math.sin(q.anim_time*90*8)*3"]
				},
				"ear_left": {
					"rotation": [0, 0, "30-2*math.sin(q.anim_time*90*8)*3"]
				},
				"arm_left": {
					"rotation": ["-6.75+math.sin(q.anim_time*90*4*2-150+60)*2", 16, "22.5-math.sin(q.anim_time*90*4*2-30+60)*5"],
					"position": [0, -0.5, 0]
				},
				"arm_right": {
					"rotation": ["-6.75+math.sin(q.anim_time*90*4*2-150+60)*2", -16, "-22.5+math.sin(q.anim_time*90*4*2-30+60)*5"],
					"position": [0, -0.5, 0]
				},
				"hand_left": {
					"rotation": [1.45, 2, "15+math.sin(q.anim_time*90*4*2-30+60)*3"]
				},
				"hand_right": {
					"rotation": [1.45, -2, "-15-math.sin(q.anim_time*90*4*2-30+60)*3"]
				},
				"leg_left": {
					"rotation": [
						"-math.clamp(math.sin(query.anim_time*90*4+45)*10,-15,14)+math.clamp(-math.sin(query.anim_time*90*4+180)*12,5,12)-5",
						"-math.clamp(-math.sin(query.anim_time*90*4+180*1)*10,0,10)",
						0
					],
					"position": [
						0,
						"-math.clamp(-math.sin(query.anim_time*90*4+20+180*0)*0.4,0.3,3)-math.clamp(-math.sin(query.anim_time*90*4-120+180)*1.25,0.3,1.2)+1.25-math.clamp(-math.sin(query.anim_time*90*4-60+180)*0.4,0,1.5)+math.clamp(-math.sin(query.anim_time*90*4-35+180*0)*2,1,2)-1.5",
						"-math.clamp(math.sin(query.anim_time*90*4)*0.2,-0.5,1)-math.clamp(math.sin(query.anim_time*90*4)*0.4,-0.8,0)"
					]
				},
				"leg_right": {
					"rotation": [
						"-math.clamp(math.sin(query.anim_time*90*4+45+180)*10,-15,14)+math.clamp(-math.sin(query.anim_time*90*4+180*2)*12,5,12)-5",
						"math.clamp(math.sin(query.anim_time*90*4+180*1)*10,0,10)",
						0
					],
					"position": [
						0,
						"-math.clamp(-math.sin(query.anim_time*90*4+20+180)*0.4,0.3,3)-math.clamp(-math.sin(query.anim_time*90*4-120)*1.25,0.3,1.2)+1.25-math.clamp(-math.sin(query.anim_time*90*4-60)*0.4,0,1.5)+math.clamp(-math.sin(query.anim_time*90*4-35+180)*2,1,2)-1.5",
						"-math.clamp(math.sin(query.anim_time*90*4+180)*0.2,-0.5,1)-math.clamp(math.sin(query.anim_time*90*4+180)*0.4,-0.8,0)"
					]
				},
				"foot_right": {
					"rotation": ["-5-math.clamp(math.sin(query.anim_time*90*4-120+180*1)*5,-15,14)", -5, 0]
				},
				"foot_left": {
					"rotation": ["-5-math.clamp(math.sin(query.anim_time*90*4-120+180*0)*5,-15,14)", 5, 0]
				},
				"teat_right_top": {
					"rotation": ["10-4*math.sin(q.anim_time*90*8)*3", "5+2*math.sin(query.anim_time*90*4-40)*10", 0.85]
				},
				"teat_left_top": {
					"rotation": ["10-4*math.sin(q.anim_time*90*8)*3", "-5+2*math.sin(query.anim_time*90*4-40)*10", -0.85]
				},
				"teat_right_bottom": {
					"rotation": ["20-4*math.sin(q.anim_time*90*8)*3", "4.65+2*math.sin(query.anim_time*90*4-40)*10", 1.75]
				},
				"teat_left_bottom": {
					"rotation": ["20-4*math.sin(q.anim_time*90*8)*3", "-4.65+2*math.sin(query.anim_time*90*4-40)*10", -1.75]
				},
				"tail": {
					"rotation": ["-5+math.sin(query.anim_time*90*4*2-30)*3", "math.sin(query.anim_time*90*4-90)*8", 0]
				},
				"tail_2": {
					"rotation": ["20+math.sin(query.anim_time*90*4*2-30)*3", "math.sin(query.anim_time*90*4-60)*4", 0]
				},
				"tail_3": {
					"rotation": ["20+math.sin(query.anim_time*90*4*2-30)*3", "math.sin(query.anim_time*90*4-90)*4", 0]
				},
				"tail_4": {
					"rotation": ["20+math.sin(query.anim_time*90*4*2-30)*3", "math.sin(query.anim_time*90*4-90)*4", 0]
				},
				"tail_5": {
					"rotation": ["20+math.sin(query.anim_time*90*4*2-30)*3", "math.sin(query.anim_time*90*4-90)*4", 0]
				}
			}
		},
		"animation.miltank.ground_sleep": {
			"loop": true,
			"bones": {
				"body": {
					"position": [0, -3, 0]
				},
				"torso": {
					"rotation": ["math.sin(q.anim_time*90*1-30)*1", 0, 0],
					"position": [0, "0.1*(math.sin(q.anim_time*90*1-30)*1+1)", 0]
				},
				"head": {
					"rotation": ["7.5+math.sin(q.anim_time*90*1-30)*1", 0, 0]
				},
				"ear_right": {
					"rotation": [0, 0, "-35+3*math.sin(q.anim_time*90*1-30)*1"]
				},
				"ear_left": {
					"rotation": [0, 0, "35-3*math.sin(q.anim_time*90*1-30)*1"]
				},
				"eyelid_left": {
					"position": [0.1, 0, -0.1]
				},
				"eyelid_right": {
					"position": [-0.1, 0, -0.1]
				},
				"arm_left": {
					"rotation": [0, 5.5, "30-math.sin(q.anim_time*90*1+90)*1"],
					"position": [-1, 0, 0]
				},
				"arm_right": {
					"rotation": [0, -5.5, "-30+math.sin(q.anim_time*90*1+90)*1"],
					"position": [1, 0, 0]
				},
				"hand_left": {
					"rotation": [1, 2.35, "14.5+math.sin(q.anim_time*90*4-30)*1"]
				},
				"hand_right": {
					"rotation": [1, -2.35, "-14.5-math.sin(q.anim_time*90*4-30)*1"]
				},
				"leg_left": {
					"rotation": [-92, -25, 5.5],
					"position": [0, -1, 0]
				},
				"foot_left": {
					"rotation": ["20-2*math.sin(q.anim_time*90*1+20)*1", -4.7, -1.75],
					"position": [0, 0, 1]
				},
				"leg_right": {
					"rotation": [-92, 25, -5.5],
					"position": [0, -1, 0]
				},
				"foot_right": {
					"rotation": ["20-2*math.sin(q.anim_time*90*1+20)*1", 4.7, 1.75],
					"position": [0, 0, 1]
				},
				"teat_right_top": {
					"rotation": ["10-3*math.sin(q.anim_time*90*1+50)*1", 5, 0.85]
				},
				"teat_left_top": {
					"rotation": ["10-3*math.sin(q.anim_time*90*1+50)*1", -5, -0.85]
				},
				"teat_right_bottom": {
					"rotation": ["20-3*math.sin(q.anim_time*90*1+50)*1", 4.75, 1.75]
				},
				"teat_left_bottom": {
					"rotation": ["20-3*math.sin(q.anim_time*90*1+50)*1", -4.75, -1.75]
				},
				"tail": {
					"rotation": ["-2.5+1*math.sin(q.anim_time*90*1+50)*1", "0.16+2*math.sin(q.anim_time*90*1-30)*1", 90]
				},
				"tail_2": {
					"rotation": ["35+1*math.sin(q.anim_time*90*1+50)*1", 0, 0]
				},
				"tail_3": {
					"rotation": ["35+1*math.sin(q.anim_time*90*1+50)*1", 0, 0]
				},
				"tail_4": {
					"rotation": ["35+1*math.sin(q.anim_time*90*1+50)*1", 0, 0]
				},
				"tail_5": {
					"rotation": ["35+1*math.sin(q.anim_time*90*1+50)*1", 0, 0]
				}
			}
		},
		"animation.miltank.blink": {
			"animation_length": 0.16667,
			"bones": {
				"eyelid_right": {
					"position": {
						"0.0": [-0.1, 0, -0.1],
						"0.125": [-0.1, 0, -0.1],
						"0.1667": [0, 0, 0]
					}
				},
				"eyelid_left": {
					"position": {
						"0.0": [0.1, 0, -0.1],
						"0.125": [0.1, 0, -0.1],
						"0.1667": [0, 0, 0]
					}
				}
			}
		},
		"animation.miltank.cry": {
			"animation_length": 1.5,
			"bones": {
				"head": {
					"rotation": {
						"0.0": [0, 0, 0],
						"0.25": [-20, 0, 0],
						"1.25": [-20, 0, 0],
						"1.5": [0, 0, 0]
					}
				},
				"jaw": {
					"rotation": {
						"0.0": [0, 0, 0],
						"0.25": [30, 0, 0],
						"1.25": [30, 0, 0],
						"1.5": [0, 0, 0]
					}
				}
			}
		}
	}
}