{
	"format_version": "1.8.0",
	"animations": {
		"animation.ursaluna.ground_idle": {
			"animation_length": 0.75,
			"bones": {
				"torso": {
					"rotation": [-5, 0, 0]
				},
				"shoulder_left": {
					"rotation": [0, -22.5, 52.5]
				},
				"arm_left": {
					"rotation": [10, 0, 20]
				},
				"tail": {
					"rotation": [12.5, 0, 0]
				},
				"arm_left2": {
					"rotation": [0, 33.83204, 0]
				},
				"hand_left": {
					"rotation": [-0.33692, -17.49026, 0.17248]
				},
				"leg_left_rotate": {
					"rotation": [0, -5, 0]
				},
				"thigh_left": {
					"rotation": [5, 0, 0]
				},
				"thumb_left": {
					"rotation": [-67.5, 0, 0]
				},
				"shoulder_right": {
					"rotation": [0, 22.5, -52.5]
				},
				"arm_right": {
					"rotation": [10, 0, -20]
				},
				"arm_right2": {
					"rotation": [0, -33.832, 0]
				},
				"hand_right": {
					"rotation": [-0.33692, 17.4903, -0.1725]
				},
				"thumb_right": {
					"rotation": [-67.5, 0, 0]
				},
				"leg_left": {
					"rotation": [10, 0, 0]
				},
				"foot_left": {
					"rotation": [-15, 0, 0]
				},
				"thigh_right": {
					"rotation": [5, 0, 0]
				},
				"leg_right": {
					"rotation": [10, 0, 0]
				},
				"foot_right": {
					"rotation": [-15, 0, 0]
				},
				"leg_right_rotate": {
					"rotation": [0, 5, 0]
				},
				"head": {
					"rotation": [10, 0, 0]
				},
				"eye_left": {
					"position": [0, 0, 0]
				},
				"eye_right": {
					"position": [0, 0, 0]
				},
				"arm_left3": {
					"rotation": [3.2046, 0, 15.4726]
				},
				"arm_right3": {
					"rotation": [3.2046, 0, -15.4726]
				}
			}
		},
		"animation.ursaluna.blink": {
			"animation_length": 0.1667,
			"bones": {
				"eyelid_left": {
					"position": {
						"0.0": [0, 0, -0.1],
						"0.125": [0, 0, -0.1],
						"0.1667": [0, 0, 0.1]
					}
				},
				"eyelid_right": {
					"position": {
						"0.0": [0, 0, -0.1],
						"0.125": [0, 0, -0.1],
						"0.1667": [0, 0, 0.1]
					}
				}
			}
		},
		"animation.ursaluna.cry": {
			"animation_length": 2,
			"bones": {
				"head": {
					"rotation": {
						"0.0": [0, 0, 0],
						"0.1667": [-12.5, 0, 0],
						"1.8333": [-12.5, 0, 0],
						"2.0": [0, 0, 0]
					}
				},
				"jaw": {
					"rotation": {
						"0.0": [0, 0, 0],
						"0.25": [55, 0, 0],
						"1.7083": [55, 0, 0],
						"1.9583": [0, 0, 0]
					}
				}
			}
		}
	}
}