{
	"format_version": "1.8.0",
	"animations": {
		"animation.hakamo-o.ground_idle": {
			"loop": true,
			"bones": {
				"torso": {
					"rotation": [32.5, 0, 0]
				},
				"torso2": {
					"rotation": [-27.5, 0, 0]
				},
				"arm_left": {
					"rotation": [13.36473, 18.26883, 37.15846]
				},
				"arm_scale_left": {
					"rotation": [0, 0, -2.5]
				},
				"arm_left2": {
					"rotation": [7.09999, 21.40584, 18.84359]
				},
				"hand_left": {
					"rotation": [4.40318, 32.03347, 14.27726]
				},
				"hand_scale_left": {
					"rotation": [0, 0, -2.5]
				},
				"arm_scale_left2": {
					"rotation": [0, 0, -7.5]
				},
				"arm_right": {
					"rotation": [13.36473, -18.26883, -37.15846]
				},
				"arm_scale_right": {
					"rotation": [0, 0, 0]
				},
				"arm_right2": {
					"rotation": [7.09999, -21.40584, -18.84359]
				},
				"hand_right": {
					"rotation": [4.67559, -37.01782, -14.75743]
				},
				"hand_scale_right": {
					"rotation": [0, 0, 2.5]
				},
				"arm_scale_right2": {
					"rotation": [0, 0, 7.5]
				},
				"neck": {
					"rotation": [2.5, 0, 0]
				},
				"head": {
					"rotation": [12.5, 0, 0]
				},
				"jaw": {
					"rotation": [0, 0, 0]
				},
				"tail": {
					"rotation": [-47.5, 0, 0]
				},
				"tail2": {
					"rotation": [20, 0, 0]
				},
				"tail3": {
					"rotation": [30, 0, 0]
				},
				"tail4": {
					"rotation": [22.5, 0, 0]
				},
				"leg_right": {
					"rotation": [-2.09019, 10.28859, -22.90981]
				},
				"shoulder_flap_right": {
					"rotation": [0, 0, -20]
				},
				"shoulder_flap_right2": {
					"rotation": [0, 0, -27.5]
				},
				"shoulder_flap_left2": {
					"rotation": [0, 0, 27.5]
				},
				"shoulder_flap_left": {
					"rotation": [0, 0, 20]
				},
				"leg_left": {
					"rotation": [-2.09019, -10.28859, 22.90981]
				},
				"body": {
					"position": [0, 1, 0]
				},
				"leg_left2": {
					"rotation": [-12.5, 0, 0]
				},
				"leg_left3": {
					"rotation": [12.5, 0, 0]
				},
				"leg_right2": {
					"rotation": [-12.5, 0, 0]
				},
				"leg_right3": {
					"rotation": [12.5, 0, 0]
				}
			}
		},
		"animation.hakamo-o.cry": {
			"animation_length": 1.5,
			"bones": {
				"neck": {
					"rotation": {
						"0.0": [0, 0, 0],
						"0.25": [10, 0, 0],
						"1.25": [10, 0, 0],
						"1.5": [0, 0, 0]
					}
				},
				"head": {
					"rotation": {
						"0.0": [0, 0, 0],
						"0.25": [-15, 0, 0],
						"1.25": [-15, 0, 0],
						"1.5": [0, 0, 0]
					},
					"position": [0, 0, 0]
				},
				"jaw": {
					"rotation": {
						"0.0": [0, 0, 0],
						"0.25": [37.5, 0, 0],
						"1.25": [37.5, 0, 0],
						"1.5": [0, 0, 0]
					}
				}
			}
		},
		"animation.hakamo-o.blink": {
			"animation_length": 0.16667,
			"bones": {
				"eyelid_left": {
					"position": {
						"0.0": [0.1, 0, 0],
						"0.125": [0.1, 0, 0],
						"0.1667": [0, 0, 0]
					}
				},
				"eyelid_right": {
					"position": {
						"0.0": [-0.1, 0, 0],
						"0.125": [-0.1, 0, 0],
						"0.1667": [0, 0, 0]
					}
				}
			}
		}
	}
}