{
	"format_version": "1.8.0",
	"animations": {
		"animation.sliggoo_hisuian.ground_idle": {
			"loop": true,
			"bones": {
				"chest": {
					"rotation": [5, 0, 0]
				},
				"neck": {
					"rotation": [-2.5, 0, 0]
				},
				"neck2": {
					"rotation": [-2.48393, 0.21715, -0.18631]
				},
				"antenna_back_left_rotation": {
					"rotation": [-30, 0, 0]
				},
				"antenna_back_left2": {
					"rotation": [-15, 0, 0]
				},
				"antenna_back_left3": {
					"rotation": [-25, 0, 0]
				},
				"antenna_back_right_rotation": {
					"rotation": [-30, 0, 0]
				},
				"antenna_back_right2": {
					"rotation": [-15, 0, 0]
				},
				"antenna_back_right3": {
					"rotation": [-25, 0, 0]
				},
				"arm_left": {
					"rotation": [15.31584, -4.32393, -2.53108]
				},
				"arm_left2": {
					"rotation": [47.5, 0, 0]
				},
				"arm_right": {
					"rotation": [15.67114, 5.72052, 4.89851]
				},
				"arm_right2": {
					"rotation": [47.5, 0, 0]
				}
			}
		},
		"animation.sliggoo_hisuian.blink": {
			"animation_length": 0.16667,
			"bones": {
				"eyelid_left": {
					"position": {
						"0.0": [0, 0, -0.1],
						"0.125": [0, 0, -0.1],
						"0.1667": [0, 0, 0]
					}
				},
				"eyelid_right": {
					"position": {
						"0.0": [0, 0, -0.1],
						"0.125": [0, 0, -0.1],
						"0.1667": [0, 0, 0]
					}
				}
			}
		}
	}
}