{
	"format_version": "1.8.0",
	"animations": {
		"animation.zorua.ground_idle": {
			"loop": true,
			"bones": {
				"tail": {
					"rotation": [-22.5, 0, 0]
				},
				"tail_end": {
					"rotation": [12.5, 0, 0]
				},
				"tuft_left": {
					"rotation": [0, 0, -10]
				},
				"tuft_right": {
					"rotation": [0, 0, 10]
				}
			}
		},
		"animation.zorua.blink": {
			"animation_length": 0.16667,
			"bones": {
				"eyelid_right": {
					"position": {
						"0.0": [-0.1, 0, -0.1],
						"0.125": [-0.1, 0, -0.1],
						"0.1667": [0, 0, 0]
					}
				},
				"eyelid_left": {
					"position": {
						"0.0": [0.1, 0, -0.1],
						"0.125": [0.1, 0, -0.1],
						"0.1667": [0, 0, 0]
					}
				}
			}
		},
		"animation.zorua.mouth_test": {
			"animation_length": 2,
			"bones": {
				"tooth_right": {
					"position": {
						"0.1667": [0, 0, 0],
						"0.2917": [0, -0.3, 0],
						"1.2083": [0, -0.3, 0],
						"1.3333": [0, 0, 0]
					}
				},
				"tooth_left": {
					"position": {
						"0.1667": [0, 0, 0],
						"0.2917": [0, -0.3, 0],
						"1.2083": [0, -0.3, 0],
						"1.3333": [0, 0, 0]
					}
				},
				"jaw": {
					"rotation": {
						"0.0": [0, 0, 0],
						"0.5": [45, 0, 0],
						"1.0": [45, 0, 0],
						"1.5": [0, 0, 0],
						"2.0": [0, 0, 0]
					}
				}
			}
		}
	}
}