{
	"credit": "Made with Blockbench by dhi_holo @holo_modeller",
	"textures": {
		"1": "block/oak_log_top",
		"2": "block/azalea_leaves",
		"3": "block/azalea_side",
		"particle": "block/oak_log"
	},
	"elements": [
		{
			"from": [0, 13, 0],
			"to": [16, 16, 16],
			"faces": {
				"north": {"uv": [0, 0, 16, 3], "texture": "#particle"},
				"east": {"uv": [0, 0, 16, 3], "texture": "#particle"},
				"south": {"uv": [0, 0, 16, 3], "texture": "#particle"},
				"west": {"uv": [0, 0, 16, 3], "texture": "#particle"},
				"up": {"uv": [0, 0, 16, 16], "texture": "#1"},
				"down": {"uv": [0, 0, 16, 16], "rotation": 180, "texture": "#1"}
			}
		},
		{
			"from": [5, 0, 5],
			"to": [11, 13, 11],
			"rotation": {"angle": 0, "axis": "y", "origin": [4, 0, 4]},
			"faces": {
				"north": {"uv": [5, 3, 11, 16], "texture": "#particle"},
				"east": {"uv": [5, 3, 11, 16], "texture": "#particle"},
				"south": {"uv": [5, 3, 11, 16], "texture": "#particle"},
				"west": {"uv": [5, 3, 11, 16], "texture": "#particle"},
				"up": {"uv": [5, 5, 11, 11], "texture": "#1"},
				"down": {"uv": [5, 5, 11, 11], "texture": "#1"}
			}
		},
		{
			"from": [-0.05, 7.95, -0.05],
			"to": [16.05, 16.05, 16.05],
			"faces": {
				"north": {"uv": [0, 4, 16, 12], "texture": "#3"},
				"east": {"uv": [0, 4, 16, 12], "texture": "#3"},
				"south": {"uv": [0, 4, 16, 12], "texture": "#3"},
				"west": {"uv": [0, 4, 16, 12], "texture": "#3"},
				"up": {"uv": [0, 0, 16, 16], "texture": "#2"}
			}
		}
	]
}