{
	"format_version": "1.8.0",
	"animations": {
		"animation.jangmo-o.ground_idle": {
			"loop": true,
			"bones": {
				"head": {
					"rotation": [-12.5, 0, 0]
				},
				"neck": {
					"rotation": [17.5, 0, 0]
				},
				"tail": {
					"rotation": [-15, 0, 0]
				},
				"tail2": {
					"rotation": [17.5, 0, 0]
				},
				"tail3": {
					"rotation": [20, 0, 0]
				}
			}
		},
		"animation.jangmo-o.blink": {
			"animation_length": 0.1667,
			"bones": {
				"eyelid_left": {
					"position": {
						"0.0": [0.1, 0, -0.1],
						"0.125": [0.1, 0, -0.1],
						"0.1667": [0, 0, 0]
					}
				},
				"eyelid_right": {
					"position": {
						"0.0": [-0.1, 0, -0.1],
						"0.125": [-0.1, 0, -0.1],
						"0.1667": [0, 0, 0]
					}
				}
			}
		}
	}
}