{
	"format_version": "1.8.0",
	"animations": {
		"animation.hippowdon.ground_idle": {
			"loop": true,
			"animation_length": 8,
			"bones": {
				"torso": {
					"rotation": ["math.cos(q.anim_time*90*1)*0.2", "math.sin(q.anim_time*90*0.5+60)*1", "math.sin(q.anim_time*90*0.5)*0.2"],
					"position": [0, 0.7, 0]
				},
				"tail": {
					"rotation": ["-15+math.sin(q.anim_time*90*0.5)*3", "math.sin(q.anim_time*90*0.5-80)*4", 0]
				},
				"tail2": {
					"rotation": ["15+math.sin(q.anim_time*90*0.5-50)*4", 0, 0]
				},
				"neck": {
					"rotation": ["-5-math.cos(q.anim_time*90*1-60)*0.4", 0, 0]
				},
				"sand": {
					"scale": 0
				},
				"head": {
					"rotation": ["5.5-math.cos(q.anim_time*90*1-120)*0.4", "-math.sin(q.anim_time*90*0.5+60)*1", 0]
				},
				"jaw": {
					"rotation": [-14, 0, 0],
					"position": [0, -0.5, 0]
				},
				"leg_front_left": {
					"rotation": [-5, -3, 0],
					"position": [0, -0.5, 0]
				},
				"leg_front_left2": {
					"rotation": [5, 0, 0]
				},
				"leg_front_right": {
					"rotation": [-5, 3, 0],
					"position": [0, -0.5, 0]
				},
				"leg_front_right2": {
					"rotation": [5, 0, 0]
				},
				"top_head": {
					"rotation": [0, 0, 0]
				}
			}
		},
		"animation.hippowdon.ground_walk": {
			"loop": true,
			"animation_length": 4,
			"bones": {
				"torso": {
					"rotation": ["math.cos(q.anim_time*90*4)*0.7", "math.sin(q.anim_time*90*2+90)*1", "math.sin(q.anim_time*90*2)*2+math.cos(q.anim_time*90*4)*0.6"],
					"position": [0, "0.7+math.cos(q.anim_time*90*4-60)*0.5", 0]
				},
				"tail": {
					"rotation": [-15, "math.sin(q.anim_time*90*2+90)*8", "-math.cos(q.anim_time*90*2+90)*8"]
				},
				"tail2": {
					"rotation": ["15+math.sin(q.anim_time*90*4+20)*2", 0, 0]
				},
				"neck": {
					"rotation": ["-5-math.cos(q.anim_time*90*4-60)*0.4", 0, 0]
				},
				"sand": {
					"scale": 0
				},
				"head": {
					"rotation": ["5.5-math.cos(q.anim_time*90*4-120)*0.4", "-math.sin(q.anim_time*90*2+60)*1", "-math.sin(q.anim_time*90*2+60)*4"]
				},
				"jaw": {
					"rotation": [-14, 0, 0],
					"position": [0, -0.5, 0]
				},
				"leg_front_left": {
					"rotation": {
						"0.0": [0, -3, 0],
						"1.0": [-5, -3, 0],
						"1.25": {
							"pre": [5, -3, -0.9],
							"post": [5, -3, -0.9],
							"lerp_mode": "catmullrom"
						},
						"1.5417": {
							"post": [-3.28785, -3.45843, -7.49792],
							"lerp_mode": "catmullrom"
						},
						"1.9167": {
							"post": [-11.43333, -3, -2.5],
							"lerp_mode": "catmullrom"
						},
						"2.0": [0, -3, 0],
						"3.0": [-5, -3, 0],
						"3.25": {
							"pre": [5, -3, -0.9],
							"post": [5, -3, -0.9],
							"lerp_mode": "catmullrom"
						},
						"3.5417": {
							"post": [-3.28785, -3.45843, -7.49792],
							"lerp_mode": "catmullrom"
						},
						"3.9167": {
							"post": [-11.43333, -3, -2.5],
							"lerp_mode": "catmullrom"
						},
						"4.0": [0, -3, 0]
					},
					"position": {
						"0.0": [0, 0, -2],
						"1.0": [0, -0.5, 2],
						"1.3333": [0, 0.6, 1.53],
						"1.625": [0, 0.62, 0.05],
						"1.9583": [0, -0.01, -1.65],
						"2.0": [0, 0, -2],
						"3.0": [0, -0.5, 2],
						"3.3333": [0, 0.6, 1.53],
						"3.625": [0, 0.62, 0.05],
						"3.9583": [0, -0.01, -1.65],
						"4.0": [0, 0, -2]
					}
				},
				"leg_front_left2": {
					"rotation": {
						"0.0": [0, 0, 0],
						"1.0": [5, 0, 0],
						"1.4167": [19, 0, 0],
						"1.9167": [10.65, 0, 0],
						"2.0": [0, 0, 0],
						"3.0": [5, 0, 0],
						"3.4167": [19, 0, 0],
						"3.9167": [10.65, 0, 0],
						"4.0": [0, 0, 0]
					}
				},
				"leg_front_right": {
					"rotation": {
						"0.0": [-5, 3, 0],
						"0.25": {
							"pre": [5, 3, 0.9],
							"post": [5, 3, 0.9],
							"lerp_mode": "catmullrom"
						},
						"0.5417": {
							"post": [-3.28785, 3.45843, 7.49792],
							"lerp_mode": "catmullrom"
						},
						"0.9167": {
							"post": [-11.43333, 3, 2.5],
							"lerp_mode": "catmullrom"
						},
						"1.0": [0, 3, 0],
						"2.0": [-5, 3, 0],
						"2.25": {
							"pre": [5, 3, 0.9],
							"post": [5, 3, 0.9],
							"lerp_mode": "catmullrom"
						},
						"2.5417": {
							"post": [-3.28785, 3.45843, 7.49792],
							"lerp_mode": "catmullrom"
						},
						"2.9167": {
							"post": [-11.43333, 3, 2.5],
							"lerp_mode": "catmullrom"
						},
						"3.0": [0, 3, 0],
						"4.0": [-5, 3, 0]
					},
					"position": {
						"0.0": [0, -0.5, 2],
						"0.3333": [0, 0.6, 1.53],
						"0.625": [0, 0.62, 0.05],
						"0.9583": [0, -0.01, -1.65],
						"1.0": [0, 0, -2],
						"2.0": [0, -0.5, 2],
						"2.3333": [0, 0.6, 1.53],
						"2.625": [0, 0.62, 0.05],
						"2.9583": [0, -0.01, -1.65],
						"3.0": [0, 0, -2],
						"4.0": [0, -0.5, 2]
					}
				},
				"leg_front_right2": {
					"rotation": {
						"0.0": [5, 0, 0],
						"0.4167": [19, 0, 0],
						"0.9167": [10.65, 0, 0],
						"1.0": [0, 0, 0],
						"2.0": [5, 0, 0],
						"2.4167": [19, 0, 0],
						"2.9167": [10.65, 0, 0],
						"3.0": [0, 0, 0],
						"4.0": [5, 0, 0]
					}
				},
				"top_head": {
					"rotation": [0, 0, 0]
				},
				"toe_front_left": {
					"rotation": {
						"0.0": [0, 0, 0],
						"1.0": [0, 0, 0],
						"1.2083": [-7.5, 0, 0],
						"1.625": [10, 0, 0],
						"1.9167": [10, 0, 0],
						"2.0": [0, 0, 0],
						"3.0": [0, 0, 0],
						"3.2083": [-7.5, 0, 0],
						"3.625": [10, 0, 0],
						"3.9167": [10, 0, 0],
						"4.0": [0, 0, 0]
					}
				},
				"toe_front_left3": {
					"rotation": {
						"0.0": [0, 0, 0],
						"1.0": [0, 0, 0],
						"1.25": [0, 0, 10],
						"1.5833": [0, 0, 27.5],
						"1.9167": [0, 0, 27.5],
						"2.0": [0, 0, 0],
						"3.0": [0, 0, 0],
						"3.25": [0, 0, 10],
						"3.5833": [0, 0, 27.5],
						"3.9167": [0, 0, 27.5],
						"4.0": [0, 0, 0]
					}
				},
				"toe_front_left4": {
					"rotation": {
						"0.0": [0, 0, 0],
						"1.0": [0, 0, 0],
						"1.25": [0, 0, -10],
						"1.5833": [0, 0, -7.5],
						"1.9167": [0, 0, -27.5],
						"2.0": [0, 0, 0],
						"3.0": [0, 0, 0],
						"3.25": [0, 0, -10],
						"3.5833": [0, 0, -7.5],
						"3.9167": [0, 0, -27.5],
						"4.0": [0, 0, 0]
					}
				},
				"toe_front_left2": {
					"rotation": {
						"0.0": [0, 0, 0],
						"1.0": [0, 0, 0],
						"1.2083": [-7.5, 0, 0],
						"1.625": [10, 0, 0],
						"1.9167": [10, 0, 0],
						"2.0": [0, 0, 0],
						"3.0": [0, 0, 0],
						"3.2083": [-7.5, 0, 0],
						"3.625": [10, 0, 0],
						"3.9167": [10, 0, 0],
						"4.0": [0, 0, 0]
					}
				},
				"toe_front_right": {
					"rotation": {
						"0.0": [0, 0, 0],
						"0.2083": [-7.5, 0, 0],
						"0.625": [10, 0, 0],
						"0.9167": [10, 0, 0],
						"1.0": [0, 0, 0],
						"2.0": [0, 0, 0],
						"2.2083": [-7.5, 0, 0],
						"2.625": [10, 0, 0],
						"2.9167": [10, 0, 0],
						"3.0": [0, 0, 0],
						"4.0": [0, 0, 0]
					}
				},
				"toe_front_right3": {
					"rotation": {
						"0.0": [0, 0, 0],
						"0.25": [0, 0, -10],
						"0.5833": [0, 0, -27.5],
						"0.9167": [0, 0, -27.5],
						"1.0": [0, 0, 0],
						"2.0": [0, 0, 0],
						"2.25": [0, 0, -10],
						"2.5833": [0, 0, -27.5],
						"2.9167": [0, 0, -27.5],
						"3.0": [0, 0, 0],
						"4.0": [0, 0, 0]
					}
				},
				"toe_front_right4": {
					"rotation": {
						"0.0": [0, 0, 0],
						"0.25": [0, 0, 10],
						"0.5833": [0, 0, 7.5],
						"0.9167": [0, 0, 27.5],
						"1.0": [0, 0, 0],
						"2.0": [0, 0, 0],
						"2.25": [0, 0, 10],
						"2.5833": [0, 0, 7.5],
						"2.9167": [0, 0, 27.5],
						"3.0": [0, 0, 0],
						"4.0": [0, 0, 0]
					}
				},
				"toe_front_right2": {
					"rotation": {
						"0.0": [0, 0, 0],
						"0.2083": [-7.5, 0, 0],
						"0.625": [10, 0, 0],
						"0.9167": [10, 0, 0],
						"1.0": [0, 0, 0],
						"2.0": [0, 0, 0],
						"2.2083": [-7.5, 0, 0],
						"2.625": [10, 0, 0],
						"2.9167": [10, 0, 0],
						"3.0": [0, 0, 0],
						"4.0": [0, 0, 0]
					}
				},
				"leg_back_right": {
					"rotation": {
						"0.0": {
							"post": [-10.94, 3.09, 3.67],
							"lerp_mode": "catmullrom"
						},
						"0.0833": {
							"post": [-11.43333, 3, 2.5],
							"lerp_mode": "catmullrom"
						},
						"0.1667": [0, 3, 0],
						"1.0": [-4.17, 3, 0],
						"1.1667": [-5, 3, 0],
						"1.4167": {
							"pre": [5, 3, 0.9],
							"post": [5, 3, 0.9],
							"lerp_mode": "catmullrom"
						},
						"1.7083": {
							"post": [-3.28785, 3.45843, 7.49792],
							"lerp_mode": "catmullrom"
						},
						"2.0833": {
							"post": [-11.43333, 3, 2.5],
							"lerp_mode": "catmullrom"
						},
						"2.1667": [0, 3, 0],
						"3.1667": [-5, 3, 0],
						"3.4167": {
							"pre": [5, 3, 0.9],
							"post": [5, 3, 0.9],
							"lerp_mode": "catmullrom"
						},
						"3.7083": {
							"post": [-3.28785, 3.45843, 7.49792],
							"lerp_mode": "catmullrom"
						},
						"4.0": {
							"post": [-10.94, 3.09, 3.67],
							"lerp_mode": "catmullrom"
						}
					},
					"position": {
						"0.0": [0, 0.23, -1.01],
						"0.125": [0, -0.01, -1.65],
						"0.1667": [0, 0, -2],
						"1.0": [0, -0.42, 1.33],
						"1.1667": [0, -0.5, 2],
						"1.5": [0, 0.6, 1.53],
						"1.7917": [0, 0.62, 0.05],
						"2.125": [0, -0.01, -1.65],
						"2.1667": [0, 0, -2],
						"3.1667": [0, -0.5, 2],
						"3.5": [0, 0.6, 1.53],
						"3.7917": [0, 0.62, 0.05],
						"4.0": [0, 0.23, -1.01]
					}
				},
				"leg_back_right2": {
					"rotation": {
						"0.0": [12.04, 0, 0],
						"0.0833": [10.65, 0, 0],
						"0.1667": [0, 0, 0],
						"1.0": [4.17, 0, 0],
						"1.1667": [5, 0, 0],
						"1.5833": [19, 0, 0],
						"2.0833": [10.65, 0, 0],
						"2.1667": [0, 0, 0],
						"3.1667": [5, 0, 0],
						"3.5833": [19, 0, 0],
						"4.0": [12.04, 0, 0]
					}
				},
				"toe_back_right": {
					"rotation": {
						"0.0": [10, 0, 0],
						"0.0833": [10, 0, 0],
						"0.1667": [0, 0, 0],
						"1.0": [0, 0, 0],
						"1.1667": [0, 0, 0],
						"1.375": [-7.5, 0, 0],
						"1.7917": [10, 0, 0],
						"2.0833": [10, 0, 0],
						"2.1667": [0, 0, 0],
						"3.1667": [0, 0, 0],
						"3.375": [-7.5, 0, 0],
						"3.7917": [10, 0, 0],
						"4.0": [10, 0, 0]
					}
				},
				"toe_back_right2": {
					"rotation": {
						"0.0": [0, 0, -27.5],
						"0.0833": [0, 0, -27.5],
						"0.1667": [0, 0, 0],
						"1.0": [0, 0, 0],
						"1.1667": [0, 0, 0],
						"1.4167": [0, 0, -10],
						"1.75": [0, 0, -27.5],
						"2.0833": [0, 0, -27.5],
						"2.1667": [0, 0, 0],
						"3.1667": [0, 0, 0],
						"3.4167": [0, 0, -10],
						"3.75": [0, 0, -27.5],
						"4.0": [0, 0, -27.5]
					}
				},
				"toe_back_right3": {
					"rotation": {
						"0.0": [0, 0, 22.5],
						"0.0833": [0, 0, 27.5],
						"0.1667": [0, 0, 0],
						"1.0": [0, 0, 0],
						"1.1667": [0, 0, 0],
						"1.4167": [0, 0, 10],
						"1.75": [0, 0, 7.5],
						"2.0833": [0, 0, 27.5],
						"2.1667": [0, 0, 0],
						"3.1667": [0, 0, 0],
						"3.4167": [0, 0, 10],
						"3.75": [0, 0, 7.5],
						"4.0": [0, 0, 22.5]
					}
				},
				"toe_back_right4": {
					"rotation": {
						"0.0": [10, 0, 0],
						"0.0833": [10, 0, 0],
						"0.1667": [0, 0, 0],
						"1.0": [0, 0, 0],
						"1.1667": [0, 0, 0],
						"1.375": [-7.5, 0, 0],
						"1.7917": [10, 0, 0],
						"2.0833": [10, 0, 0],
						"2.1667": [0, 0, 0],
						"3.1667": [0, 0, 0],
						"3.375": [-7.5, 0, 0],
						"3.7917": [10, 0, 0],
						"4.0": [10, 0, 0]
					}
				},
				"leg_back_left": {
					"rotation": {
						"0.0": [-4.17, -3, 0],
						"0.1667": [-5, -3, 0],
						"0.4167": {
							"pre": [5, -3, -0.9],
							"post": [5, -3, -0.9],
							"lerp_mode": "catmullrom"
						},
						"0.7083": {
							"post": [-3.28785, -3.45843, -7.49792],
							"lerp_mode": "catmullrom"
						},
						"1.0833": {
							"post": [-11.43333, -3, -2.5],
							"lerp_mode": "catmullrom"
						},
						"1.1667": [0, -3, 0],
						"2.1667": [-5, -3, 0],
						"2.4167": {
							"pre": [5, -3, -0.9],
							"post": [5, -3, -0.9],
							"lerp_mode": "catmullrom"
						},
						"2.7083": {
							"post": [-3.28785, -3.45843, -7.49792],
							"lerp_mode": "catmullrom"
						},
						"3.0833": {
							"post": [-11.43333, -3, -2.5],
							"lerp_mode": "catmullrom"
						},
						"3.1667": [0, -3, 0],
						"4.0": [-4.17, -3, 0]
					},
					"position": {
						"0.0": [0, -0.42, 1.33],
						"0.1667": [0, -0.5, 2],
						"0.5": [0, 0.6, 1.53],
						"0.7917": [0, 0.62, 0.05],
						"1.125": [0, -0.01, -1.65],
						"1.1667": [0, 0, -2],
						"2.1667": [0, -0.5, 2],
						"2.5": [0, 0.6, 1.53],
						"2.7917": [0, 0.62, 0.05],
						"3.125": [0, -0.01, -1.65],
						"3.1667": [0, 0, -2],
						"4.0": [0, -0.42, 1.33]
					}
				},
				"leg_back_left2": {
					"rotation": {
						"0.0": [4.17, 0, 0],
						"0.1667": [5, 0, 0],
						"0.5833": [19, 0, 0],
						"1.0833": [10.65, 0, 0],
						"1.1667": [0, 0, 0],
						"2.1667": [5, 0, 0],
						"2.5833": [19, 0, 0],
						"3.0833": [10.65, 0, 0],
						"3.1667": [0, 0, 0],
						"4.0": [4.17, 0, 0]
					}
				},
				"toe_back_left": {
					"rotation": {
						"0.0": [0, 0, 0],
						"0.1667": [0, 0, 0],
						"0.375": [-7.5, 0, 0],
						"0.7917": [10, 0, 0],
						"1.0833": [10, 0, 0],
						"1.1667": [0, 0, 0],
						"2.1667": [0, 0, 0],
						"2.375": [-7.5, 0, 0],
						"2.7917": [10, 0, 0],
						"3.0833": [10, 0, 0],
						"3.1667": [0, 0, 0],
						"4.0": [0, 0, 0]
					}
				},
				"toe_back_left2": {
					"rotation": {
						"0.0": [0, 0, 0],
						"0.1667": [0, 0, 0],
						"0.4167": [0, 0, 10],
						"0.75": [0, 0, 27.5],
						"1.0833": [0, 0, 27.5],
						"1.1667": [0, 0, 0],
						"2.1667": [0, 0, 0],
						"2.4167": [0, 0, 10],
						"2.75": [0, 0, 27.5],
						"3.0833": [0, 0, 27.5],
						"3.1667": [0, 0, 0],
						"4.0": [0, 0, 0]
					}
				},
				"toe_back_left3": {
					"rotation": {
						"0.0": [0, 0, 0],
						"0.1667": [0, 0, 0],
						"0.4167": [0, 0, -10],
						"0.75": [0, 0, -7.5],
						"1.0833": [0, 0, -27.5],
						"1.1667": [0, 0, 0],
						"2.1667": [0, 0, 0],
						"2.4167": [0, 0, -10],
						"2.75": [0, 0, -7.5],
						"3.0833": [0, 0, -27.5],
						"3.1667": [0, 0, 0],
						"4.0": [0, 0, 0]
					}
				},
				"toe_back_left4": {
					"rotation": {
						"0.0": [0, 0, 0],
						"0.1667": [0, 0, 0],
						"0.375": [-7.5, 0, 0],
						"0.7917": [10, 0, 0],
						"1.0833": [10, 0, 0],
						"1.1667": [0, 0, 0],
						"2.1667": [0, 0, 0],
						"2.375": [-7.5, 0, 0],
						"2.7917": [10, 0, 0],
						"3.0833": [10, 0, 0],
						"3.1667": [0, 0, 0],
						"4.0": [0, 0, 0]
					}
				},
				"body": {
					"position": {
						"0.0": [0, 0, 0],
						"0.0833": [0, -0.2, 0],
						"0.1667": [0, 0.2, 0],
						"0.25": [0, -0.1, 0],
						"0.375": [0, 0, 0],
						"0.5": [0, -0.1, 0],
						"0.75": [0, 0, 0],
						"1.0": [0, 0, 0],
						"1.0833": [0, -0.2, 0],
						"1.1667": [0, 0.2, 0],
						"1.25": [0, -0.1, 0],
						"1.375": [0, 0, 0],
						"1.5": [0, -0.1, 0],
						"1.75": [0, 0, 0],
						"2.0": [0, 0, 0],
						"2.0833": [0, -0.2, 0],
						"2.1667": [0, 0.2, 0],
						"2.25": [0, -0.1, 0],
						"2.375": [0, 0, 0],
						"2.5": [0, -0.1, 0],
						"2.75": [0, 0, 0],
						"3.0": [0, 0, 0],
						"3.0833": [0, -0.2, 0],
						"3.1667": [0, 0.2, 0],
						"3.25": [0, -0.1, 0],
						"3.375": [0, 0, 0],
						"3.5": [0, -0.1, 0],
						"3.75": [0, 0, 0]
					}
				}
			}
		},
		"animation.hippowdon.battle_idle": {
			"loop": true,
			"bones": {
				"torso": {
					"rotation": ["-4.0003+math.cos(q.anim_time*90*2)*0.5", "0.0008+math.sin(q.anim_time*90*1-60)*1", "0.0378+math.sin(q.anim_time*90*1)*1"],
					"position": [0, 1.3, -0.6]
				},
				"tail": {
					"rotation": ["-15+math.cos(q.anim_time*90*2)*0.5", 0, 0]
				},
				"tail2": {
					"rotation": ["15+math.cos(q.anim_time*90*2-50)*1", 0, 0]
				},
				"neck": {
					"rotation": [-11.50397, -0.21665, "-0.1277-math.sin(q.anim_time*90*1-60)*2"],
					"position": [0, 0, -1]
				},
				"sand": {
					"scale": 0
				},
				"head": {
					"rotation": ["3.005+math.cos(q.anim_time*90*2-60)*1", 0.15592, "0.3191+math.sin(q.anim_time*90*1-60)*1"]
				},
				"jaw": {
					"rotation": ["11+math.cos(q.anim_time*90*2-120)*1", 0, 0]
				},
				"leg_front_left": {
					"rotation": [0, -9.5, 0],
					"position": [1.3, 0, 0]
				},
				"leg_front_right": {
					"rotation": [0, 9.5, 0],
					"position": [-1.3, 0, 0]
				},
				"top_head": {
					"rotation": [-9, 0, 0]
				},
				"toe_front_left3": {
					"rotation": [0, -22.5, 0]
				},
				"toe_front_left4": {
					"rotation": [0, 22.5, 0]
				},
				"toe_front_right3": {
					"rotation": [0, 22.5, 0]
				},
				"toe_front_right4": {
					"rotation": [0, -22.5, 0]
				},
				"leg_back_right": {
					"rotation": [-2.5, 10, 0],
					"position": [0, 0, 0.5]
				},
				"leg_back_right2": {
					"rotation": [2.5, 0, 0]
				},
				"leg_back_left": {
					"rotation": [-2.5, -10, 0],
					"position": [0, 0, 0.5]
				},
				"leg_back_left2": {
					"rotation": [2.5, 0, 0]
				}
			}
		},
		"animation.hippowdon.sand_idle": {
			"loop": true,
			"bones": {
				"body": {
					"position": [0, -22, 0]
				},
				"sand": {
					"position": [0, 22, -26],
					"scale": ["1+math.sin(q.anim_time*90*0.5)*0.01", "1+math.sin(q.anim_time*90*1)*0.01", "1+math.cos(q.anim_time*90*1)*0.005"]
				},
				"torso": {
					"rotation": [-12.5, 0, "math.cos(q.anim_time*90*1)*0.3"],
					"position": [0, "-3+math.cos(q.anim_time*90*0.5)*0.2", -4]
				},
				"head": {
					"rotation": ["-5-math.sin(q.anim_time*90*0.5-60)*2", 0, "-math.cos(q.anim_time*90*1-60)*0.6"]
				},
				"jaw": {
					"rotation": [-15, 0, 0]
				},
				"leg_front_left": {
					"rotation": ["math.cos(q.anim_time*90*1)*2", 0, 0]
				},
				"leg_front_left2": {
					"rotation": ["10+math.cos(q.anim_time*90*1-60)*2", 0, 0]
				},
				"leg_front_right": {
					"rotation": ["-math.cos(q.anim_time*90*1)*2", 0, 0]
				},
				"leg_front_right2": {
					"rotation": ["10-math.cos(q.anim_time*90*1-60)*2", 0, 0]
				},
				"leg_back_right": {
					"rotation": ["math.cos(q.anim_time*90*1)*4", 0, 0],
					"position": [0, -2.1, 0]
				},
				"leg_back_right2": {
					"rotation": ["5+math.cos(q.anim_time*90*1-60)*4", 0, 0]
				},
				"leg_back_left": {
					"rotation": ["-math.cos(q.anim_time*90*1)*4", 0, 0],
					"position": [0, -2.1, 0]
				},
				"leg_back_left2": {
					"rotation": ["5-math.cos(q.anim_time*90*1-60)*4", 0, 0]
				},
				"redsand": {
					"position": [0, 22, -26],
					"scale": ["1+math.sin(q.anim_time*90*0.5)*0.01", "1+math.sin(q.anim_time*90*1)*0.01", "1+math.cos(q.anim_time*90*1)*0.005"]
				}
			}
		},
		"animation.hippowdon.sand_battle_idle": {
			"loop": true,
			"bones": {
				"torso": {
					"rotation": ["-14.0015+math.cos(q.anim_time*90*2)*0.5", "0.0206+math.sin(q.anim_time*90*1-60)*1", "0.1875+math.sin(q.anim_time*90*1)*1"],
					"position": [0, "-10.7+math.cos(q.anim_time*90*2-60)*0.2", -0.6]
				},
				"tail": {
					"rotation": [20, 0, 0]
				},
				"tail2": {
					"rotation": [15, 0, 0]
				},
				"neck": {
					"rotation": [-24.00397, -0.21665, "-0.1277-math.sin(q.anim_time*90*1-60)*2"],
					"position": [0, 0, -1]
				},
				"head": {
					"rotation": ["10.505+math.cos(q.anim_time*90*2-60)*1", 0.15592, "0.3191+math.sin(q.anim_time*90*1-60)*1"]
				},
				"jaw": {
					"rotation": ["23.5+math.cos(q.anim_time*90*2-120)*1", 0, 0]
				},
				"leg_front_left": {
					"rotation": [-35, -39.5, 0],
					"position": [1.3, -4, -1]
				},
				"leg_front_right": {
					"rotation": [-35, 39.5, 0],
					"position": [-1.3, -4, -1]
				},
				"top_head": {
					"rotation": [-21.5, 0, 0]
				},
				"toe_front_left3": {
					"rotation": [0, -22.5, 0]
				},
				"toe_front_left4": {
					"rotation": [0, 22.5, 0]
				},
				"toe_front_right3": {
					"rotation": [0, 22.5, 0]
				},
				"toe_front_right4": {
					"rotation": [0, -22.5, 0]
				},
				"leg_back_right": {
					"rotation": ["-45.3744-math.cos(q.anim_time*90*1)*2", 5.76072, -1.82708],
					"position": [0, -14.5, 0.5]
				},
				"leg_back_right2": {
					"rotation": [29.54585, -1.30654, 4.54737]
				},
				"leg_back_left": {
					"rotation": ["-45.3744+math.cos(q.anim_time*90*1)*2", -5.76072, 1.82708],
					"position": [0, -14.5, 0.5]
				},
				"leg_back_left2": {
					"rotation": [29.54585, 1.30654, -4.54737]
				},
				"eyesocket_left": {
					"rotation": [12.5, 0, 0],
					"position": [0, -0.4, 0.5]
				},
				"eyesocket_right": {
					"rotation": [12.5, 0, 0],
					"position": [0, -0.4, 0.5]
				},
				"leg_front_left2": {
					"rotation": [32.5, 0, 0]
				},
				"leg_front_right2": {
					"rotation": [32.5, 0, 0]
				}
			}
		},
		"animation.hippowdon.sand_swim": {
			"loop": true,
			"bones": {
				"body": {
					"position": ["math.cos(q.anim_time*90*1-60)*1", -22, "math.cos(q.anim_time*90*1)*0.4"]
				},
				"sand": {
					"position": [0, 22, -26],
					"scale": ["1+math.sin(q.anim_time*90*2)*0.01", "1+math.sin(q.anim_time*90*3)*0.01", "1+math.cos(q.anim_time*90*3)*0.005"]
				},
				"torso": {
					"rotation": ["-12.5-math.cos(q.anim_time*90*2-30)*0.2", "math.sin(q.anim_time*90*1)*2", "math.cos(q.anim_time*90*1)*3"],
					"position": [0, "-3+math.sin(q.anim_time*90*2)*0.6", "-4-math.sin(q.anim_time*90*2-60)*0.5"]
				},
				"head": {
					"rotation": ["-7.5+math.cos(q.anim_time*90*2-90)*2", "0-math.sin(q.anim_time*90*1-60)*2", 0]
				},
				"jaw": {
					"rotation": [-15, 0, 0]
				},
				"leg_front_left": {
					"rotation": ["math.cos(q.anim_time*90*2)*14", 0, 0],
					"position": [0, "math.sin(q.anim_time*90*2-20)*2", "math.cos(q.anim_time*90*2+30)*2"]
				},
				"leg_front_left2": {
					"rotation": ["10+math.cos(q.anim_time*90*2-60)*6", 0, 0]
				},
				"leg_front_right": {
					"rotation": ["-math.cos(q.anim_time*90*2)*14", 0, 0],
					"position": [0, "-math.sin(q.anim_time*90*2-20)*2", "-math.cos(q.anim_time*90*2+30)*2"]
				},
				"leg_front_right2": {
					"rotation": ["10-math.cos(q.anim_time*90*2-60)*6", 0, 0]
				},
				"leg_back_right": {
					"rotation": ["math.cos(q.anim_time*90*2)*14", 0, 0],
					"position": ["-0.9+math.sin(q.anim_time*90*1-20)*1", "-5.3+math.sin(q.anim_time*90*2-20)*1", "-1.8+math.cos(q.anim_time*90*2+30)*1"]
				},
				"leg_back_right2": {
					"rotation": ["10+math.cos(q.anim_time*90*2-60)*6", 0, 0]
				},
				"leg_back_left": {
					"rotation": ["-math.cos(q.anim_time*90*2)*14", 0, 0],
					"position": ["0.9+math.sin(q.anim_time*90*1-20)*1", "-5.3-math.sin(q.anim_time*90*2-20)*1", "-1.8-math.cos(q.anim_time*90*2+30)*1"]
				},
				"leg_back_left2": {
					"rotation": ["10-math.cos(q.anim_time*90*2-60)*6", 0, 0]
				},
				"redsand": {
					"position": [0, 22, -26],
					"scale": ["1+math.sin(q.anim_time*90*2)*0.01", "1+math.sin(q.anim_time*90*3)*0.01", "1+math.cos(q.anim_time*90*3)*0.005"]
				}
			}
		},
		"animation.hippowdon.sand_sleep": {
			"loop": true,
			"bones": {
				"body": {
					"position": [0, -22, 0]
				},
				"sand": {
					"position": [0, 22, -24],
					"scale": ["1+math.sin(q.anim_time*90*0.5)*0.01", "1+math.sin(q.anim_time*90*1)*0.01", "1+math.cos(q.anim_time*90*1)*0.005"]
				},
				"torso": {
					"rotation": [-10.5, 0, "math.cos(q.anim_time*90*1)*0.1"],
					"position": [0, "-3+math.cos(q.anim_time*90*0.5)*0.1", -4]
				},
				"head": {
					"rotation": ["-2.5-math.sin(q.anim_time*90*0.5-60)*1", 0, "-math.cos(q.anim_time*90*1-60)*0.6"]
				},
				"jaw": {
					"rotation": [-15, 0, 0]
				},
				"eyelid_left": {
					"position": [0.1, 0, 0]
				},
				"eyelid_right": {
					"position": [-0.1, 0, 0]
				},
				"leg_front_left": {
					"rotation": [-12.5, -5, 0]
				},
				"leg_front_left2": {
					"rotation": [27.5, 0, 0]
				},
				"leg_front_right": {
					"rotation": [-12.5, 5, 0]
				},
				"leg_front_right2": {
					"rotation": [27.5, 0, 0]
				},
				"leg_back_right": {
					"rotation": [-25, 0, 0],
					"position": [0, -2.2, 0]
				},
				"leg_back_right2": {
					"rotation": [12.5, 0, 0]
				},
				"leg_back_left": {
					"rotation": [-25, 0, 0],
					"position": [0, -2.2, 0]
				},
				"leg_back_left2": {
					"rotation": [12.5, 0, 0]
				},
				"redsand": {
					"position": [0, 22, -24],
					"scale": ["1+math.sin(q.anim_time*90*0.5)*0.01", "1+math.sin(q.anim_time*90*1)*0.01", "1+math.cos(q.anim_time*90*1)*0.005"]
				}
			}
		},
		"animation.hippowdon.sleep": {
			"loop": true,
			"animation_length": 8,
			"bones": {
				"torso": {
					"rotation": [0, 0, "0+math.sin(q.anim_time*90*0.5)*0.2"],
					"position": [0, 0.6, 0]
				},
				"tail": {
					"rotation": [-42.49663, -0.09923, -0.39954]
				},
				"tail2": {
					"rotation": [15, 0, 0]
				},
				"neck": {
					"rotation": ["14.9976-math.cos(q.anim_time*90*1-60)*0.4", -0.05119, 0.29638]
				},
				"sand": {
					"position": [0, 5, 0],
					"scale": 0
				},
				"head": {
					"rotation": [-14.49467, -0.14828, "-5.0004-math.sin(q.anim_time*90*0.5+60)*1"]
				},
				"jaw": {
					"rotation": [-14, 0, 0],
					"position": [0, -0.5, 0]
				},
				"leg_front_left": {
					"rotation": [-33, -40.5, 0],
					"position": [0, 1.2, -1.1]
				},
				"leg_front_left2": {
					"rotation": [32.5, 0, 0]
				},
				"leg_front_right": {
					"rotation": [-33, 40.5, 0],
					"position": [0, 1.2, -1.1]
				},
				"leg_front_right2": {
					"rotation": [32.5, 0, 0]
				},
				"top_head": {
					"rotation": [0, 0, 0]
				},
				"body": {
					"position": [0, -5, 0]
				},
				"eyelid_left": {
					"position": [0.1, 0, 0]
				},
				"eyelid_right": {
					"position": [-0.1, 0, 0]
				},
				"leg_back_right": {
					"rotation": [-30.18664, 9.76061, -2.18558],
					"position": [0, 1.2, 0]
				},
				"leg_back_right2": {
					"rotation": [29.79651, -0.86909, 1.98454]
				},
				"leg_back_left": {
					"rotation": [-30.18664, -9.76061, 2.18558],
					"position": [0, 1.2, 0]
				},
				"leg_back_left2": {
					"rotation": [29.79651, 0.86909, -1.98454]
				}
			}
		},
		"animation.hippowdon.blink": {
			"animation_length": 0.1667,
			"bones": {
				"eyelid_left": {
					"position": {
						"0.0": [0.1, 0, 0],
						"0.125": {"pre": [0.1, 0, 0], "post": [0.1, 0, 0]},
						"0.1667": {"pre": [0.1, 0, 0], "post": [0, 0, 0]}
					}
				},
				"eyelid_right": {
					"position": {
						"0.0": [-0.1, 0, 0],
						"0.125": {"pre": [-0.1, 0, 0], "post": [-0.1, 0, 0]},
						"0.1667": {"pre": [-0.1, 0, 0], "post": [0, 0, 0]}
					}
				}
			}
		},
		"animation.hippowdon.cry": {
			"animation_length": 3.5,
			"bones": {
				"neck": {
					"rotation": {
						"0.0": [0, 0, 0],
						"0.3333": {
							"pre": [2, 0, 0],
							"post": [2, 0, 0],
							"lerp_mode": "catmullrom"
						},
						"1.1667": {
							"post": [-6, 0, 0],
							"lerp_mode": "catmullrom"
						},
						"1.9167": {
							"post": [-11, 0, 0],
							"lerp_mode": "catmullrom"
						},
						"3.0": [0, 0, 0]
					},
					"position": {
						"0.0": [0, 0, 0],
						"0.6667": {
							"pre": [0, 2.1, 0],
							"post": [0, 2.1, 0],
							"lerp_mode": "catmullrom"
						},
						"1.3333": {
							"post": [0, 2.1, 0],
							"lerp_mode": "catmullrom"
						},
						"1.75": {
							"post": [0, 0, 0],
							"lerp_mode": "catmullrom"
						},
						"3.25": [0, 0, 0]
					}
				},
				"head": {
					"rotation": {
						"0.0": [0, 0, 0],
						"0.4167": {
							"pre": [3, 0, 0],
							"post": [3, 0, 0],
							"lerp_mode": "catmullrom"
						},
						"0.8333": {
							"post": [3, 0, 0],
							"lerp_mode": "catmullrom"
						},
						"1.5": {
							"post": [-3, 0, 0],
							"lerp_mode": "catmullrom"
						},
						"1.9167": {
							"post": [7.91, 0, 0],
							"lerp_mode": "catmullrom"
						},
						"2.8333": {
							"post": [0, 0, 0],
							"lerp_mode": "catmullrom"
						},
						"3.4167": [0, 0, 0]
					},
					"position": {
						"0.5": [0, 0, 0],
						"0.8333": {
							"pre": [0, 2.6, 0],
							"post": [0, 2.6, 0],
							"lerp_mode": "catmullrom"
						},
						"1.25": {
							"post": [0, 2.6, 0],
							"lerp_mode": "catmullrom"
						},
						"1.6667": [0, 0, 0]
					}
				},
				"jaw": {
					"rotation": {
						"0.0": [0, 0, 0],
						"0.3333": {
							"pre": [-2, 0, 0],
							"post": [-2, 0, 0],
							"lerp_mode": "catmullrom"
						},
						"0.8333": {
							"post": [43, 0, 0],
							"lerp_mode": "catmullrom"
						},
						"1.25": {
							"post": [43, 0, 0],
							"lerp_mode": "catmullrom"
						},
						"1.6667": {
							"post": [0, 0, 0],
							"lerp_mode": "catmullrom"
						},
						"2.25": [0, 0, 0]
					}
				},
				"top_head": {
					"rotation": {
						"0.0": [0, 0, 0],
						"0.4167": {
							"pre": [0, 0, 0],
							"post": [0, 0, 0],
							"lerp_mode": "catmullrom"
						},
						"0.8333": {
							"post": [-35, 0, 0],
							"lerp_mode": "catmullrom"
						},
						"1.25": {
							"post": [-35, 0, 0],
							"lerp_mode": "catmullrom"
						},
						"1.6667": {
							"post": [0, 0, 0],
							"lerp_mode": "catmullrom"
						},
						"2.25": [0, 0, 0]
					}
				},
				"torso": {
					"rotation": {
						"0.0": [0, 0, 0],
						"0.4167": {
							"pre": [2, 0, 0],
							"post": [2, 0, 0],
							"lerp_mode": "catmullrom"
						},
						"0.75": {
							"post": [-4, 0, 0],
							"lerp_mode": "catmullrom"
						},
						"1.5": {
							"post": [-3.99939, -0.06975, -0.99756],
							"lerp_mode": "catmullrom"
						},
						"2.25": {
							"post": [0, 0, 0],
							"lerp_mode": "catmullrom"
						},
						"3.0833": [0, 0, 0]
					},
					"position": {
						"0.3333": [0, 0, 0],
						"1.0": [0, "0.2*math.sin(q.anim_time*90*50)", 0],
						"1.9167": [0, 0, 0]
					}
				},
				"tongue": {
					"rotation": {
						"0.0": [0, 0, 0],
						"0.5": [0, 0, 0],
						"1.0833": ["-25+2*math.sin(q.anim_time*90*20)", 0, 0],
						"1.75": [0, 0, 0]
					}
				},
				"tongue2": {
					"rotation": {
						"0.5": [0, 0, 0],
						"1.0833": ["7+7*math.sin(q.anim_time*90*20-60)", 0, 0],
						"1.75": [0, 0, 0]
					}
				},
				"eyelid_left": {
					"position": {
						"0.0": [0, 0, 0],
						"0.0833": {"pre": [0, 0, 0], "post": [0.1, 0, 0]},
						"0.5833": {"pre": [0.1, 0, 0], "post": [0.1, 0, 0]},
						"0.6667": {"pre": [0.1, 0, 0], "post": [0, 0, 0]},
						"2.0": {"pre": [0, 0, 0], "post": [0, 0, 0]},
						"2.0833": {"pre": [0, 0, 0], "post": [0.1, 0, 0]},
						"2.25": {"pre": [0.1, 0, 0], "post": [0.1, 0, 0]},
						"2.3333": {"pre": [0.1, 0, 0], "post": [0, 0, 0]}
					}
				},
				"eyelid_right": {
					"position": {
						"0.0": [0, 0, 0],
						"0.0833": {"pre": [0, 0, 0], "post": [-0.1, 0, 0]},
						"0.5833": {"pre": [-0.1, 0, 0], "post": [-0.1, 0, 0]},
						"0.6667": {"pre": [-0.1, 0, 0], "post": [0, 0, 0]},
						"2.0": {"pre": [0, 0, 0], "post": [0, 0, 0]},
						"2.0833": {"pre": [0, 0, 0], "post": [-0.1, 0, 0]},
						"2.25": {"pre": [-0.1, 0, 0], "post": [-0.1, 0, 0]},
						"2.3333": {"pre": [-0.1, 0, 0], "post": [0, 0, 0]}
					}
				}
			},
			"sound_effects": {
				"0.4167": {
					"effect": "pokemon.hippowdon.cry"
				}
			}
		},
		"animation.hippowdon.battle_cry": {
			"animation_length": 3.5,
			"bones": {
				"neck": {
					"rotation": {
						"0.0": [0, 0, 0],
						"0.3333": {
							"pre": [2, 0, 0],
							"post": [2, 0, 0],
							"lerp_mode": "catmullrom"
						},
						"1.1667": {
							"post": [-6, 0, 0],
							"lerp_mode": "catmullrom"
						},
						"1.9167": {
							"post": [-11, 0, 0],
							"lerp_mode": "catmullrom"
						},
						"3.0": [0, 0, 0]
					},
					"position": {
						"0.0": [0, 0, 0],
						"0.6667": {
							"pre": [0, 2.1, 0],
							"post": [0, 2.1, 0],
							"lerp_mode": "catmullrom"
						},
						"1.3333": {
							"post": [0, 2.1, 0],
							"lerp_mode": "catmullrom"
						},
						"1.75": {
							"post": [0, 0, 0],
							"lerp_mode": "catmullrom"
						},
						"3.25": [0, 0, 0]
					}
				},
				"head": {
					"rotation": {
						"0.0": [0, 0, 0],
						"0.4167": {
							"pre": [3, 0, 0],
							"post": [3, 0, 0],
							"lerp_mode": "catmullrom"
						},
						"0.8333": {
							"post": [3, 0, 0],
							"lerp_mode": "catmullrom"
						},
						"1.5": {
							"post": [-3, 0, 0],
							"lerp_mode": "catmullrom"
						},
						"1.9167": {
							"post": [7.91, 0, 0],
							"lerp_mode": "catmullrom"
						},
						"2.8333": {
							"post": [0, 0, 0],
							"lerp_mode": "catmullrom"
						},
						"3.4167": [0, 0, 0]
					},
					"position": {
						"0.5": [0, 0, 0],
						"0.8333": {
							"pre": [0, 2.6, 0],
							"post": [0, 2.6, 0],
							"lerp_mode": "catmullrom"
						},
						"1.25": {
							"post": [0, 2.6, 0],
							"lerp_mode": "catmullrom"
						},
						"1.6667": [0, 0, 0]
					}
				},
				"jaw": {
					"rotation": {
						"0.0": [0, 0, 0],
						"0.3333": {
							"pre": [-2, 0, 0],
							"post": [-2, 0, 0],
							"lerp_mode": "catmullrom"
						},
						"0.8333": {
							"post": [15.5, 0, 0],
							"lerp_mode": "catmullrom"
						},
						"1.25": {
							"post": [15.5, 0, 0],
							"lerp_mode": "catmullrom"
						},
						"1.6667": {
							"post": [0, 0, 0],
							"lerp_mode": "catmullrom"
						},
						"2.25": [0, 0, 0]
					}
				},
				"top_head": {
					"rotation": {
						"0.0": [0, 0, 0],
						"0.4167": {
							"pre": [0, 0, 0],
							"post": [0, 0, 0],
							"lerp_mode": "catmullrom"
						},
						"0.8333": {
							"post": [-27, 0, 0],
							"lerp_mode": "catmullrom"
						},
						"1.25": {
							"post": [-27, 0, 0],
							"lerp_mode": "catmullrom"
						},
						"1.6667": {
							"post": [0, 0, 0],
							"lerp_mode": "catmullrom"
						},
						"2.25": [0, 0, 0]
					}
				},
				"torso": {
					"rotation": {
						"0.0": [0, 0, 0],
						"0.4167": {
							"pre": [2, 0, 0],
							"post": [2, 0, 0],
							"lerp_mode": "catmullrom"
						},
						"0.75": {
							"post": [-4, 0, 0],
							"lerp_mode": "catmullrom"
						},
						"1.5": {
							"post": [-3.99939, -0.06975, -0.99756],
							"lerp_mode": "catmullrom"
						},
						"2.25": {
							"post": [0, 0, 0],
							"lerp_mode": "catmullrom"
						},
						"3.0833": [0, 0, 0]
					},
					"position": {
						"0.3333": [0, 0, 0],
						"1.0": [0, "0.2*math.sin(q.anim_time*90*50)", 0],
						"1.9167": [0, 0, 0]
					}
				},
				"tongue": {
					"rotation": {
						"0.0": [0, 0, 0],
						"0.5": [0, 0, 0],
						"1.0833": ["-25+2*math.sin(q.anim_time*90*20)", 0, 0],
						"1.75": [0, 0, 0]
					}
				},
				"tongue2": {
					"rotation": {
						"0.5": [0, 0, 0],
						"1.0833": ["7+7*math.sin(q.anim_time*90*20-60)", 0, 0],
						"1.75": [0, 0, 0]
					}
				},
				"eyelid_left": {
					"position": {
						"0.0": [0, 0, 0],
						"0.0833": {"pre": [0, 0, 0], "post": [0.1, 0, 0]},
						"0.5833": {"pre": [0.1, 0, 0], "post": [0.1, 0, 0]},
						"0.6667": {"pre": [0.1, 0, 0], "post": [0, 0, 0]},
						"2.0": {"pre": [0, 0, 0], "post": [0, 0, 0]},
						"2.0833": {"pre": [0, 0, 0], "post": [0.1, 0, 0]},
						"2.25": {"pre": [0.1, 0, 0], "post": [0.1, 0, 0]},
						"2.3333": {"pre": [0.1, 0, 0], "post": [0, 0, 0]}
					}
				},
				"eyelid_right": {
					"position": {
						"0.0": [0, 0, 0],
						"0.0833": {"pre": [0, 0, 0], "post": [-0.1, 0, 0]},
						"0.5833": {"pre": [-0.1, 0, 0], "post": [-0.1, 0, 0]},
						"0.6667": {"pre": [-0.1, 0, 0], "post": [0, 0, 0]},
						"2.0": {"pre": [0, 0, 0], "post": [0, 0, 0]},
						"2.0833": {"pre": [0, 0, 0], "post": [-0.1, 0, 0]},
						"2.25": {"pre": [-0.1, 0, 0], "post": [-0.1, 0, 0]},
						"2.3333": {"pre": [-0.1, 0, 0], "post": [0, 0, 0]}
					}
				}
			},
			"sound_effects": {
				"0.4167": {
					"effect": "pokemon.hippowdon.cry"
				}
			}
		},
		"animation.hippowdon.sand_cry": {
			"animation_length": 3.5,
			"bones": {
				"neck": {
					"rotation": {
						"0.0": [0, 0, 0],
						"0.3333": {
							"pre": [2, 0, 0],
							"post": [2, 0, 0],
							"lerp_mode": "catmullrom"
						},
						"1.1667": {
							"post": [-6, 0, 0],
							"lerp_mode": "catmullrom"
						},
						"1.9167": {
							"post": [-11, 0, 0],
							"lerp_mode": "catmullrom"
						},
						"3.0": [0, 0, 0]
					},
					"position": {
						"0.0": [0, 0, 0],
						"0.6667": {
							"pre": [0, 2.1, 0],
							"post": [0, 2.1, 0],
							"lerp_mode": "catmullrom"
						},
						"1.3333": {
							"post": [0, 2.1, 0],
							"lerp_mode": "catmullrom"
						},
						"1.75": {
							"post": [0, 0, 0],
							"lerp_mode": "catmullrom"
						},
						"3.25": [0, 0, 0]
					}
				},
				"head": {
					"rotation": {
						"0.0": [0, 0, 0],
						"0.4167": {
							"pre": [3, 0, 0],
							"post": [3, 0, 0],
							"lerp_mode": "catmullrom"
						},
						"0.8333": {
							"post": [3, 0, 0],
							"lerp_mode": "catmullrom"
						},
						"1.5": {
							"post": [-3, 0, 0],
							"lerp_mode": "catmullrom"
						},
						"1.9167": {
							"post": [7.91, -4, 0],
							"lerp_mode": "catmullrom"
						},
						"2.3333": {
							"post": [4.78, 3.68, 0],
							"lerp_mode": "catmullrom"
						},
						"2.8333": {
							"post": [0, 0, 0],
							"lerp_mode": "catmullrom"
						},
						"3.4167": [0, 0, 0]
					},
					"position": {
						"0.5": [0, 0, 0],
						"0.8333": {
							"pre": [0, 2.6, 0],
							"post": [0, 2.6, 0],
							"lerp_mode": "catmullrom"
						},
						"1.25": {
							"post": [0, 2.6, 0],
							"lerp_mode": "catmullrom"
						},
						"1.6667": [0, 0, 0]
					}
				},
				"jaw": {
					"rotation": {
						"0.0": [0, 0, 0],
						"0.3333": {
							"pre": [-2, 0, 0],
							"post": [-2, 0, 0],
							"lerp_mode": "catmullrom"
						},
						"0.8333": {
							"post": [43, 0, 0],
							"lerp_mode": "catmullrom"
						},
						"1.25": {
							"post": [43, 0, 0],
							"lerp_mode": "catmullrom"
						},
						"1.6667": {
							"post": [0, 0, 0],
							"lerp_mode": "catmullrom"
						},
						"2.25": [0, 0, 0]
					}
				},
				"top_head": {
					"rotation": {
						"0.0": [0, 0, 0],
						"0.4167": {
							"pre": [0, 0, 0],
							"post": [0, 0, 0],
							"lerp_mode": "catmullrom"
						},
						"0.8333": {
							"post": [-35, 0, 0],
							"lerp_mode": "catmullrom"
						},
						"1.25": {
							"post": [-35, 0, 0],
							"lerp_mode": "catmullrom"
						},
						"1.6667": {
							"post": [0, 0, 0],
							"lerp_mode": "catmullrom"
						},
						"2.25": [0, 0, 0]
					}
				},
				"torso": {
					"rotation": {
						"0.0": [0, 0, 0],
						"0.4167": {
							"pre": [2, 0, 0],
							"post": [2, 0, 0],
							"lerp_mode": "catmullrom"
						},
						"0.75": {
							"post": [-4, 0, 0],
							"lerp_mode": "catmullrom"
						},
						"1.5": {
							"post": [-3.99939, -0.06975, -0.99756],
							"lerp_mode": "catmullrom"
						},
						"1.75": {
							"post": [-3.81, -0.05, -3.78],
							"lerp_mode": "catmullrom"
						},
						"2.0833": {
							"post": [0, 0, 0],
							"lerp_mode": "catmullrom"
						},
						"2.5": {
							"post": [0.2, -1, 2.27],
							"lerp_mode": "catmullrom"
						},
						"3.0": {
							"post": [0, 0, 0],
							"lerp_mode": "catmullrom"
						},
						"3.4167": [0, 0, 0]
					},
					"position": {
						"0.3333": [0, 0, 0],
						"1.0": [0, "0.2*math.sin(q.anim_time*90*50)", 0],
						"1.9167": [0, 0, 0],
						"2.1667": [0, 0.7, 0],
						"2.5833": [0, 0, 0],
						"3.5": [0, 0, 0]
					}
				},
				"tongue": {
					"rotation": {
						"0.0": [0, 0, 0],
						"0.5": [0, 0, 0],
						"1.0833": ["-25+2*math.sin(q.anim_time*90*20)", 0, 0],
						"1.75": [0, 0, 0]
					}
				},
				"tongue2": {
					"rotation": {
						"0.5": [0, 0, 0],
						"1.0833": ["7+7*math.sin(q.anim_time*90*20-60)", 0, 0],
						"1.75": [0, 0, 0]
					}
				},
				"eyelid_left": {
					"position": {
						"0.0": [0, 0, 0],
						"0.0833": {"pre": [0, 0, 0], "post": [0.1, 0, 0]},
						"0.5833": {"pre": [0.1, 0, 0], "post": [0.1, 0, 0]},
						"0.6667": {"pre": [0.1, 0, 0], "post": [0, 0, 0]},
						"2.0": {"pre": [0, 0, 0], "post": [0, 0, 0]},
						"2.0833": {"pre": [0, 0, 0], "post": [0.1, 0, 0]},
						"2.25": {"pre": [0.1, 0, 0], "post": [0.1, 0, 0]},
						"2.3333": {"pre": [0.1, 0, 0], "post": [0, 0, 0]}
					}
				},
				"eyelid_right": {
					"position": {
						"0.0": [0, 0, 0],
						"0.0833": {"pre": [0, 0, 0], "post": [-0.1, 0, 0]},
						"0.5833": {"pre": [-0.1, 0, 0], "post": [-0.1, 0, 0]},
						"0.6667": {"pre": [-0.1, 0, 0], "post": [0, 0, 0]},
						"2.0": {"pre": [0, 0, 0], "post": [0, 0, 0]},
						"2.0833": {"pre": [0, 0, 0], "post": [-0.1, 0, 0]},
						"2.25": {"pre": [-0.1, 0, 0], "post": [-0.1, 0, 0]},
						"2.3333": {"pre": [-0.1, 0, 0], "post": [0, 0, 0]}
					}
				}
			},
			"sound_effects": {
				"0.4167": {
					"effect": "pokemon.hippowdon.cry"
				},
				"1.3333": {
					"effect": "pokemon.hippowdon.quirk1_cry"
				}
			}
		},
		"animation.hippowdon.sand_battle_cry": {
			"animation_length": 3.5,
			"bones": {
				"neck": {
					"rotation": {
						"0.0": [0, 0, 0],
						"0.3333": {
							"pre": [2, 0, 0],
							"post": [2, 0, 0],
							"lerp_mode": "catmullrom"
						},
						"1.1667": {
							"post": [-6, 0, 0],
							"lerp_mode": "catmullrom"
						},
						"1.9167": {
							"post": [-11, 0, 0],
							"lerp_mode": "catmullrom"
						},
						"3.0": [0, 0, 0]
					},
					"position": {
						"0.0": [0, 0, 0],
						"0.6667": {
							"pre": [0, 2.1, 0],
							"post": [0, 2.1, 0],
							"lerp_mode": "catmullrom"
						},
						"1.3333": {
							"post": [0, 2.1, 0],
							"lerp_mode": "catmullrom"
						},
						"1.75": {
							"post": [0, 0, 0],
							"lerp_mode": "catmullrom"
						},
						"3.25": [0, 0, 0]
					}
				},
				"head": {
					"rotation": {
						"0.0": [0, 0, 0],
						"0.4167": {
							"pre": [13, 0, 0],
							"post": [13, 0, 0],
							"lerp_mode": "catmullrom"
						},
						"0.8333": {
							"post": [3, 0, 0],
							"lerp_mode": "catmullrom"
						},
						"1.5": {
							"post": [-3, 0, 0],
							"lerp_mode": "catmullrom"
						},
						"1.9167": {
							"post": [7.91, 0, 0],
							"lerp_mode": "catmullrom"
						},
						"2.8333": {
							"post": [0, 0, 0],
							"lerp_mode": "catmullrom"
						},
						"3.4167": [0, 0, 0]
					},
					"position": {
						"0.5": [0, 0, 0],
						"0.8333": {
							"pre": [0, 2.6, 0],
							"post": [0, 2.6, 0],
							"lerp_mode": "catmullrom"
						},
						"1.25": {
							"post": [0, 2.6, 0],
							"lerp_mode": "catmullrom"
						},
						"1.6667": [0, 0, 0]
					}
				},
				"jaw": {
					"rotation": {
						"0.0": [0, 0, 0],
						"0.3333": {
							"pre": [-25, 0, 0],
							"post": [-25, 0, 0],
							"lerp_mode": "catmullrom"
						},
						"0.8333": {
							"post": [24, 0, 0],
							"lerp_mode": "catmullrom"
						},
						"1.25": {
							"post": [24, 0, 0],
							"lerp_mode": "catmullrom"
						},
						"1.6667": {
							"post": [-10, 0, 0],
							"lerp_mode": "catmullrom"
						},
						"2.25": [0, 0, 0]
					}
				},
				"top_head": {
					"rotation": {
						"0.0": [0, 0, 0],
						"0.4167": {
							"pre": [0, 0, 0],
							"post": [0, 0, 0],
							"lerp_mode": "catmullrom"
						},
						"0.8333": {
							"post": [-15, 0, 0],
							"lerp_mode": "catmullrom"
						},
						"1.25": {
							"post": [-15, 0, 0],
							"lerp_mode": "catmullrom"
						},
						"1.6667": {
							"post": [0, 0, 0],
							"lerp_mode": "catmullrom"
						},
						"2.25": [0, 0, 0]
					}
				},
				"torso": {
					"rotation": {
						"0.0": [0, 0, 0],
						"0.4167": {
							"pre": [2, 0, 0],
							"post": [2, 0, 0],
							"lerp_mode": "catmullrom"
						},
						"0.75": {
							"post": [-4, 0, 0],
							"lerp_mode": "catmullrom"
						},
						"1.4167": {
							"post": [-3.99939, -0.06975, -0.99756],
							"lerp_mode": "catmullrom"
						},
						"1.6667": {
							"post": [-5.67, -0.06, -2.86],
							"lerp_mode": "catmullrom"
						},
						"2.0833": {
							"post": [-2.5, 0, 3],
							"lerp_mode": "catmullrom"
						},
						"2.8333": {
							"post": [0, 0, 0],
							"lerp_mode": "catmullrom"
						},
						"3.4167": [0, 0, 0]
					},
					"position": {
						"0.3333": [0, 0, 0],
						"1.0": [0, "0.2*math.sin(q.anim_time*90*50)", 0],
						"1.9167": [0, 0, 0]
					}
				},
				"tongue": {
					"rotation": {
						"0.0": [0, 0, 0],
						"0.5": [0, 0, 0],
						"1.0833": ["-25+2*math.sin(q.anim_time*90*20)", 0, 0],
						"1.75": [0, 0, 0]
					}
				},
				"tongue2": {
					"rotation": {
						"0.5": [0, 0, 0],
						"1.0833": ["7+7*math.sin(q.anim_time*90*20-60)", 0, 0],
						"1.75": [0, 0, 0]
					}
				},
				"eyelid_left": {
					"position": {
						"0.0": [0, 0, 0],
						"0.0833": {"pre": [0, 0, 0], "post": [0.1, 0, 0]},
						"0.5833": {"pre": [0.1, 0, 0], "post": [0.1, 0, 0]},
						"0.6667": {"pre": [0.1, 0, 0], "post": [0, 0, 0]},
						"2.0": {"pre": [0, 0, 0], "post": [0, 0, 0]},
						"2.0833": {"pre": [0, 0, 0], "post": [0.1, 0, 0]},
						"2.25": {"pre": [0.1, 0, 0], "post": [0.1, 0, 0]},
						"2.3333": {"pre": [0.1, 0, 0], "post": [0, 0, 0]}
					}
				},
				"eyelid_right": {
					"position": {
						"0.0": [0, 0, 0],
						"0.0833": {"pre": [0, 0, 0], "post": [-0.1, 0, 0]},
						"0.5833": {"pre": [-0.1, 0, 0], "post": [-0.1, 0, 0]},
						"0.6667": {"pre": [-0.1, 0, 0], "post": [0, 0, 0]},
						"2.0": {"pre": [0, 0, 0], "post": [0, 0, 0]},
						"2.0833": {"pre": [0, 0, 0], "post": [-0.1, 0, 0]},
						"2.25": {"pre": [-0.1, 0, 0], "post": [-0.1, 0, 0]},
						"2.3333": {"pre": [-0.1, 0, 0], "post": [0, 0, 0]}
					}
				},
				"leg_front_left": {
					"rotation": {
						"1.4167": [0, 0, 0],
						"1.5833": [-5, 0, 0],
						"1.9167": [0, 0, 0]
					},
					"position": {
						"1.4167": [0, 0, 0],
						"1.6667": [0, 0.9, 0],
						"1.9167": [0, 0, 0]
					}
				},
				"leg_front_left2": {
					"rotation": {
						"1.4167": [0, 0, 0],
						"1.8333": [13, 0, 0],
						"1.9167": [0, 0, 0]
					}
				},
				"leg_front_right": {
					"rotation": {
						"1.9167": [0, 0, 0],
						"2.0833": [-5, 0, 0],
						"2.4167": [0, 0, 0]
					},
					"position": {
						"1.9167": [0, 0, 0],
						"2.1667": [0, 0.9, 0],
						"2.4167": [0, 0, 0]
					}
				},
				"leg_front_right2": {
					"rotation": {
						"1.9167": [0, 0, 0],
						"2.3333": [13, 0, 0],
						"2.4167": [0, 0, 0]
					}
				}
			},
			"sound_effects": {
				"0.4167": {
					"effect": "pokemon.hippowdon.cry"
				},
				"1.3333": {
					"effect": "pokemon.hippowdon.quirk1_cry"
				}
			}
		},
		"animation.hippowdon.quirk_idle": {
			"animation_length": 6,
			"bones": {
				"torso": {
					"rotation": {
						"0.0": [0, 0, 0],
						"0.5417": {
							"pre": [1, 0, 0],
							"post": [1, 0, 0],
							"lerp_mode": "catmullrom"
						},
						"1.1667": {
							"post": [-2, 0, 2],
							"lerp_mode": "catmullrom"
						},
						"2.75": {
							"post": [-4, 0, -2],
							"lerp_mode": "catmullrom"
						},
						"3.125": {
							"post": [-4.63, 0, -2.57],
							"lerp_mode": "catmullrom"
						},
						"3.375": {
							"post": [-4.17, 0, -2.3],
							"lerp_mode": "catmullrom"
						},
						"3.75": {
							"post": [-4.48, 0, -1.06],
							"lerp_mode": "catmullrom"
						},
						"4.125": {
							"post": [-4, 0, 0],
							"lerp_mode": "catmullrom"
						},
						"4.9583": {
							"post": [0, 0, 0],
							"lerp_mode": "catmullrom"
						},
						"5.875": [0, 0, 0]
					}
				},
				"neck": {
					"rotation": {
						"0.0": [0, 0, 0],
						"0.5417": {
							"pre": [-2.5, 0, 0],
							"post": [-2.5, 0, 0],
							"lerp_mode": "catmullrom"
						},
						"1.2917": {
							"post": [2.5, 0, 0],
							"lerp_mode": "catmullrom"
						},
						"2.4583": {
							"post": [-2.5, 0, 0],
							"lerp_mode": "catmullrom"
						},
						"3.6667": {
							"post": [-2.5, 0, 0],
							"lerp_mode": "catmullrom"
						},
						"5.0833": {
							"post": [0, 0, 0],
							"lerp_mode": "catmullrom"
						},
						"5.7917": [0, 0, 0]
					},
					"position": {
						"0.375": [0, 0, 0],
						"1.2083": {
							"pre": [0, -0.1, 0],
							"post": [0, -0.1, 0],
							"lerp_mode": "catmullrom"
						},
						"2.375": {
							"post": [0, 3, 0],
							"lerp_mode": "catmullrom"
						},
						"4.0833": {
							"post": [0, 3, 0],
							"lerp_mode": "catmullrom"
						},
						"5.0": {
							"post": [0, 0, 0],
							"lerp_mode": "catmullrom"
						},
						"5.8333": [0, 0, 0]
					}
				},
				"head": {
					"rotation": {
						"0.0": [0, 0, 0],
						"0.4583": {
							"pre": [-1, 0, 0],
							"post": [-1, 0, 0],
							"lerp_mode": "catmullrom"
						},
						"1.2083": {
							"post": [5, 0, 0],
							"lerp_mode": "catmullrom"
						},
						"2.4583": {
							"post": [-25, 0, 0],
							"lerp_mode": "catmullrom"
						},
						"3.125": {
							"post": [-26.47, 0, 0],
							"lerp_mode": "catmullrom"
						},
						"3.7917": {
							"post": [-31, 0, 0],
							"lerp_mode": "catmullrom"
						},
						"4.9583": {
							"post": [-1, 0, 0],
							"lerp_mode": "catmullrom"
						},
						"5.5833": {
							"post": [0, 0, 0],
							"lerp_mode": "catmullrom"
						},
						"6.0": [0, 0, 0]
					}
				},
				"jaw": {
					"rotation": {
						"0.0": [0, 0, 0],
						"0.3333": {
							"pre": [4, 0, 0],
							"post": [4, 0, 0],
							"lerp_mode": "catmullrom"
						},
						"0.875": {
							"post": [0, 0, 0],
							"lerp_mode": "catmullrom"
						},
						"2.0833": {
							"post": [48, 0, 0],
							"lerp_mode": "catmullrom"
						},
						"2.75": {
							"post": [53, 0, 0],
							"lerp_mode": "catmullrom"
						},
						"3.5": {
							"post": [63, 0, 0],
							"lerp_mode": "catmullrom"
						},
						"4.0417": {
							"post": [53.3, 0, 0],
							"lerp_mode": "catmullrom"
						},
						"4.6667": {
							"post": [0.6, 0, 0],
							"lerp_mode": "catmullrom"
						},
						"5.1667": {
							"post": [-3.17, 0, 0],
							"lerp_mode": "catmullrom"
						},
						"5.3333": {
							"post": [0.14, 0, 0],
							"lerp_mode": "catmullrom"
						},
						"5.625": {
							"post": [-3.17, 0, 0],
							"lerp_mode": "catmullrom"
						},
						"5.9583": [0, 0, 0]
					},
					"position": {
						"0.0": [0, 0, 0],
						"0.375": {
							"pre": [0, 0, -0.37],
							"post": [0, 0, -0.37],
							"lerp_mode": "catmullrom"
						},
						"0.7083": {
							"post": [0, 0, 0],
							"lerp_mode": "catmullrom"
						},
						"1.375": {
							"post": [0, 0, -0.5],
							"lerp_mode": "catmullrom"
						},
						"1.7917": {
							"post": [0, 0, -1.1],
							"lerp_mode": "catmullrom"
						},
						"3.75": {
							"post": [0, 0, -1.1],
							"lerp_mode": "catmullrom"
						},
						"4.9167": [0, 0, 0]
					}
				},
				"tongue": {
					"rotation": {
						"0.9167": [0, 0, 0],
						"1.8333": {
							"pre": [-14, 0, 0],
							"post": [-14, 0, 0],
							"lerp_mode": "catmullrom"
						},
						"2.5": {
							"post": [-27, 0, 0],
							"lerp_mode": "catmullrom"
						},
						"3.0": {
							"post": [-14, 0, 0],
							"lerp_mode": "catmullrom"
						},
						"3.375": {
							"post": [0, 0, 0],
							"lerp_mode": "catmullrom"
						},
						"3.7917": [0, 0, 0]
					}
				},
				"tongue2": {
					"rotation": {
						"1.2083": [0, 0, 0],
						"1.625": {
							"pre": [14, 0, 0],
							"post": [14, 0, 0],
							"lerp_mode": "catmullrom"
						},
						"2.2917": {
							"post": [21, 0, 0],
							"lerp_mode": "catmullrom"
						},
						"2.6667": {
							"post": [10.68, 0, 0],
							"lerp_mode": "catmullrom"
						},
						"2.9583": {
							"post": [-6, 0, 0],
							"lerp_mode": "catmullrom"
						},
						"3.3333": [0, 0, 0]
					}
				},
				"top_head": {
					"rotation": {
						"0.0": [0, 0, 0],
						"1.125": {
							"pre": [1, 0, 0],
							"post": [1, 0, 0],
							"lerp_mode": "catmullrom"
						},
						"2.4583": {
							"post": [-20, 0, 0],
							"lerp_mode": "catmullrom"
						},
						"3.9583": {
							"post": [-20, 0, 0],
							"lerp_mode": "catmullrom"
						},
						"4.9583": {
							"post": [0, 0, 0],
							"lerp_mode": "catmullrom"
						},
						"5.9583": [0, 0, 0]
					}
				},
				"eyelid_left": {
					"position": {
						"0.0": [0, 0, 0],
						"0.0833": {"pre": [0, 0, 0], "post": [0.1, 0, 0]},
						"0.5833": {"pre": [0.1, 0, 0], "post": [0.1, 0, 0]},
						"0.6667": {"pre": [0.1, 0, 0], "post": [0, 0, 0]},
						"1.625": {"pre": [0, 0, 0], "post": [0, 0, 0]},
						"1.7083": {"pre": [0, 0, 0], "post": [0.1, 0, 0]},
						"4.25": {"pre": [0.1, 0, 0], "post": [0.1, 0, 0]},
						"4.3333": {"pre": [0.1, 0, 0], "post": [0, 0, 0]},
						"5.2083": {"pre": [0, 0, 0], "post": [0, 0, 0]},
						"5.2917": {"pre": [0, 0, 0], "post": [0.1, 0, 0]},
						"5.5833": {"pre": [0.1, 0, 0], "post": [0.1, 0, 0]},
						"5.6667": {"pre": [0.1, 0, 0], "post": [0, 0, 0]}
					}
				},
				"eyelid_right": {
					"position": {
						"0.0": [0, 0, 0],
						"0.0833": {"pre": [0, 0, 0], "post": [-0.1, 0, 0]},
						"0.5833": {"pre": [-0.1, 0, 0], "post": [-0.1, 0, 0]},
						"0.6667": {"pre": [-0.1, 0, 0], "post": [0, 0, 0]},
						"1.625": {"pre": [0, 0, 0], "post": [0, 0, 0]},
						"1.7083": {"pre": [0, 0, 0], "post": [-0.1, 0, 0]},
						"4.25": {"pre": [-0.1, 0, 0], "post": [-0.1, 0, 0]},
						"4.3333": {"pre": [-0.1, 0, 0], "post": [0, 0, 0]},
						"5.2083": {"pre": [0, 0, 0], "post": [0, 0, 0]},
						"5.2917": {"pre": [0, 0, 0], "post": [-0.1, 0, 0]},
						"5.5833": {"pre": [-0.1, 0, 0], "post": [-0.1, 0, 0]},
						"5.6667": {"pre": [-0.1, 0, 0], "post": [0, 0, 0]}
					}
				}
			},
			"sound_effects": {
				"0.4167": {
					"effect": "hippowdon_quirk1_cry"
				}
			}
		},
		"animation.hippowdon.quirk_sleep": {
			"animation_length": 6.04167,
			"bones": {
				"head": {
					"rotation": {
						"0.0": [0, 0, 0],
						"0.0833": {
							"pre": [0.5, 0, 0],
							"post": [0.5, 0, 0],
							"lerp_mode": "catmullrom"
						},
						"0.25": {
							"post": [0, 0, 0],
							"lerp_mode": "catmullrom"
						},
						"0.4167": {
							"post": [0, 0, 0],
							"lerp_mode": "catmullrom"
						},
						"4.3333": {
							"post": [0, 0, 0],
							"lerp_mode": "catmullrom"
						},
						"4.6667": {
							"post": [1, 0, 1],
							"lerp_mode": "catmullrom"
						},
						"5.125": {
							"post": [0, 0, 0],
							"lerp_mode": "catmullrom"
						},
						"5.6667": [0, 0, 0]
					}
				},
				"jaw": {
					"rotation": {
						"0.0": [0, 0, 0],
						"0.0833": {
							"pre": [-1, 0, 0],
							"post": [-1, 0, 0],
							"lerp_mode": "catmullrom"
						},
						"0.2083": {
							"post": [2, 0, 0],
							"lerp_mode": "catmullrom"
						},
						"0.4583": {
							"post": [-1.37, 0, 0],
							"lerp_mode": "catmullrom"
						},
						"0.7917": {
							"post": [2, 0, 0],
							"lerp_mode": "catmullrom"
						},
						"1.2917": {
							"post": [0.8, 0, 0],
							"lerp_mode": "catmullrom"
						},
						"4.5": {
							"post": [0, 0, 0],
							"lerp_mode": "catmullrom"
						},
						"4.6667": {
							"post": [0.5, 0, 0],
							"lerp_mode": "catmullrom"
						},
						"4.8333": {
							"post": [1, 0, 0],
							"lerp_mode": "catmullrom"
						},
						"5.0": [0, 0, 0]
					},
					"position": {
						"4.5": [0, 0, 0],
						"4.6667": {
							"pre": [0, 0, -0.2],
							"post": [0, 0, -0.2],
							"lerp_mode": "catmullrom"
						},
						"5.0417": {
							"post": [0, 0, 0],
							"lerp_mode": "catmullrom"
						},
						"5.5": [0, 0, 0]
					}
				},
				"tongue": {
					"rotation": {
						"0.0": [0, 0, 0],
						"0.125": [0, 0, 0],
						"0.375": {
							"pre": [4, 0, 0],
							"post": [4, 0, 0],
							"lerp_mode": "catmullrom"
						},
						"0.5417": {
							"post": [5.37, 0, 0],
							"lerp_mode": "catmullrom"
						},
						"0.75": {
							"post": [0.04, 0, 0],
							"lerp_mode": "catmullrom"
						},
						"4.5417": {
							"post": [7, 0, 0],
							"lerp_mode": "catmullrom"
						},
						"4.625": {
							"post": [5, 0, 0],
							"lerp_mode": "catmullrom"
						},
						"4.8333": [0, 0, 0]
					},
					"position": {
						"0.0": [0, 0, 0],
						"0.125": [0, 0, 0],
						"0.375": {
							"pre": [0, 0, -6],
							"post": [0, 0, -6],
							"lerp_mode": "catmullrom"
						},
						"0.5833": {
							"post": [0, 0, -5.8],
							"lerp_mode": "catmullrom"
						},
						"4.5417": {
							"post": [0, 0, -5.8],
							"lerp_mode": "catmullrom"
						},
						"4.625": {
							"post": [0, 0, -6.2],
							"lerp_mode": "catmullrom"
						},
						"4.8333": [0, 0, 0]
					}
				},
				"tongue2": {
					"rotation": {
						"0.0": [0, 0, 0],
						"0.7083": {
							"pre": [8.47, 0, 0],
							"post": [8.47, 0, 0],
							"lerp_mode": "catmullrom"
						},
						"4.375": {
							"post": [1.5, 0, 0],
							"lerp_mode": "catmullrom"
						},
						"4.5833": {
							"post": [-5.12, 0, 0],
							"lerp_mode": "catmullrom"
						},
						"4.7917": [0, 0, 0]
					}
				},
				"top_head": {
					"rotation": {
						"4.25": [0, 0, 0],
						"4.4583": {
							"pre": [1, 0, 0],
							"post": [1, 0, 0],
							"lerp_mode": "catmullrom"
						},
						"4.5833": {
							"post": [-1, 0, 0],
							"lerp_mode": "catmullrom"
						},
						"5.0833": {
							"post": [0, 0, 0],
							"lerp_mode": "catmullrom"
						},
						"5.5": [0, 0, 0]
					}
				}
			}
		},
		"animation.hippowdon.pose": {
			"loop": true,
			"bones": {
				"neck": {
					"rotation": [-17.64168, -7.15102, 2.26708],
					"position": [0, 0, -1]
				},
				"jaw": {
					"rotation": [40, 0, 0]
				},
				"top_head": {
					"rotation": [-35, 0, 0]
				},
				"torso": {
					"rotation": [-9.64485, 1.32078, 9.68237],
					"position": [0, -1, 0]
				},
				"tail": {
					"rotation": [-17.5, -27.5, 0]
				},
				"tail2": {
					"rotation": [20, 0, 0]
				},
				"leg_front_left": {
					"rotation": [-4.99527, 0.21782, -10.0095],
					"position": [1, 0, 2]
				},
				"leg_back_left": {
					"rotation": [5, 0, -12.5],
					"position": [0, -2, 0]
				},
				"leg_front_left2": {
					"rotation": [7.5, 0, 0]
				},
				"leg_back_right": {
					"rotation": [0, 0, 7.5]
				},
				"leg_back_left2": {
					"rotation": [5, 0, 0]
				},
				"tongue": {
					"rotation": [-10, 0, 0]
				},
				"tongue2": {
					"rotation": [-17.5, 0, 0]
				},
				"leg_front_right": {
					"rotation": [-75, 27.5, 0]
				},
				"leg_front_right2": {
					"rotation": [15, 0, 0],
					"scale": [1, 1.5, 1]
				},
				"toe_front_left3": {
					"rotation": [0, 0, 7.5]
				}
			}
		},
		"animation.hippowdon.walkspeedtest": {
			"loop": true,
			"bones": {
				"hippowdon": {
					"position": [0, 0, "-q.anim_time*90*0.045"]
				}
			}
		}
	}
}