{
	"format_version": "1.8.0",
	"animations": {
		"animation.gimmighoul_chest.ground_idle": {
			"loop": true,
			"animation_length": 4,
			"bones": {
				"belt_top2": {
					"rotation": ["-12.5+math.cos(q.anim_time*90*1-80)*2", 0, 0]
				},
				"belt_bottom2": {
					"rotation": [7, 0, 0]
				},
				"belt_bottom3": {
					"rotation": [81.5, 0, 0]
				},
				"belt_top": {
					"rotation": ["-1+math.cos(q.anim_time*90*1)*2", 0, 0],
					"position": [0, 0, 0]
				},
				"belt_top6": {
					"rotation": ["-15+math.cos(q.anim_time*90*2-210)*6", 0, 0]
				},
				"belt_top7": {
					"rotation": ["math.cos(q.anim_time*90*2)*16", 0, 0]
				},
				"lid": {
					"rotation": [0, 0, 0],
					"position": [0, 1, 0]
				},
				"belt_top3": {
					"rotation": [0, 0, 0],
					"position": [0, 1, 0]
				},
				"belt_top4": {
					"rotation": [-2.5, 0, 0]
				},
				"belt_top5": {
					"rotation": [2.5, 0, 0]
				},
				"gimmighoul_body": {
					"position": [0, -3.5, 0.8],
					"scale": 0.7
				},
				"torso": {
					"rotation": ["-13.504+0.5*math.cos(q.anim_time*90*4-60)*1", 0, "0+2*math.cos(q.anim_time*90*2)*1"],
					"position": [0, "-0.03*math.cos(q.anim_time*90*4-30)*1", 0]
				},
				"arm_left": {
					"rotation": ["6.4173-2*math.cos(q.anim_time*90*4)*1", 6.63674, "49.4292-2*math.cos(q.anim_time*90*2)*1"]
				},
				"arm_left2": {
					"rotation": [0, "12.5+3*math.cos(q.anim_time*90*2)*1", 0]
				},
				"arm_right": {
					"rotation": ["6.4173-2*math.cos(q.anim_time*90*4)*1", -6.63674, "-49.4292-2*math.cos(q.anim_time*90*2)*1"]
				},
				"arm_right2": {
					"rotation": [0, "-12.5+3*math.cos(q.anim_time*90*2)*1", 0]
				},
				"head": {
					"rotation": ["10+1*math.cos(q.anim_time*90*4-120)*1", 0, "2*math.cos(q.anim_time*90*2-60)*0.5"]
				},
				"antenna_left": {
					"rotation": ["1*math.cos(q.anim_time*90*4-150)*1", "-45-2*math.cos(q.anim_time*90*2-60)*1", 0]
				},
				"antenna_left2": {
					"rotation": ["10+1*math.cos(q.anim_time*90*4-180)*1", "-1*math.cos(q.anim_time*90*2-90)*1", 0]
				},
				"antenna_right": {
					"rotation": ["1*math.cos(q.anim_time*90*4-150)*1", "45-2*math.cos(q.anim_time*90*2-60)*1", 0]
				},
				"antenna_right2": {
					"rotation": ["10+1*math.cos(q.anim_time*90*4-180)*1", "-1*math.cos(q.anim_time*90*2-90)*1", 0]
				},
				"leg_left": {
					"rotation": [-30, 0, 0],
					"position": [0, 0.6, 0]
				},
				"leg_left2": {
					"rotation": [22.5, 0, 0]
				},
				"leg_right": {
					"rotation": [-30, 0, 0],
					"position": [0, 0.6, 0]
				},
				"leg_right2": {
					"rotation": [22.5, 0, 0]
				},
				"tail2": {
					"rotation": [25, 0, 0]
				},
				"legs": {
					"position": [0, 1, 0]
				},
				"belt_bottom5": {
					"rotation": ["math.cos(q.anim_time*90*2-80)*1", 0, 0]
				}
			}
		},
		"animation.gimmighoul_chest.battle_idle": {
			"loop": true,
			"animation_length": 4,
			"bones": {
				"belt_top2": {
					"rotation": ["-20+math.cos(q.anim_time*90*2-80)*2", 0, 0]
				},
				"belt_bottom2": {
					"rotation": [7, 0, 0]
				},
				"belt_bottom3": {
					"rotation": [81.5, 0, 0]
				},
				"belt_top": {
					"rotation": ["-5+math.cos(q.anim_time*90*2)*1", 0, "math.cos(q.anim_time*90*1)*2"],
					"position": [0, 0, 0]
				},
				"belt_top6": {
					"rotation": ["-15+math.cos(q.anim_time*90*2-210)*6", 0, "-math.cos(q.anim_time*90*1-60)*3"]
				},
				"belt_top7": {
					"rotation": ["math.cos(q.anim_time*90*2)*16", 0, "-math.cos(q.anim_time*90*1-120)*3"]
				},
				"lid": {
					"rotation": ["math.cos(q.anim_time*90*2-140)*5", 0, 0],
					"position": [0, 4, 0]
				},
				"belt_top3": {
					"rotation": ["math.cos(q.anim_time*90*2-140)*5", 0, 0],
					"position": [0, 4, 0]
				},
				"belt_top4": {
					"rotation": [-2.5, 0, 0]
				},
				"belt_top5": {
					"rotation": [2.5, 0, 0]
				},
				"gimmighoul_body": {
					"position": [0, -1.2, -1.6],
					"scale": 0.7
				},
				"torso": {
					"rotation": ["16.496+0.5*math.cos(q.anim_time*90*4-60)*1", 0, "0+2*math.cos(q.anim_time*90*2)*1"],
					"position": [0, "-0.03*math.cos(q.anim_time*90*4-30)*1", 0]
				},
				"arm_left": {
					"rotation": ["-20.0523-2*math.cos(q.anim_time*90*4)*1", 30.34299, "4.3226-2*math.cos(q.anim_time*90*2)*1"]
				},
				"arm_left2": {
					"rotation": [0, "40+3*math.cos(q.anim_time*90*2)*1", 0]
				},
				"arm_right": {
					"rotation": ["-20.0523-2*math.cos(q.anim_time*90*4)*1", -30.34299, "-4.3226-2*math.cos(q.anim_time*90*2)*1"]
				},
				"arm_right2": {
					"rotation": [0, "-40+3*math.cos(q.anim_time*90*2)*1", 0]
				},
				"head": {
					"rotation": ["-12.5+1*math.cos(q.anim_time*90*4-120)*1", 0, "0+2*math.cos(q.anim_time*90*2-60)*1"]
				},
				"antenna_left": {
					"rotation": ["1*math.cos(q.anim_time*90*4-150)*1", "-45-2*math.cos(q.anim_time*90*2-60)*1", 0]
				},
				"antenna_left2": {
					"rotation": ["-5+1*math.cos(q.anim_time*90*4-180)*1", "NaN-1*math.cos(q.anim_time*90*2-90)*1", 0]
				},
				"antenna_right": {
					"rotation": ["1*math.cos(q.anim_time*90*4-150)*1", "45-2*math.cos(q.anim_time*90*2-60)*1", 0]
				},
				"antenna_right2": {
					"rotation": ["-5+1*math.cos(q.anim_time*90*4-180)*1", "-1*math.cos(q.anim_time*90*2-90)*1", 0]
				},
				"leg_left": {
					"rotation": [-30, 0, 0],
					"position": [0, 0.6, 0]
				},
				"leg_left2": {
					"rotation": [22.5, 0, 0]
				},
				"leg_right": {
					"rotation": [-30, 0, 0],
					"position": [0, 0.6, 0]
				},
				"leg_right2": {
					"rotation": [22.5, 0, 0]
				},
				"belt_bottom4": {
					"rotation": ["-3+math.cos(q.anim_time*90*2-80)*2", 0, 0]
				},
				"belt_bottom5": {
					"rotation": ["math.cos(q.anim_time*90*2-160)*6", 0, 0]
				}
			}
		},
		"animation.gimmighoul_chest.ground_walk": {
			"loop": true,
			"animation_length": 1.45833,
			"bones": {
				"gimmighoul_body": {
					"rotation": [-52, 0, 0],
					"position": [0, -2.8, 1.6],
					"scale": 0.7
				},
				"torso": {
					"rotation": [-30, 0, 0]
				},
				"head": {
					"rotation": {
						"0.0": {
							"post": [95, 0, 0],
							"lerp_mode": "catmullrom"
						},
						"0.2917": {
							"post": [76, 0, 0],
							"lerp_mode": "catmullrom"
						},
						"0.5417": {
							"post": [76, 0, 0],
							"lerp_mode": "catmullrom"
						},
						"0.6667": {
							"post": [93.8, 0, 0],
							"lerp_mode": "catmullrom"
						},
						"0.8333": {
							"post": [88.39, 0, 0],
							"lerp_mode": "catmullrom"
						},
						"1.0": {
							"post": [85.37, 0, 0],
							"lerp_mode": "catmullrom"
						},
						"1.25": {
							"post": [85.37, 0, 0],
							"lerp_mode": "catmullrom"
						},
						"1.4583": {
							"post": [95, 0, 0],
							"lerp_mode": "catmullrom"
						}
					}
				},
				"antenna_left": {
					"rotation": [22.42486, -41.31709, -5.27526]
				},
				"antenna_right": {
					"rotation": [22.42486, 41.31709, 5.27526]
				},
				"body": {
					"rotation": {
						"0.0": {
							"post": [5, 0, 0],
							"lerp_mode": "catmullrom"
						},
						"0.0417": {
							"post": [-0.49, 0, 0],
							"lerp_mode": "catmullrom"
						},
						"0.0833": {
							"post": [-6.5, 0, 0],
							"lerp_mode": "catmullrom"
						},
						"0.375": {
							"post": [-10.6, 0, 0],
							"lerp_mode": "catmullrom"
						},
						"0.4583": [-9, 0, 0],
						"0.5": [1, 0, 0],
						"0.5417": [-1.7, 0, 0],
						"0.5833": [2.23, 0, 0],
						"0.625": [-0.4, 0, 0],
						"0.6667": [0.96, 0, 0],
						"1.125": [0, 0, 0],
						"1.25": {
							"pre": [1.86, 0, 0],
							"post": [1.86, 0, 0],
							"lerp_mode": "catmullrom"
						},
						"1.3333": {
							"post": [-3, 0, 0],
							"lerp_mode": "catmullrom"
						},
						"1.4583": {
							"post": [5, 0, 0],
							"lerp_mode": "catmullrom"
						}
					},
					"position": {
						"0.0": [0, 0.4, 4],
						"0.125": [0, 2, 2],
						"0.2083": [0, 2.4, 0],
						"0.3333": [0, 2.17, -2.67],
						"0.4167": [0, 0.4, -4],
						"0.5": [0, -0.03, -3.37],
						"0.5417": [0, 0, -2.88],
						"1.0417": [0, 0, 0.32],
						"1.2917": [0, 0.4, 2.18],
						"1.375": [0, 0, 3.11],
						"1.4583": [0, 0.4, 4]
					}
				},
				"belt_top2": {
					"rotation": {
						"0.0": {
							"post": [3, 0, 0],
							"lerp_mode": "catmullrom"
						},
						"0.125": {
							"post": [-2, 0, 0],
							"lerp_mode": "catmullrom"
						},
						"0.2083": {
							"post": [-9, 0, 0],
							"lerp_mode": "catmullrom"
						},
						"0.375": {
							"post": [-9, 0, 0],
							"lerp_mode": "catmullrom"
						},
						"0.5": [0, 0, 0],
						"0.5417": [2.11, 0, 0],
						"0.5833": [0, 0, 0],
						"1.2083": {
							"pre": [0, 0, 0],
							"post": [0, 0, 0],
							"lerp_mode": "catmullrom"
						},
						"1.3333": {
							"post": [1, 0, 0],
							"lerp_mode": "catmullrom"
						},
						"1.375": {
							"post": [3, 0, 0],
							"lerp_mode": "catmullrom"
						},
						"1.4583": {
							"post": [3, 0, 0],
							"lerp_mode": "catmullrom"
						}
					}
				},
				"belt_top6": {
					"rotation": {
						"0.0": [0, 0, 0],
						"0.2917": [-6, 0, 0],
						"0.5833": [-6, 0, 0],
						"0.6667": [0, 0, 0],
						"0.7083": [-2, 0, 0],
						"0.875": [0, 0, 0],
						"1.4583": [0, 0, 0]
					}
				},
				"belt_top7": {
					"rotation": {
						"0.0": [0, 0, 0],
						"0.4583": [-8, 0, 0],
						"0.5833": [-8, 0, 0],
						"0.6667": [0, 0, 0],
						"0.7917": [-6, 0, 0],
						"0.9583": [0, 0, 0],
						"1.4583": [0, 0, 0]
					}
				},
				"belt_bottom4": {
					"rotation": {
						"0.0": {
							"post": [0, 0, 0],
							"lerp_mode": "catmullrom"
						},
						"0.1667": {
							"post": [7, 0, 0],
							"lerp_mode": "catmullrom"
						},
						"0.5417": {
							"post": [7, 0, 0],
							"lerp_mode": "catmullrom"
						},
						"0.625": {
							"post": [0, 0, 0],
							"lerp_mode": "catmullrom"
						},
						"0.75": {
							"post": [0, 0, 0],
							"lerp_mode": "catmullrom"
						},
						"1.4583": {
							"post": [0, 0, 0],
							"lerp_mode": "catmullrom"
						}
					}
				},
				"belt_bottom5": {
					"rotation": {
						"0.0": {
							"post": [0, 0, 0],
							"lerp_mode": "catmullrom"
						},
						"0.125": {
							"post": [0, 0, 0],
							"lerp_mode": "catmullrom"
						},
						"0.2917": {
							"post": [25, 0, 0],
							"lerp_mode": "catmullrom"
						},
						"0.4583": {
							"post": [25, 0, 0],
							"lerp_mode": "catmullrom"
						},
						"0.625": {
							"post": [0, 0, 0],
							"lerp_mode": "catmullrom"
						},
						"1.4583": {
							"post": [0, 0, 0],
							"lerp_mode": "catmullrom"
						}
					}
				},
				"antenna_left2": {
					"rotation": {
						"0.0": [0, 0, 0],
						"0.2917": [2.5, 0, 0]
					}
				},
				"antenna_right2": {
					"rotation": [2.5, 0, 0]
				}
			}
		},
		"animation.gimmighoul_chest.sleep": {
			"loop": true,
			"bones": {
				"gimmighoul_body": {
					"rotation": [-67.5001, -91.93077, -0.00005],
					"position": [-0.3, -3.5, 0.1],
					"scale": 0.7
				},
				"torso": {
					"rotation": ["-9.504+0.5*math.cos(q.anim_time*90*1-60)*1", 0, 0],
					"position": [0, 0, 0]
				},
				"head": {
					"rotation": ["6.5+1*math.cos(q.anim_time*90*1-120)*1", 0, 0],
					"position": [0, 0, -0.4]
				},
				"antenna_left": {
					"rotation": [27.5, -15, 0]
				},
				"antenna_right": {
					"rotation": [27.5, 15, 0]
				},
				"lid": {
					"rotation": [-5, 0, 0]
				},
				"belt_top3": {
					"rotation": [-5, 0, 0]
				},
				"belt_top6": {
					"rotation": [-2.5, 0, 0]
				},
				"belt_top7": {
					"rotation": [5, 0, 0]
				},
				"arm_left": {
					"rotation": [-103.0827, 6.63674, -22.5708]
				},
				"arm_left2": {
					"rotation": [0, 90.5, 0]
				},
				"arm_right": {
					"rotation": [-103.0827, -6.63674, 18.5708]
				},
				"arm_right2": {
					"rotation": [0, -92, 0]
				},
				"eyelid_left": {
					"position": [0, 0, -0.1]
				},
				"eyelid_right": {
					"position": [0, 0, -0.1]
				},
				"belt_top2": {
					"rotation": ["-3+math.cos(q.anim_time*90*0.5-60)*1", 0, 0]
				}
			}
		},
		"animation.gimmighoul_chest.surprise": {
			"loop": "hold_on_last_frame",
			"animation_length": 2.5,
			"bones": {
				"gimmighoul_body": {
					"rotation": {
						"0.0": [-62, 0, 0],
						"0.1667": {
							"pre": [-2, 0, 0],
							"post": [-2, 0, 0],
							"lerp_mode": "catmullrom"
						},
						"0.5417": {
							"post": [-2, 0, 0],
							"lerp_mode": "catmullrom"
						},
						"2.5": [-2, 0, 0]
					},
					"position": {
						"0.0": [0, -6.2, 0.4],
						"0.1667": {
							"pre": [0, -1.2, -1.6],
							"post": [0, -1.2, -1.6],
							"lerp_mode": "catmullrom"
						},
						"0.5417": {
							"post": [0, -1.2, -1.6],
							"lerp_mode": "catmullrom"
						},
						"0.7917": {
							"post": [0, -1.8, -1.6],
							"lerp_mode": "catmullrom"
						},
						"1.125": {
							"post": [0, -1.8, -1.6],
							"lerp_mode": "catmullrom"
						},
						"1.375": {
							"post": [0, -1.2, -1.6],
							"lerp_mode": "catmullrom"
						},
						"2.5": [0, -1.2, -1.6]
					},
					"scale": {
						"0.0": [0.1, 0.1, 0.1],
						"0.2083": [0.7, 0.7, 0.7],
						"2.5": [0.7, 0.7, 0.7]
					}
				},
				"torso": {
					"rotation": {
						"0.0": [-30, 0, 0],
						"0.0417": [25.01622, 0, 0],
						"0.0833": [25.01622, 0, 0],
						"0.2083": {
							"pre": [-15.75, 0, 0.18],
							"post": [-15.75, 0, 0.18],
							"lerp_mode": "catmullrom"
						},
						"0.4167": {
							"post": [-20.33, 0, 1.62],
							"lerp_mode": "catmullrom"
						},
						"0.6667": {
							"post": [-15.75, 0, -4.82],
							"lerp_mode": "catmullrom"
						},
						"1.4583": {
							"post": [16.746, 0, 3],
							"lerp_mode": "catmullrom"
						},
						"1.875": {
							"post": [14.78401, 0.20438, 2.90805],
							"lerp_mode": "catmullrom"
						},
						"2.2083": {
							"post": [16.746, 0, 2],
							"lerp_mode": "catmullrom"
						},
						"2.5": [16.746, 0, 2]
					},
					"position": {
						"0.0": [0, -0.03, 0],
						"1.2917": [0, -0.02598, 0],
						"2.5": [0, -0.02598, 0]
					}
				},
				"head": {
					"rotation": {
						"0.0": [57.5, 0, 0],
						"0.125": [57.5, 0, 0],
						"0.2083": {
							"pre": [-13.00112, 0.45, -1.45918],
							"post": [-13.00112, 0.45, -1.45918],
							"lerp_mode": "catmullrom"
						},
						"0.4583": {
							"post": [-15.3, 0.44, 3.64],
							"lerp_mode": "catmullrom"
						},
						"0.875": {
							"post": [-8.19, 0.17, 2.27],
							"lerp_mode": "catmullrom"
						},
						"0.9583": {
							"post": [7.6, 0.1, 1.82],
							"lerp_mode": "catmullrom"
						},
						"1.0833": {
							"post": [2.89, 0.06, -0.03],
							"lerp_mode": "catmullrom"
						},
						"1.2917": {
							"post": [-14.5, 0.03, -3.48],
							"lerp_mode": "catmullrom"
						},
						"1.5417": {
							"post": [-14.5, 0.03, -3.48],
							"lerp_mode": "catmullrom"
						},
						"1.7917": {
							"post": [-8.82, 0.02, -1.46],
							"lerp_mode": "catmullrom"
						},
						"2.0833": {
							"post": [-13, 0, 1],
							"lerp_mode": "catmullrom"
						},
						"2.5": [-13, 0, 1]
					}
				},
				"antenna_left": {
					"rotation": {
						"0.0": [50, 0, 0],
						"0.2083": {
							"pre": [33.21, -27.5, 0],
							"post": [33.21, -27.5, 0],
							"lerp_mode": "catmullrom"
						},
						"0.5": {
							"post": [-10.86603, -44, 0],
							"lerp_mode": "catmullrom"
						},
						"1.0833": {
							"post": [-0.86603, -44, 0],
							"lerp_mode": "catmullrom"
						},
						"2.5": [-0.86603, -46, 0]
					},
					"scale": {
						"0.125": [0.2, 0.2, 0.2],
						"0.2083": [1, 1, 1]
					}
				},
				"antenna_right": {
					"rotation": {
						"0.0": [50, 0, 0],
						"0.2083": {
							"pre": [33.21, 27.5, 0],
							"post": [33.21, 27.5, 0],
							"lerp_mode": "catmullrom"
						},
						"0.5": {
							"post": [-10.86603, 44, 0],
							"lerp_mode": "catmullrom"
						},
						"1.0833": {
							"post": [-0.86603, 44, 0],
							"lerp_mode": "catmullrom"
						},
						"2.5": [-0.86603, 44, 0]
					},
					"scale": {
						"0.125": [0.2, 0.2, 0.2],
						"0.2083": [1, 1, 1]
					}
				},
				"body": {
					"rotation": {
						"0.0": [0, 0, 0],
						"0.0417": {
							"pre": [-3, 0, 0],
							"post": [-3, 0, 0],
							"lerp_mode": "catmullrom"
						},
						"0.25": {
							"post": [4.91244, 0, -1.99972],
							"lerp_mode": "catmullrom"
						},
						"0.7083": {
							"post": [5, 0, 0],
							"lerp_mode": "catmullrom"
						},
						"0.875": [0, 0, 0],
						"0.9583": [-1, 0, 0],
						"1.25": [0, 0, 0]
					},
					"position": {
						"0.0": [0, 0, 0],
						"0.0833": {
							"pre": [0, 0, 0],
							"post": [0, 0, 0],
							"lerp_mode": "catmullrom"
						},
						"0.2083": {
							"post": [0, 0.6, 0],
							"lerp_mode": "catmullrom"
						},
						"0.25": {
							"post": [0, 0.6, 0],
							"lerp_mode": "catmullrom"
						},
						"0.7083": {
							"post": [0, 0.4, 0],
							"lerp_mode": "catmullrom"
						},
						"0.875": [0, 0, 0],
						"0.9583": [0, 0.1, 0],
						"1.1667": [0, 0, 0]
					}
				},
				"belt": {
					"rotation": {
						"0.0": [0, 0, 0],
						"0.125": [0, 0, 0]
					},
					"position": {
						"0.0": [0, 0, 0],
						"0.125": [0, 0, 0]
					}
				},
				"belt_top": {
					"rotation": {
						"0.0": [0, 0, 0],
						"0.0833": {
							"pre": [0, 0, 0],
							"post": [0, 0, 0],
							"lerp_mode": "catmullrom"
						},
						"0.5833": {
							"post": [-4, 0, 2],
							"lerp_mode": "catmullrom"
						},
						"1.4167": {
							"post": [-2.02155, 0, -1],
							"lerp_mode": "catmullrom"
						},
						"2.2917": [-4, 0, 2]
					},
					"position": {
						"0.0": [0, 0, 0],
						"0.0833": [0, 0, 0],
						"0.5833": [0, 0, 0]
					}
				},
				"belt_top2": {
					"rotation": {
						"0.0": [0, 0, 0],
						"0.125": {
							"pre": [5, 0, 0],
							"post": [5, 0, 0],
							"lerp_mode": "catmullrom"
						},
						"0.25": {
							"post": [-24.6527, 0, 0],
							"lerp_mode": "catmullrom"
						},
						"1.0417": {
							"post": [-14.65, 0, 0],
							"lerp_mode": "catmullrom"
						},
						"2.125": {
							"post": [-19.6527, 0, 0],
							"lerp_mode": "catmullrom"
						},
						"2.5": [-19.6527, 0, 0]
					},
					"position": {
						"0.0": [0, 0, 0],
						"0.0833": [0, 0, 0]
					}
				},
				"lid": {
					"rotation": {
						"0.0": {
							"post": [0, 0, 0],
							"lerp_mode": "catmullrom"
						},
						"0.0833": {
							"post": [0, 0, 0],
							"lerp_mode": "catmullrom"
						},
						"0.3333": {
							"post": [-33.83, 0, 0],
							"lerp_mode": "catmullrom"
						},
						"0.7083": {
							"post": [-33.83, 0, 0],
							"lerp_mode": "catmullrom"
						},
						"1.1667": {
							"post": [-1.83022, 0, 0],
							"lerp_mode": "catmullrom"
						},
						"2.0833": [-3.83022, 0, 0]
					},
					"position": {
						"0.0": [0, 0, 0],
						"0.125": [0, 0, 0],
						"0.25": [0, 4, 0],
						"2.0833": [0, 4, 0]
					}
				},
				"belt_top3": {
					"rotation": {
						"0.0": {
							"post": [0, 0, 0],
							"lerp_mode": "catmullrom"
						},
						"0.0833": {
							"post": [0, 0, 0],
							"lerp_mode": "catmullrom"
						},
						"0.3333": {
							"post": [-33.83, 0, 0],
							"lerp_mode": "catmullrom"
						},
						"0.7083": {
							"post": [-33.83, 0, 0],
							"lerp_mode": "catmullrom"
						},
						"1.1667": {
							"post": [-1.83022, 0, 0],
							"lerp_mode": "catmullrom"
						},
						"2.0833": [-3.83022, 0, 0]
					},
					"position": {
						"0.0": [0, 0, 0],
						"0.125": [0, 0, 0],
						"0.25": [0, 4, 0],
						"2.0833": [0, 4, 0]
					}
				},
				"belt_top4": {
					"rotation": {
						"0.0": [0, 0, 0],
						"0.125": [0, 0, 0],
						"2.5": [-2.5, 0, 0]
					},
					"position": {
						"0.0": [0, 0, 0],
						"0.125": [0, 0, 0]
					}
				},
				"belt_top5": {
					"rotation": {
						"0.0": [0, 0, 0],
						"0.125": [0, 0, 0],
						"2.5": [2.5, 0, 0]
					},
					"position": {
						"0.0": [0, 0, 0],
						"0.125": [0, 0, 0]
					}
				},
				"belt_top6": {
					"rotation": {
						"0.0": [0, 0, 0],
						"0.125": [0, 0, 0],
						"0.25": {
							"pre": [-57.69615, 0, -1.5],
							"post": [-57.69615, 0, -1.5],
							"lerp_mode": "catmullrom"
						},
						"0.7083": {
							"post": [-57.69615, 0, -1.5],
							"lerp_mode": "catmullrom"
						},
						"1.125": {
							"post": [-8.63791, 0, -1.5],
							"lerp_mode": "catmullrom"
						},
						"2.5": [-20.19615, 0, -1.5]
					},
					"position": {
						"0.0": [0, 0, 0],
						"0.125": [0, 0, 0]
					}
				},
				"belt_top7": {
					"rotation": {
						"0.0": [0, 0, 0],
						"0.125": {
							"pre": [7.84104, 0.11545, 0.2264],
							"post": [7.84104, 0.11545, 0.2264],
							"lerp_mode": "catmullrom"
						},
						"0.2083": {
							"post": [-34.87991, -0.04592, 0.78479],
							"lerp_mode": "catmullrom"
						},
						"1.4167": {
							"post": [16.6423, 0, 1.5],
							"lerp_mode": "catmullrom"
						},
						"2.5": [16, 0, 1.5]
					},
					"position": {
						"0.0": [0, 0, 0],
						"0.125": [0, 0, 0]
					}
				},
				"belt_bottom": {
					"rotation": [0, 0, 0],
					"position": [0, 0, 0]
				},
				"belt_bottom2": {
					"rotation": {
						"0.0": [0, 0, 0],
						"0.3333": [7, 0, 0],
						"0.9583": [8, 0, 0],
						"1.25": [7, 0, 0],
						"2.5": [7, 0, 0]
					},
					"position": [0, 0, 0]
				},
				"belt_bottom3": {
					"rotation": {
						"0.125": [0, 0, 0],
						"0.3333": [74.5, 0, 0],
						"0.75": [74.5, 0, 0],
						"0.9583": [81.5, 0, 0],
						"2.5": [81.5, 0, 0]
					},
					"position": [0, 0, 0]
				},
				"belt_bottom4": {
					"rotation": {
						"0.0": [0, 0, 0],
						"0.25": [-24.5, 0, 0],
						"0.5": [0, 0, 0]
					},
					"position": [0, 0, 0]
				},
				"belt_bottom5": {
					"rotation": {
						"0.0": [0, 0, 0],
						"0.1667": [0, 0, 0],
						"0.3333": [-26, 0, 0],
						"0.7083": [0, 0, 0]
					},
					"position": [0, 0, 0]
				},
				"arm_left": {
					"rotation": {
						"0.0": [-22.05, 30.34, 2.32],
						"0.125": {
							"pre": [-26.05, 31.34, 41.82],
							"post": [-26.05, 31.34, 41.82],
							"lerp_mode": "catmullrom"
						},
						"0.25": {
							"post": [-127.7677, 43.552, -47.63546],
							"lerp_mode": "catmullrom"
						},
						"0.4583": {
							"post": [-127.7677, 43.552, -17.63546],
							"lerp_mode": "catmullrom"
						},
						"0.75": {
							"post": [-24.80666, 28.1455, 13.83654],
							"lerp_mode": "catmullrom"
						},
						"1.0833": {
							"post": [-6.72821, 26.4095, 8.94231],
							"lerp_mode": "catmullrom"
						},
						"1.2917": {
							"post": [-6.87, 23.48, 17.32],
							"lerp_mode": "catmullrom"
						},
						"1.5417": {
							"post": [-16.16366, 13.69138, -1.44298],
							"lerp_mode": "catmullrom"
						},
						"1.875": {
							"post": [-3.97, 19.29, -0.4],
							"lerp_mode": "catmullrom"
						},
						"2.1667": {
							"post": [-22.0523, 25.34299, 2.3226],
							"lerp_mode": "catmullrom"
						},
						"2.5": [-22.0523, 30.34299, 2.3226]
					},
					"position": {
						"0.125": [0, 0, 0],
						"0.2917": {
							"pre": [0, 0.6, 0],
							"post": [0, 0.6, 0],
							"lerp_mode": "catmullrom"
						},
						"0.7917": {
							"post": [0, 0.6, 0],
							"lerp_mode": "catmullrom"
						},
						"1.0417": [0, 0, 0]
					}
				},
				"arm_left2": {
					"rotation": {
						"0.0": [0, 43, 0],
						"0.1667": {
							"pre": [0, 24, 0],
							"post": [0, 24, 0],
							"lerp_mode": "catmullrom"
						},
						"0.3333": {
							"post": [0, 66.21, 0],
							"lerp_mode": "catmullrom"
						},
						"0.875": {
							"post": [0, 43, 0],
							"lerp_mode": "catmullrom"
						},
						"1.2917": {
							"post": [0, 57.35, 0],
							"lerp_mode": "catmullrom"
						},
						"1.5417": {
							"post": [0, 66, 0],
							"lerp_mode": "catmullrom"
						},
						"2.1667": {
							"post": [0, 54, 0],
							"lerp_mode": "catmullrom"
						},
						"2.5": [0, 43, 0]
					}
				},
				"arm_right": {
					"rotation": {
						"0.0": [-22.05, -30.34, -2.32],
						"0.125": {
							"pre": [-26.05, -31.34, -41.82],
							"post": [-26.05, -31.34, -41.82],
							"lerp_mode": "catmullrom"
						},
						"0.25": {
							"post": [-127.7677, -43.552, 47.63546],
							"lerp_mode": "catmullrom"
						},
						"0.4583": {
							"post": [-127.7677, -43.552, 17.63546],
							"lerp_mode": "catmullrom"
						},
						"0.75": {
							"post": [-24.80666, -28.1455, -13.83654],
							"lerp_mode": "catmullrom"
						},
						"1.0833": {
							"post": [-6.67201, -26.78614, -3.98193],
							"lerp_mode": "catmullrom"
						},
						"1.2917": {
							"post": [-6.87, -23.48, -17.32],
							"lerp_mode": "catmullrom"
						},
						"1.5417": {
							"post": [-16.16366, -25.19138, -5.55702],
							"lerp_mode": "catmullrom"
						},
						"1.9167": {
							"post": [-10.0523, -30.34299, -6.8226],
							"lerp_mode": "catmullrom"
						},
						"2.25": {
							"post": [-22.0523, -30.34299, -6.3226],
							"lerp_mode": "catmullrom"
						},
						"2.5": [-22.0523, -30.34299, -6.3226]
					},
					"position": {
						"0.125": [0, 0, 0],
						"0.2917": {
							"pre": [0, 0.6, 0],
							"post": [0, 0.6, 0],
							"lerp_mode": "catmullrom"
						},
						"0.7917": {
							"post": [0, 0.6, 0],
							"lerp_mode": "catmullrom"
						},
						"1.0417": [0, 0, 0]
					}
				},
				"arm_right2": {
					"rotation": {
						"0.0": [0, -43, 0],
						"0.1667": {
							"pre": [0, -24, 0],
							"post": [0, -24, 0],
							"lerp_mode": "catmullrom"
						},
						"0.3333": {
							"post": [0, -66.21, 0],
							"lerp_mode": "catmullrom"
						},
						"0.875": {
							"post": [0, -43, 0],
							"lerp_mode": "catmullrom"
						},
						"1.2917": {
							"post": [0, -57.35, 0],
							"lerp_mode": "catmullrom"
						},
						"1.9167": {
							"post": [0, -37, 0],
							"lerp_mode": "catmullrom"
						},
						"2.25": {
							"post": [0, -37, 0],
							"lerp_mode": "catmullrom"
						},
						"2.5": [0, -37, 0]
					}
				},
				"mouth_closed": {
					"position": {
						"0.125": [0, 0, 0],
						"0.1667": {"pre": [0, 0, 0], "post": [0, 0, 0.05]},
						"0.25": {"pre": [0, 0, 0.05], "post": [0, 0, 0]},
						"0.2917": {"pre": [0, 0, 0], "post": [0, 0, 0.05]},
						"0.375": {"pre": [0, 0, 0.05], "post": [0, 0, 0]},
						"0.4167": {"pre": [0, 0, 0], "post": [0, 0, 0.05]},
						"0.5": {"pre": [0, 0, 0.05], "post": [0, 0, 0]},
						"0.5417": {"pre": [0, 0, 0], "post": [0, 0, 0.05]},
						"0.625": {"pre": [0, 0, 0.05], "post": [0, 0, 0]},
						"0.875": {"pre": [0, 0, 0], "post": [0, 0, 0.05]},
						"1.0": {"pre": [0, 0, 0.05], "post": [0, 0, 0]},
						"1.125": {"pre": [0, 0, 0], "post": [0, 0, 0.05]},
						"1.2917": {"pre": [0, 0, 0.05], "post": [0, 0, 0]}
					}
				},
				"mouth_open": {
					"rotation": {
						"0.125": [0, 0, 0],
						"0.1667": {"pre": [0, 0, 0], "post": [2, 0, 0]},
						"0.25": {"pre": [2, 0, 0], "post": [0, 0, 0]},
						"0.625": [0, 0, 0]
					},
					"position": {
						"0.125": [0, 0, 0],
						"0.1667": {"pre": [0, 0, 0], "post": [0, 0, -0.1]},
						"0.25": {"pre": [0, 0, -0.1], "post": [0, 0, 0]},
						"0.2917": {"pre": [0, 0, 0], "post": [0, -0.15, -0.1]},
						"0.375": {"pre": [0, -0.15, -0.1], "post": [0, 0, 0]},
						"0.4167": {"pre": [0, 0, 0], "post": [0, 0, -0.1]},
						"0.5": {"pre": [0, 0, -0.1], "post": [0, 0, 0]},
						"0.5417": {"pre": [0, 0, 0], "post": [-0.075, -0.25, -0.1]},
						"0.625": {"pre": [-0.075, -0.25, -0.1], "post": [0, 0, 0]},
						"0.875": {"pre": [0, 0, 0], "post": [-0.075, -0.25, -0.1]},
						"1.0": {"pre": [-0.075, -0.25, -0.1], "post": [0, 0, 0]},
						"1.125": {"pre": [0, 0, 0], "post": [0, 0, -0.1]},
						"1.2917": {"pre": [0, 0, -0.1], "post": [0, 0, 0]}
					}
				},
				"antenna_left2": {
					"rotation": {
						"0.0": [-6, 0, 0],
						"0.1667": {
							"pre": [16.5, 0, 0],
							"post": [16.5, 0, 0],
							"lerp_mode": "catmullrom"
						},
						"0.375": {
							"post": [-2.56, 0, 0],
							"lerp_mode": "catmullrom"
						},
						"1.0417": {
							"post": [6.36, 0, 0],
							"lerp_mode": "catmullrom"
						},
						"2.5": [-6, 0, 0]
					}
				},
				"antenna_right2": {
					"rotation": {
						"0.0": [-6, 0, 0],
						"0.1667": {
							"pre": [16.5, 0, 0],
							"post": [16.5, 0, 0],
							"lerp_mode": "catmullrom"
						},
						"0.375": {
							"post": [-2.56, 0, 0],
							"lerp_mode": "catmullrom"
						},
						"1.0417": {
							"post": [6.36, 0, 0],
							"lerp_mode": "catmullrom"
						},
						"2.5": [-6, 0, 0]
					}
				},
				"leg_left": {
					"rotation": [-30, 0, 0],
					"position": [0, 0.6, 0]
				},
				"leg_left2": {
					"rotation": [22.5, 0, 0]
				},
				"leg_right": {
					"rotation": [-30, 0, 0],
					"position": [0, 0.6, 0]
				},
				"leg_right2": {
					"rotation": [22.5, 0, 0]
				},
				"eyelid_left": {
					"position": {
						"0.125": [0, 0, 0],
						"0.1667": {"pre": [0, 0, 0], "post": [0, 0, -0.1]},
						"0.2917": [0, 0, -0.1],
						"0.3333": {"pre": [0, 0, -0.1], "post": [0, 0, 0]}
					}
				},
				"eyelid_right": {
					"position": {
						"0.125": [0, 0, 0],
						"0.1667": {"pre": [0, 0, 0], "post": [0, 0, -0.1]},
						"0.2917": [0, 0, -0.1],
						"0.3333": {"pre": [0, 0, -0.1], "post": [0, 0, 0]}
					}
				}
			},
			"sound_effects": {
				"0.125": {
					"effect": "pokemon.gimmighoul.cry"
				},
				"0.1667": {
					"effect": "gilded_chest_open"
				}
			}
		},
		"animation.gimmighoul_chest.blink": {
			"animation_length": 0.16667,
			"bones": {
				"eyelid_left": {
					"position": {
						"0.0": [0, 0, -0.1],
						"0.125": [0, 0, -0.1],
						"0.1667": {"pre": [0, 0, -0.1], "post": [0, 0, 0]}
					}
				},
				"eyelid_right": {
					"position": {
						"0.0": [0, 0, -0.1],
						"0.125": [0, 0, -0.1],
						"0.1667": {"pre": [0, 0, -0.1], "post": [0, 0, 0]}
					}
				}
			}
		},
		"animation.gimmighoul_chest.mimic": {
			"loop": true,
			"bones": {
				"gimmighoul_body": {
					"rotation": [-62, 0, 0],
					"position": [0, -6.2, 0.4],
					"scale": 0.1
				},
				"torso": {
					"rotation": [-30, 0, 0]
				},
				"head": {
					"rotation": [57.5, 0, 0]
				},
				"antenna_left": {
					"rotation": [50, 0, 0]
				},
				"antenna_right": {
					"rotation": [50, 0, 0]
				}
			}
		},
		"animation.gimmighoul_chest.cry": {
			"animation_length": 2.5,
			"bones": {
				"torso": {
					"rotation": {
						"0.0": {
							"post": [0, 0, 0],
							"lerp_mode": "catmullrom"
						},
						"0.125": {
							"post": [4.25, 0, 0],
							"lerp_mode": "catmullrom"
						},
						"0.3333": {
							"post": [0.99966, 0.02618, -1.49977],
							"lerp_mode": "catmullrom"
						},
						"0.5": {
							"post": [0.99905, -0.04362, 2.49962],
							"lerp_mode": "catmullrom"
						},
						"0.7083": {
							"post": [4.99923, 0.03926, -2.24966],
							"lerp_mode": "catmullrom"
						},
						"1.0": {
							"post": [5.49923, 0.03926, -2.24966],
							"lerp_mode": "catmullrom"
						},
						"1.2083": {
							"post": [1.99923, 0.03926, -2.24966],
							"lerp_mode": "catmullrom"
						},
						"1.5833": {
							"post": [0.76039, -0.05771, 2.63338],
							"lerp_mode": "catmullrom"
						},
						"2.0417": {
							"post": [0, 0, 0.125],
							"lerp_mode": "catmullrom"
						},
						"2.5": {
							"post": [0, 0, 0],
							"lerp_mode": "catmullrom"
						}
					},
					"position": {
						"0.0": [0, 0, 0],
						"0.0417": {
							"pre": [0, -0.4, 0],
							"post": [0, -0.4, 0],
							"lerp_mode": "catmullrom"
						},
						"0.25": {
							"post": [0, 1.2, 0],
							"lerp_mode": "catmullrom"
						},
						"0.9167": {
							"post": [0, 0.4, 0],
							"lerp_mode": "catmullrom"
						},
						"1.5": {
							"post": [0, 0, 0],
							"lerp_mode": "catmullrom"
						},
						"2.0": [0, 0, 0]
					}
				},
				"arm_left": {
					"rotation": {
						"0.0": [0, 0, 0],
						"0.125": {
							"pre": [-87, 40, -83],
							"post": [-87, 40, -83],
							"lerp_mode": "catmullrom"
						},
						"0.75": {
							"post": [-87, 40, -83],
							"lerp_mode": "catmullrom"
						},
						"1.7083": {
							"post": [0, 0, 0],
							"lerp_mode": "catmullrom"
						},
						"2.125": [0, 0, 0]
					}
				},
				"arm_left2": {
					"rotation": {
						"0.0": [0, 0, 0],
						"0.0833": {
							"pre": [0, -4, 0],
							"post": [0, -4, 0],
							"lerp_mode": "catmullrom"
						},
						"0.5417": {
							"post": [0, 26.5, 0],
							"lerp_mode": "catmullrom"
						},
						"1.125": {
							"post": [0, 0, 0],
							"lerp_mode": "catmullrom"
						},
						"1.5417": [0, 0, 0]
					}
				},
				"arm_right": {
					"rotation": {
						"0.0": [0, 0, 0],
						"0.125": {
							"pre": [-87, -40, 83],
							"post": [-87, -40, 83],
							"lerp_mode": "catmullrom"
						},
						"0.75": {
							"post": [-87, -40, 83],
							"lerp_mode": "catmullrom"
						},
						"1.7083": {
							"post": [0, 0, 0],
							"lerp_mode": "catmullrom"
						},
						"2.125": [0, 0, 0]
					}
				},
				"arm_right2": {
					"rotation": {
						"0.0": [0, 0, 0],
						"0.0833": {
							"pre": [0, 4, 0],
							"post": [0, 4, 0],
							"lerp_mode": "catmullrom"
						},
						"0.5417": {
							"post": [0, -26.5, 0],
							"lerp_mode": "catmullrom"
						},
						"1.125": {
							"post": [0, 0, 0],
							"lerp_mode": "catmullrom"
						},
						"1.5417": [0, 0, 0]
					}
				},
				"head": {
					"rotation": {
						"0.0": {
							"post": [0, 0, 0],
							"lerp_mode": "catmullrom"
						},
						"0.1667": {
							"post": [6, 0, 0],
							"lerp_mode": "catmullrom"
						},
						"0.375": {
							"post": [1.98362, 0.44384, -4.2268],
							"lerp_mode": "catmullrom"
						},
						"0.5833": {
							"post": [2.02715, 0.09865, 5.5924],
							"lerp_mode": "catmullrom"
						},
						"0.7917": {
							"post": [5.5736, 0.29814, 0.51465],
							"lerp_mode": "catmullrom"
						},
						"1.0417": {
							"post": [1.0736, 0.29814, 0.51465],
							"lerp_mode": "catmullrom"
						},
						"1.2083": {
							"post": [4.8236, 0.29814, 0.51465],
							"lerp_mode": "catmullrom"
						},
						"1.75": {
							"post": [1.99363, 0.21656, 3.24648],
							"lerp_mode": "catmullrom"
						},
						"2.125": {
							"post": [0, 0, 0],
							"lerp_mode": "catmullrom"
						},
						"2.5": {
							"post": [0, 0, 0],
							"lerp_mode": "catmullrom"
						}
					}
				},
				"mouth_closed": {
					"position": {
						"0.125": [0, 0, 0],
						"0.1667": {"pre": [0, 0, 0], "post": [0, 0, 0.05]},
						"0.25": {"pre": [0, 0, 0.05], "post": [0, 0, 0]},
						"0.2917": {"pre": [0, 0, 0], "post": [0, 0, 0.05]},
						"0.375": {"pre": [0, 0, 0.05], "post": [0, 0, 0]},
						"0.4167": {"pre": [0, 0, 0], "post": [0, 0, 0.05]},
						"0.5": {"pre": [0, 0, 0.05], "post": [0, 0, 0]},
						"0.5417": {"pre": [0, 0, 0], "post": [0, 0, 0.05]},
						"0.625": {"pre": [0, 0, 0.05], "post": [0, 0, 0]},
						"0.875": {"pre": [0, 0, 0], "post": [0, 0, 0.05]},
						"1.0": {"pre": [0, 0, 0.05], "post": [0, 0, 0]},
						"1.125": {"pre": [0, 0, 0], "post": [0, 0, 0.05]},
						"1.2917": {"pre": [0, 0, 0.05], "post": [0, 0, 0]}
					}
				},
				"mouth_open": {
					"rotation": {
						"0.125": [0, 0, 0],
						"0.1667": {"pre": [0, 0, 0], "post": [2, 0, 0]},
						"0.25": {"pre": [2, 0, 0], "post": [0, 0, 0]},
						"0.625": [0, 0, 0]
					},
					"position": {
						"0.125": [0, 0, 0],
						"0.1667": {"pre": [0, 0, 0], "post": [0, 0, -0.1]},
						"0.25": {"pre": [0, 0, -0.1], "post": [0, 0, 0]},
						"0.2917": {"pre": [0, 0, 0], "post": [0, -0.15, -0.1]},
						"0.375": {"pre": [0, -0.15, -0.1], "post": [0, 0, 0]},
						"0.4167": {"pre": [0, 0, 0], "post": [0, 0, -0.1]},
						"0.5": {"pre": [0, 0, -0.1], "post": [0, 0, 0]},
						"0.5417": {"pre": [0, 0, 0], "post": [-0.075, -0.25, -0.1]},
						"0.625": {"pre": [-0.075, -0.25, -0.1], "post": [0, 0, 0]},
						"0.875": {"pre": [0, 0, 0], "post": [-0.075, -0.25, -0.1]},
						"1.0": {"pre": [-0.075, -0.25, -0.1], "post": [0, 0, 0]},
						"1.125": {"pre": [0, 0, 0], "post": [0, 0, -0.1]},
						"1.2917": {"pre": [0, 0, -0.1], "post": [0, 0, 0]}
					}
				}
			},
			"sound_effects": {
				"0.125": {
					"effect": "pokemon.gimmighoul.cry"
				}
			}
		},
		"animation.gimmighoul_chest.battle_cry": {
			"animation_length": 2.5,
			"bones": {
				"torso": {
					"rotation": {
						"0.0": {
							"post": [0, 0, 0],
							"lerp_mode": "catmullrom"
						},
						"0.125": {
							"post": [4.25, 0, 0],
							"lerp_mode": "catmullrom"
						},
						"0.3333": {
							"post": [0.99966, 0.02618, -1.49977],
							"lerp_mode": "catmullrom"
						},
						"0.5": {
							"post": [0.99905, -0.04362, 2.49962],
							"lerp_mode": "catmullrom"
						},
						"0.7083": {
							"post": [4.99923, 0.03926, -2.24966],
							"lerp_mode": "catmullrom"
						},
						"1.0": {
							"post": [5.49923, 0.03926, -2.24966],
							"lerp_mode": "catmullrom"
						},
						"1.2083": {
							"post": [1.99923, 0.03926, -2.24966],
							"lerp_mode": "catmullrom"
						},
						"1.5833": {
							"post": [0.76039, -0.05771, 2.63338],
							"lerp_mode": "catmullrom"
						},
						"2.0417": {
							"post": [0, 0, 0.125],
							"lerp_mode": "catmullrom"
						},
						"2.5": {
							"post": [0, 0, 0],
							"lerp_mode": "catmullrom"
						}
					},
					"position": {
						"0.0": [0, 0, 0],
						"0.0417": {
							"pre": [0, -0.4, 0],
							"post": [0, -0.4, 0],
							"lerp_mode": "catmullrom"
						},
						"0.25": {
							"post": [0, 1.2, 0],
							"lerp_mode": "catmullrom"
						},
						"0.9167": {
							"post": [0, 0.4, 0],
							"lerp_mode": "catmullrom"
						},
						"1.5": {
							"post": [0, 0, 0],
							"lerp_mode": "catmullrom"
						},
						"2.0": [0, 0, 0]
					}
				},
				"arm_left": {
					"rotation": {
						"0.0": [0, 0, 0],
						"0.0417": [-42.5, 0, -37.93],
						"0.125": [0, 0, -10],
						"0.25": {
							"pre": [22, 0, 6],
							"post": [22, 0, 6],
							"lerp_mode": "catmullrom"
						},
						"0.9167": {
							"post": [62, -12, -27],
							"lerp_mode": "catmullrom"
						},
						"2.0": [0, 0, 0]
					}
				},
				"arm_left2": {
					"rotation": {
						"0.0": [0, 0, 0],
						"0.4583": {
							"pre": [0, 13, 0],
							"post": [0, 13, 0],
							"lerp_mode": "catmullrom"
						},
						"0.9167": {
							"post": [0, 25, 0],
							"lerp_mode": "catmullrom"
						},
						"1.375": {
							"post": [0, 18, 0],
							"lerp_mode": "catmullrom"
						},
						"1.75": {
							"post": [0, 21.8, 0],
							"lerp_mode": "catmullrom"
						},
						"2.2083": [0, 0, 0]
					}
				},
				"arm_right": {
					"rotation": {
						"0.0": [0, 0, 0],
						"0.0417": [-42.5, 0, 37.93],
						"0.125": [0, 0, 10],
						"0.25": {
							"pre": [22, 0, -6],
							"post": [22, 0, -6],
							"lerp_mode": "catmullrom"
						},
						"0.9167": {
							"post": [70, 19, 27],
							"lerp_mode": "catmullrom"
						},
						"2.0": [0, 0, 0]
					}
				},
				"arm_right2": {
					"rotation": {
						"0.0": [0, 0, 0],
						"0.4583": {
							"pre": [0, -13, 0],
							"post": [0, -13, 0],
							"lerp_mode": "catmullrom"
						},
						"0.9167": {
							"post": [0, -25, 0],
							"lerp_mode": "catmullrom"
						},
						"1.375": {
							"post": [0, -18, 0],
							"lerp_mode": "catmullrom"
						},
						"1.75": {
							"post": [0, -21.8, 0],
							"lerp_mode": "catmullrom"
						},
						"2.2083": [0, 0, 0]
					}
				},
				"head": {
					"rotation": {
						"0.0": {
							"post": [0, 0, 0],
							"lerp_mode": "catmullrom"
						},
						"0.1667": {
							"post": [6, 0, 0],
							"lerp_mode": "catmullrom"
						},
						"0.375": {
							"post": [1.98362, 0.44384, -4.2268],
							"lerp_mode": "catmullrom"
						},
						"0.5833": {
							"post": [-5.97285, 0.09865, 5.5924],
							"lerp_mode": "catmullrom"
						},
						"0.7917": {
							"post": [5.5736, 0.29814, 0.51465],
							"lerp_mode": "catmullrom"
						},
						"1.0417": {
							"post": [-4.9264, 0.29814, 0.51465],
							"lerp_mode": "catmullrom"
						},
						"1.2083": {
							"post": [4.8236, 0.29814, 0.51465],
							"lerp_mode": "catmullrom"
						},
						"1.75": {
							"post": [1.99363, 0.21656, 3.24648],
							"lerp_mode": "catmullrom"
						},
						"2.125": {
							"post": [0, 0, 0],
							"lerp_mode": "catmullrom"
						},
						"2.5": {
							"post": [0, 0, 0],
							"lerp_mode": "catmullrom"
						}
					}
				},
				"mouth_closed": {
					"position": {
						"0.125": [0, 0, 0],
						"0.1667": {"pre": [0, 0, 0], "post": [0, 0, 0.05]},
						"0.25": {"pre": [0, 0, 0.05], "post": [0, 0, 0]},
						"0.2917": {"pre": [0, 0, 0], "post": [0, 0, 0.05]},
						"0.375": {"pre": [0, 0, 0.05], "post": [0, 0, 0]},
						"0.4167": {"pre": [0, 0, 0], "post": [0, 0, 0.05]},
						"0.5": {"pre": [0, 0, 0.05], "post": [0, 0, 0]},
						"0.5417": {"pre": [0, 0, 0], "post": [0, 0, 0.05]},
						"0.625": {"pre": [0, 0, 0.05], "post": [0, 0, 0]},
						"0.875": {"pre": [0, 0, 0], "post": [0, 0, 0.05]},
						"1.0": {"pre": [0, 0, 0.05], "post": [0, 0, 0]},
						"1.125": {"pre": [0, 0, 0], "post": [0, 0, 0.05]},
						"1.2917": {"pre": [0, 0, 0.05], "post": [0, 0, 0]}
					}
				},
				"mouth_open": {
					"rotation": {
						"0.125": [0, 0, 0],
						"0.1667": {"pre": [0, 0, 0], "post": [2, 0, 0]},
						"0.25": {"pre": [2, 0, 0], "post": [0, 0, 0]},
						"0.625": [0, 0, 0]
					},
					"position": {
						"0.125": [0, 0, 0],
						"0.1667": {"pre": [0, 0, 0], "post": [0, 0, -0.1]},
						"0.25": {"pre": [0, 0, -0.1], "post": [0, 0, 0]},
						"0.2917": {"pre": [0, 0, 0], "post": [0, -0.15, -0.1]},
						"0.375": {"pre": [0, -0.15, -0.1], "post": [0, 0, 0]},
						"0.4167": {"pre": [0, 0, 0], "post": [0, 0, -0.1]},
						"0.5": {"pre": [0, 0, -0.1], "post": [0, 0, 0]},
						"0.5417": {"pre": [0, 0, 0], "post": [-0.075, -0.25, -0.1]},
						"0.625": {"pre": [-0.075, -0.25, -0.1], "post": [0, 0, 0]},
						"0.875": {"pre": [0, 0, 0], "post": [-0.075, -0.25, -0.1]},
						"1.0": {"pre": [-0.075, -0.25, -0.1], "post": [0, 0, 0]},
						"1.125": {"pre": [0, 0, 0], "post": [0, 0, -0.1]},
						"1.2917": {"pre": [0, 0, -0.1], "post": [0, 0, 0]}
					}
				}
			},
			"sound_effects": {
				"0.125": {
					"effect": "pokemon.gimmighoul.cry"
				}
			}
		},
		"animation.gimmighoul_chest.idle_quirk": {
			"loop": true,
			"animation_length": 4,
			"bones": {
				"belt_top2": {
					"rotation": {
						"0.0": [-12.1527, 0, 0],
						"0.0833": [-14.15, 0, 0],
						"0.2917": [0, 0, 0],
						"0.7083": [0, 0, 0],
						"1.4167": {
							"pre": [-6, 0, 0],
							"post": [-6, 0, 0],
							"lerp_mode": "catmullrom"
						},
						"2.4167": {
							"post": [-6, 0, 0],
							"lerp_mode": "catmullrom"
						},
						"2.5417": {
							"post": [-5, 0, 0],
							"lerp_mode": "catmullrom"
						},
						"2.8333": {
							"post": [-12.1527, 0, 0],
							"lerp_mode": "catmullrom"
						},
						"3.375": {
							"post": [-14.63, 0, 0],
							"lerp_mode": "catmullrom"
						},
						"4.0": [-12.1527, 0, 0]
					}
				},
				"belt_bottom2": {
					"rotation": [7, 0, 0]
				},
				"belt_bottom3": {
					"rotation": {
						"0.0": [81.5, 0, 0],
						"0.2917": [81.5, 0, 0],
						"0.375": [76.5, 0, 0],
						"0.5": [81.5, 0, 0]
					}
				},
				"belt_top": {
					"rotation": {
						"0.0": [1, 0, 0],
						"0.125": [1, 0, 0],
						"0.2917": [0, 0, 0],
						"2.7917": [1, 0, 0]
					},
					"position": [0, 0, 0]
				},
				"belt_top6": {
					"rotation": {
						"0.0": [-20.19615, 0, 0],
						"0.0833": {
							"pre": [-16.2, 0, 0],
							"post": [-16.2, 0, 0],
							"lerp_mode": "catmullrom"
						},
						"0.3333": {
							"post": [-29.2, 0, 0],
							"lerp_mode": "catmullrom"
						},
						"0.5417": {
							"post": [-6.2, 0, 0],
							"lerp_mode": "catmullrom"
						},
						"0.75": {
							"post": [-7.2, 0, 0],
							"lerp_mode": "catmullrom"
						},
						"0.9583": [-4.2, 0, 0],
						"2.5833": {
							"pre": [-4.2, 0, 0],
							"post": [-4.2, 0, 0],
							"lerp_mode": "catmullrom"
						},
						"2.9583": {
							"post": [-20.19615, 0, 0],
							"lerp_mode": "catmullrom"
						},
						"3.3333": {
							"post": [-26.2, 0, 0],
							"lerp_mode": "catmullrom"
						},
						"4.0": [-20.19615, 0, 0]
					}
				},
				"belt_top7": {
					"rotation": {
						"0.0": [16, 0, 0],
						"0.1667": [23.5, 0, 0],
						"0.4167": [-12.5, 0, 0],
						"0.6667": [3.5, 0, 0],
						"0.8333": [-2.5, 0, 0],
						"1.0417": [0.5, 0, 0],
						"2.5417": {
							"pre": [0.5, 0, 0],
							"post": [0.5, 0, 0],
							"lerp_mode": "catmullrom"
						},
						"2.75": {
							"post": [16.08, 0, 0],
							"lerp_mode": "catmullrom"
						},
						"3.125": {
							"post": [-1, 0, 0],
							"lerp_mode": "catmullrom"
						},
						"4.0": [16, 0, 0]
					}
				},
				"lid": {
					"rotation": {
						"0.0": [0, 0, 0],
						"0.2083": [0, 0, 0],
						"0.2917": [0, 0, 0],
						"2.5833": [0, 0, 0],
						"3.0833": [0, 0, 0]
					},
					"position": {
						"0.0": [0, 1, 0],
						"0.2083": [0, 1, 0],
						"0.2917": [0, 0, 0],
						"2.5833": [0, 0, 0],
						"3.0833": [0, 1, 0]
					}
				},
				"belt_top3": {
					"rotation": {
						"0.0": [0, 0, 0],
						"0.2083": [0, 0, 0],
						"0.2917": [0, 0, 0],
						"2.5833": [0, 0, 0],
						"3.0833": [0, 0, 0]
					},
					"position": {
						"0.0": [0, 1, 0],
						"0.2083": [0, 1, 0],
						"0.2917": [0, 0, 0],
						"2.5833": [0, 0, 0],
						"3.0833": [0, 1, 0]
					}
				},
				"belt_top4": {
					"rotation": [-2.5, 0, 0]
				},
				"belt_top5": {
					"rotation": [2.5, 0, 0]
				},
				"gimmighoul_body": {
					"position": {
						"0.0": [0, -3.5, 0.8],
						"0.125": [0, -1.8, -1.3],
						"0.25": [0, -3.4, -1.3],
						"0.6667": [0, -3.4, -2.4],
						"1.0833": {
							"pre": [-0.8, -3.41, -2.51],
							"post": [-0.8, -3.41, -2.51],
							"lerp_mode": "catmullrom"
						},
						"1.75": {
							"post": [-0.8, -3.41, -2.51],
							"lerp_mode": "catmullrom"
						},
						"2.0833": {
							"post": [0.93, -3.44, -2.57],
							"lerp_mode": "catmullrom"
						},
						"2.625": {
							"post": [0.9, -3.4, -2.4],
							"lerp_mode": "catmullrom"
						},
						"2.8333": {
							"post": [0.44, -2.37, -1.55],
							"lerp_mode": "catmullrom"
						},
						"3.0417": {
							"post": [0, -2.96, -0.6],
							"lerp_mode": "catmullrom"
						},
						"3.5833": {
							"post": [0, -3.03, 0.5],
							"lerp_mode": "catmullrom"
						},
						"4.0": [0, -3.5, 0.8]
					},
					"scale": 0.7
				},
				"torso": {
					"rotation": {
						"0.0": [-13.254, 0, 2],
						"2.3333": {
							"pre": [-13.25, 0, 2],
							"post": [-13.25, 0, 2],
							"lerp_mode": "catmullrom"
						},
						"2.5417": {
							"post": [-30.0093, 0, 2],
							"lerp_mode": "catmullrom"
						},
						"2.6667": {
							"post": [-16.79075, 0, 2],
							"lerp_mode": "catmullrom"
						},
						"2.8333": {
							"post": [-27.5658, 4.54611, 10.77719],
							"lerp_mode": "catmullrom"
						},
						"3.4167": {
							"post": [-10.25, 0, 2],
							"lerp_mode": "catmullrom"
						},
						"3.8333": [-13.254, 0, 2]
					},
					"position": [0, -0.02598, 0]
				},
				"arm_left": {
					"rotation": {
						"0.0": [4.4173, 6.63674, 47.4292],
						"0.125": [-122.1239, 63.29072, -49.61549],
						"0.2917": [-32.62388, 45.085, 51.10227],
						"2.5833": {
							"pre": [4.4173, 6.63674, 47.4292],
							"post": [4.4173, 6.63674, 47.4292],
							"lerp_mode": "catmullrom"
						},
						"3.1667": {
							"post": [15.1548, 7.3088, 1.42875],
							"lerp_mode": "catmullrom"
						},
						"3.9167": [4.4173, 6.63674, 47.4292]
					},
					"position": {
						"0.0": [0, 0, 0],
						"0.125": [0, 0.3, 0],
						"0.2917": [0, 0, 0],
						"2.5833": [0, 0, 0],
						"3.9167": [0, 0, 0]
					}
				},
				"arm_left2": {
					"rotation": {
						"0.0": [0, 15.5, 0],
						"0.125": [0, 33, 0],
						"0.2917": [0, 85.5, 0]
					}
				},
				"arm_right": {
					"rotation": {
						"0.0": [4.4173, -6.63674, -51.4292],
						"0.125": [-122.1239, -63.29072, 49.61549],
						"0.2917": [-32.62388, -45.085, -51.10227],
						"2.5833": {
							"pre": [4.4173, -6.63674, -51.4292],
							"post": [4.4173, -6.63674, -51.4292],
							"lerp_mode": "catmullrom"
						},
						"2.6667": {
							"post": [-139.13621, -80.90964, 51.81288],
							"lerp_mode": "catmullrom"
						},
						"2.7917": {
							"post": [-128.07734, -70.21297, 43.91235],
							"lerp_mode": "catmullrom"
						},
						"2.9167": {
							"post": [-128.07734, -70.21297, 43.91235],
							"lerp_mode": "catmullrom"
						},
						"3.1667": {
							"post": [15.1548, -7.3088, -1.42875],
							"lerp_mode": "catmullrom"
						},
						"3.9167": [4.4173, -6.63674, -51.4292]
					},
					"position": {
						"0.0": [0, 0, 0],
						"0.125": [0, 0.3, 0],
						"0.2917": [0, 0, 0],
						"2.5833": [0, 0, 0],
						"3.9167": [0, 0, 0]
					}
				},
				"arm_right2": {
					"rotation": {
						"0.0": [0, -9.5, 0],
						"0.125": [0, -33, 0],
						"0.2917": [0, -85.5, 0],
						"2.5833": {
							"pre": [0, -85.5, 0],
							"post": [0, -85.5, 0],
							"lerp_mode": "catmullrom"
						},
						"2.6667": {
							"post": [0, -38, 0],
							"lerp_mode": "catmullrom"
						},
						"2.7917": {
							"post": [4.42521, -39.46232, -6.07426],
							"lerp_mode": "catmullrom"
						},
						"2.9167": {
							"post": [4.42521, -39.46232, -6.07426],
							"lerp_mode": "catmullrom"
						},
						"3.625": {
							"post": [0, -9.5, 0],
							"lerp_mode": "catmullrom"
						},
						"3.875": [0, -9.5, 0]
					}
				},
				"head": {
					"rotation": {
						"0.0": [9.5, 0, 0.5],
						"0.0417": [21.03366, 0, 0.5],
						"0.125": [-13.96634, 0, 0.5],
						"0.7917": {
							"pre": [9.5, 0, 0],
							"post": [9.5, 0, 0],
							"lerp_mode": "catmullrom"
						},
						"1.0833": {
							"post": [9.83792, 15.11951, 0.56202],
							"lerp_mode": "catmullrom"
						},
						"1.7083": {
							"post": [9.83792, 15.11951, 0.56202],
							"lerp_mode": "catmullrom"
						},
						"1.9583": {
							"post": [10.90779, -25.22248, -6.71208],
							"lerp_mode": "catmullrom"
						},
						"2.625": {
							"post": [10.90779, -25.22248, -6.71208],
							"lerp_mode": "catmullrom"
						},
						"2.8333": {
							"post": [12.34522, -10.62073, 4.77969],
							"lerp_mode": "catmullrom"
						},
						"3.1667": {
							"post": [15.01227, 7.9758, 2.97025],
							"lerp_mode": "catmullrom"
						},
						"3.625": {
							"post": [9.5, 0, 0.5],
							"lerp_mode": "catmullrom"
						},
						"4.0": [9.5, 0, 0.5]
					},
					"position": {
						"0.0": [0, 0, 0],
						"0.5417": [0, 0, 0],
						"0.9167": [0, -1.6, 0],
						"2.4583": [0, -1.6, 0],
						"2.75": [0, 0, 0]
					}
				},
				"antenna_left": {
					"rotation": {
						"0.0": [-0.86603, -46, 0],
						"0.9167": {
							"pre": [-5.27, -64.88, 0],
							"post": [-5.27, -64.88, 0],
							"lerp_mode": "catmullrom"
						},
						"1.5833": {
							"post": [-8.36603, -91.5, 0],
							"lerp_mode": "catmullrom"
						},
						"1.9583": {
							"post": [-8.38, -27.61, 0],
							"lerp_mode": "catmullrom"
						},
						"2.4583": {
							"post": [-8.38, -27.61, 0],
							"lerp_mode": "catmullrom"
						},
						"3.375": [-0.86603, -46, 0]
					}
				},
				"antenna_left2": {
					"rotation": {
						"0.0": [9, 0, 0],
						"0.5833": {
							"pre": [38.98, 0, 0],
							"post": [38.98, 0, 0],
							"lerp_mode": "catmullrom"
						},
						"1.25": {
							"post": [34, 0, 0],
							"lerp_mode": "catmullrom"
						},
						"2.5833": {
							"post": [34, 0, 0],
							"lerp_mode": "catmullrom"
						},
						"3.375": [9, 0, 0]
					}
				},
				"antenna_right": {
					"rotation": {
						"0.0": [-0.86603, 44, 0],
						"0.9167": {
							"pre": [-5.27, 49.88, 0],
							"post": [-5.27, 49.88, 0],
							"lerp_mode": "catmullrom"
						},
						"1.5833": {
							"post": [-8.36603, 44, 0],
							"lerp_mode": "catmullrom"
						},
						"1.9583": {
							"post": [-8.37, 103, 0],
							"lerp_mode": "catmullrom"
						},
						"2.4583": {
							"post": [-8.37, 103, 0],
							"lerp_mode": "catmullrom"
						},
						"2.9167": [-0.86603, 44, 0]
					}
				},
				"antenna_right2": {
					"rotation": {
						"0.0": [9, 0, 0],
						"0.5833": {
							"pre": [38.98, 0, 0],
							"post": [38.98, 0, 0],
							"lerp_mode": "catmullrom"
						},
						"1.25": {
							"post": [34, 0, 0],
							"lerp_mode": "catmullrom"
						},
						"2.5833": {
							"post": [34, 0, 0],
							"lerp_mode": "catmullrom"
						},
						"3.0833": [9, 0, 0]
					}
				},
				"leg_left": {
					"rotation": [-30, 0, 0],
					"position": [0, 0.6, 0]
				},
				"leg_left2": {
					"rotation": [22.5, 0, 0]
				},
				"leg_right": {
					"rotation": [-30, 0, 0],
					"position": [0, 0.6, 0]
				},
				"leg_right2": {
					"rotation": [22.5, 0, 0]
				},
				"tail2": {
					"rotation": [25, 0, 0]
				},
				"legs": {
					"position": [0, 1, 0]
				},
				"belt_bottom5": {
					"rotation": {
						"0.0": [0.17365, 0, 0],
						"0.3333": [0.17, 0, 0],
						"0.4583": [-5.83, 0, 0],
						"0.625": [0.17, 0, 0]
					}
				},
				"body": {
					"position": {
						"0.2917": [0, 0, 0],
						"0.3333": [0, 0.1, 0],
						"0.375": [0, 0, 0],
						"0.4167": [0, 0.1, 0],
						"0.4583": [0, 0, 0]
					}
				},
				"belt_bottom4": {
					"rotation": {
						"0.3333": [0, 0, 0],
						"0.4167": [-8, 0, 0],
						"0.5417": [0, 0, 0]
					}
				},
				"eyelid_left": {
					"position": {
						"0.0": [0, 0, 0],
						"0.0417": {"pre": [0, 0, 0], "post": [0, 0, -0.1]},
						"0.1667": [0, 0, -0.1],
						"0.2083": {"pre": [0, 0, -0.1], "post": [0, 0, 0]},
						"1.4167": [0, 0, 0],
						"1.4583": {"pre": [0, 0, 0], "post": [0, 0, -0.1]},
						"1.5": [0, 0, -0.1],
						"1.5417": {"pre": [0, 0, -0.1], "post": [0, 0, 0]},
						"1.5833": [0, 0, 0],
						"1.625": {"pre": [0, 0, 0], "post": [0, 0, -0.1]},
						"1.6667": [0, 0, -0.1],
						"1.7083": {"pre": [0, 0, -0.1], "post": [0, 0, 0]},
						"1.9583": [0, 0, 0],
						"2.0": {"pre": [0, 0, 0], "post": [0, 0, -0.1]},
						"2.0417": [0, 0, -0.1],
						"2.0833": {"pre": [0, 0, -0.1], "post": [0, 0, 0]},
						"2.3333": [0, 0, 0],
						"2.375": {"pre": [0, 0, 0], "post": [0, 0, -0.1]},
						"2.5417": [0, 0, -0.1],
						"2.5833": {"pre": [0, 0, -0.1], "post": [0, 0, 0]}
					}
				},
				"eyelid_right": {
					"position": {
						"0.0": [0, 0, 0],
						"0.0417": {"pre": [0, 0, 0], "post": [0, 0, -0.1]},
						"0.1667": [0, 0, -0.1],
						"0.2083": {"pre": [0, 0, -0.1], "post": [0, 0, 0]},
						"1.4167": [0, 0, 0],
						"1.4583": {"pre": [0, 0, 0], "post": [0, 0, -0.1]},
						"1.5": [0, 0, -0.1],
						"1.5417": {"pre": [0, 0, -0.1], "post": [0, 0, 0]},
						"1.5833": [0, 0, 0],
						"1.625": {"pre": [0, 0, 0], "post": [0, 0, -0.1]},
						"1.6667": [0, 0, -0.1],
						"1.7083": {"pre": [0, 0, -0.1], "post": [0, 0, 0]},
						"1.9583": [0, 0, 0],
						"2.0": {"pre": [0, 0, 0], "post": [0, 0, -0.1]},
						"2.0417": [0, 0, -0.1],
						"2.0833": {"pre": [0, 0, -0.1], "post": [0, 0, 0]},
						"2.3333": [0, 0, 0],
						"2.375": {"pre": [0, 0, 0], "post": [0, 0, -0.1]},
						"2.5417": [0, 0, -0.1],
						"2.5833": {"pre": [0, 0, -0.1], "post": [0, 0, 0]}
					}
				}
			}
		},
		"animation.gimmighoul_chest.walkspeedtest": {
			"loop": true,
			"bones": {
				"gimmighoul_chest": {
					"position": [0, 0, "-q.anim_time*90*0.075"]
				}
			}
		},
		"animation.gimmighoul_chest.dance": {
			"loop": true,
			"bones": {
				"torso": {
					"rotation": [
						"0.5*math.cos(q.anim_time*90*10-60)*4-0.5*math.cos(q.anim_time*90*4-60)*1",
						"0.5*math.cos(q.anim_time*90*2-60)*17",
						"0.5*math.sin(q.anim_time*90*2-60)*5+2*math.cos(q.anim_time*90*2)*5"
					]
				},
				"arm_left": {
					"rotation": ["-52.5+math.cos(q.anim_time*90*5-120)*10", 0, -22.5]
				},
				"arm_right": {
					"rotation": ["-52.5-math.cos(q.anim_time*90*5-60)*16", 0, "22.5-math.cos(q.anim_time*90*10-60)*4"]
				},
				"head": {
					"rotation": ["12+0.5*math.cos(q.anim_time*90*10-120)*8", 0, 0]
				},
				"eyelid_left": {
					"position": [0, 0, -0.1]
				},
				"eyelid_right": {
					"position": [0, 0, -0.1]
				},
				"antenna_left2": {
					"rotation": ["-0.5*math.cos(q.anim_time*90*5-120)*10", 0, 0]
				},
				"antenna_right": {
					"rotation": ["0.5*math.cos(q.anim_time*90*5-60)*4", 0, 0]
				},
				"antenna_right2": {
					"rotation": ["0.5*math.cos(q.anim_time*90*5-120)*10", 0, 0]
				}
			}
		}
	}
}