{
	"format_version": "1.12.0",
	"minecraft:geometry": [
		{
			"description": {
				"identifier": "geometry.nuzleaf_female",
				"texture_width": 64,
				"texture_height": 64,
				"visible_bounds_width": 4,
				"visible_bounds_height": 3.5,
				"visible_bounds_offset": [0, 1.25, 0]
			},
			"bones": [
				{
					"name": "nuzleaf",
					"pivot": [0, 0, 0]
				},
				{
					"name": "body",
					"parent": "nuzleaf",
					"pivot": [0, 10.1, 0]
				},
				{
					"name": "torso",
					"parent": "body",
					"pivot": [0, 7.5, 0],
					"cubes": [
						{"origin": [-3, 6.5, -1.5], "size": [6, 7, 3], "uv": [46, 22]}
					]
				},
				{
					"name": "head",
					"parent": "torso",
					"pivot": [0, 14, 0]
				},
				{
					"name": "head_ai",
					"parent": "head",
					"pivot": [0, 14, 0]
				},
				{
					"name": "head_angle",
					"parent": "head_ai",
					"pivot": [0, 14, 0],
					"cubes": [
						{"origin": [-4.5, 12.5, -4], "size": [9, 7, 8], "uv": [0, 0]}
					]
				},
				{
					"name": "sweat_drop",
					"parent": "head_angle",
					"pivot": [-3.4, 18.9, -3.9],
					"cubes": [
						{"origin": [-4.4, 16.4, -3.9], "size": [2, 3, 0], "uv": [60, 0]}
					]
				},
				{
					"name": "nose",
					"parent": "head_angle",
					"pivot": [0, 15.35, -4],
					"cubes": [
						{"origin": [-0.5, 14.85, -8.1], "size": [1, 1, 4], "inflate": 0.1, "uv": [15, 15]}
					]
				},
				{
					"name": "eyes",
					"parent": "head_angle",
					"pivot": [0, 16, -4]
				},
				{
					"name": "eye_right",
					"parent": "eyes",
					"pivot": [-2.51, 16, -3.51],
					"cubes": [
						{"origin": [-4, 15, -4.01], "size": [3, 1, 0], "uv": [0, 0]}
					]
				},
				{
					"name": "eye_emote_right",
					"parent": "eye_right",
					"pivot": [-3, 16, -4.01],
					"cubes": [
						{"origin": [-4, 16, -4.01], "size": [2, 1, 0], "uv": [0, 15]}
					]
				},
				{
					"name": "eye_emote_right2",
					"parent": "eye_right",
					"pivot": [-2, 16, -3.91],
					"cubes": [
						{"origin": [-2, 16, -3.91], "size": [1, 1, 0], "uv": [6, 0]}
					]
				},
				{
					"name": "iris_right",
					"parent": "eye_right",
					"pivot": [-2, 16, -4.02],
					"cubes": [
						{"origin": [-3, 15, -4.02], "size": [2, 1, 0], "uv": [0, 17], "mirror": true}
					]
				},
				{
					"name": "iris_emote_right",
					"parent": "iris_right",
					"pivot": [-2, 16, -4.02],
					"cubes": [
						{"origin": [-3, 16, -4.02], "size": [1, 1, 0], "uv": [26, 0], "mirror": true}
					]
				},
				{
					"name": "pupil_right",
					"parent": "iris_right",
					"pivot": [-2, 16, -4.03],
					"cubes": [
						{"origin": [-2.5, 15.5, -4.03], "size": [1, 1, 0], "uv": [0, 19]}
					]
				},
				{
					"name": "tears_right",
					"parent": "eye_right",
					"pivot": [-3, 15.5, -3.91],
					"cubes": [
						{"origin": [-4, 15, -3.91], "size": [2, 1, 0], "uv": [21, 15]}
					]
				},
				{
					"name": "eye_left",
					"parent": "eyes",
					"pivot": [2.51, 16, -3.51],
					"cubes": [
						{"origin": [1, 15, -4.01], "size": [3, 1, 0], "uv": [0, 1]}
					]
				},
				{
					"name": "eye_emote_left",
					"parent": "eye_left",
					"pivot": [3, 16, -4.01],
					"cubes": [
						{"origin": [2, 16, -4.01], "size": [2, 1, 0], "uv": [0, 16]}
					]
				},
				{
					"name": "eye_emote_left2",
					"parent": "eye_left",
					"pivot": [2, 16, -3.91],
					"cubes": [
						{"origin": [1, 16, -3.91], "size": [1, 1, 0], "uv": [6, 1]}
					]
				},
				{
					"name": "iris_left",
					"parent": "eye_left",
					"pivot": [2, 16, -4.02],
					"cubes": [
						{"origin": [1, 15, -4.02], "size": [2, 1, 0], "uv": [0, 18]}
					]
				},
				{
					"name": "iris_emote_left",
					"parent": "iris_left",
					"pivot": [2, 16, -4.02],
					"cubes": [
						{"origin": [2, 16, -4.02], "size": [1, 1, 0], "uv": [26, 1]}
					]
				},
				{
					"name": "pupil_left",
					"parent": "iris_left",
					"pivot": [2, 16, -4.03],
					"cubes": [
						{"origin": [1.5, 15.5, -4.03], "size": [1, 1, 0], "uv": [2, 19], "mirror": true}
					]
				},
				{
					"name": "tears_left",
					"parent": "eye_left",
					"pivot": [3, 15.5, -3.91],
					"cubes": [
						{"origin": [2, 15, -3.91], "size": [2, 1, 0], "uv": [21, 16], "mirror": true}
					]
				},
				{
					"name": "eyelid_right",
					"parent": "eyes",
					"pivot": [-2.41, 16, -3.41],
					"cubes": [
						{"origin": [-4, 15, -3.91], "size": [3, 2, 1], "inflate": 0.01, "uv": [0, 2]}
					]
				},
				{
					"name": "eyelid_emote_inner_right",
					"parent": "eyelid_right",
					"pivot": [-1.5, 15.5, -3.41],
					"cubes": [
						{"origin": [-2, 15, -3.91], "size": [1, 1, 1], "inflate": 0.02, "uv": [60, 6]}
					]
				},
				{
					"name": "eyelid_emote_middle_right",
					"parent": "eyelid_right",
					"pivot": [-2.5, 15.5, -3.41],
					"cubes": [
						{"origin": [-3, 15, -3.91], "size": [1, 1, 1], "inflate": 0.02, "uv": [60, 12]}
					]
				},
				{
					"name": "eyelid_emote_outer_right",
					"parent": "eyelid_right",
					"pivot": [-3.5, 15.5, -3.41],
					"cubes": [
						{"origin": [-4, 15, -3.91], "size": [1, 1, 1], "inflate": 0.02, "uv": [60, 17]}
					]
				},
				{
					"name": "eyelid_left",
					"parent": "eyes",
					"pivot": [2.41, 16, -3.41],
					"cubes": [
						{"origin": [1, 15, -3.91], "size": [3, 2, 1], "inflate": 0.01, "uv": [0, 5]}
					]
				},
				{
					"name": "eyelid_emote_inner_left",
					"parent": "eyelid_left",
					"pivot": [1.5, 15.5, -3.41],
					"cubes": [
						{"origin": [1, 15, -3.91], "size": [1, 1, 1], "inflate": 0.02, "uv": [60, 8]}
					]
				},
				{
					"name": "eyelid_emote_middle_left",
					"parent": "eyelid_left",
					"pivot": [2.5, 15.5, -3.41],
					"cubes": [
						{"origin": [2, 15, -3.91], "size": [1, 1, 1], "inflate": 0.02, "uv": [60, 14]}
					]
				},
				{
					"name": "eyelid_emote_outer_left",
					"parent": "eyelid_left",
					"pivot": [3.5, 15.5, -3.41],
					"cubes": [
						{"origin": [3, 15, -3.91], "size": [1, 1, 1], "inflate": 0.02, "uv": [60, 19]}
					]
				},
				{
					"name": "mouth",
					"parent": "head_angle",
					"pivot": [0, 13.5, -3.51]
				},
				{
					"name": "mouth_closed",
					"parent": "mouth",
					"pivot": [0, 13.5, -3.5]
				},
				{
					"name": "mouth_closed_right",
					"parent": "mouth_closed",
					"pivot": [-0.5, 13.5, -4],
					"cubes": [
						{"origin": [-1, 13, -4], "size": [1, 1, 0], "inflate": 0.01, "uv": [15, 16]}
					]
				},
				{
					"name": "mouth_closed_middle",
					"parent": "mouth_closed",
					"pivot": [0, 13.5, -3.9],
					"cubes": [
						{"origin": [-0.5, 13, -3.9], "size": [1, 1, 0], "inflate": 0.01, "uv": [15, 15]}
					]
				},
				{
					"name": "mouth_closed_left",
					"parent": "mouth_closed",
					"pivot": [0.5, 13.5, -4],
					"cubes": [
						{"origin": [0, 13, -4], "size": [1, 1, 0], "inflate": 0.01, "uv": [15, 17]}
					]
				},
				{
					"name": "mouth_open",
					"parent": "mouth",
					"pivot": [0, 13.5, -3.4]
				},
				{
					"name": "mouth_open_right",
					"parent": "mouth_open",
					"pivot": [-0.5, 13.5, -3.9],
					"cubes": [
						{"origin": [-1, 13, -3.9], "size": [1, 1, 0], "inflate": 0.01, "uv": [17, 16]}
					]
				},
				{
					"name": "mouth_open_middle",
					"parent": "mouth_open",
					"pivot": [0, 13.5, -3.8],
					"cubes": [
						{"origin": [-0.5, 13, -3.8], "size": [1, 1, 0], "inflate": 0.01, "uv": [17, 15]}
					]
				},
				{
					"name": "mouth_open_left",
					"parent": "mouth_open",
					"pivot": [0.5, 13.5, -3.9],
					"cubes": [
						{"origin": [0, 13, -3.9], "size": [1, 1, 0], "inflate": 0.01, "uv": [17, 17]}
					]
				},
				{
					"name": "mouth_open_tongue",
					"parent": "mouth_open",
					"pivot": [0, 13.5, -3.8],
					"cubes": [
						{"origin": [-1, 13, -3.8], "size": [2, 1, 0], "inflate": 0.015, "uv": [15, 18]}
					]
				},
				{
					"name": "teeth_clench",
					"parent": "mouth",
					"pivot": [0, 13.5, -3.4]
				},
				{
					"name": "teeth_right",
					"parent": "teeth_clench",
					"pivot": [-0.5, 13.5, -3.9],
					"cubes": [
						{"origin": [-1, 13, -3.9], "size": [1, 1, 0], "inflate": 0.01, "uv": [21, 17]}
					]
				},
				{
					"name": "teeth_left",
					"parent": "teeth_clench",
					"pivot": [0.5, 13.5, -3.9],
					"cubes": [
						{"origin": [0, 13, -3.9], "size": [1, 1, 0], "inflate": 0.01, "uv": [21, 18]}
					]
				},
				{
					"name": "leaf",
					"parent": "head_angle",
					"pivot": [0, 19.5, 0],
					"cubes": [
						{"origin": [-0.5, 18.5, 0], "size": [1, 3, 0], "uv": [62, 22]}
					]
				},
				{
					"name": "leaf2",
					"parent": "leaf",
					"pivot": [0, 21.5, 0],
					"cubes": [
						{"origin": [-2.5, 21.5, 0], "size": [5, 4, 0], "uv": [13, 47]}
					]
				},
				{
					"name": "leaf3",
					"parent": "leaf2",
					"pivot": [0, 25.5, 0],
					"cubes": [
						{"origin": [-2.5, 25.5, 0], "size": [5, 4, 0], "uv": [13, 40]}
					]
				},
				{
					"name": "leaf4",
					"parent": "leaf3",
					"pivot": [0, 29.5, 0],
					"cubes": [
						{"origin": [-1.5, 29.5, 0], "size": [3, 4, 0], "uv": [13, 33]}
					]
				},
				{
					"name": "arms",
					"parent": "torso",
					"pivot": [0, 11.3, 0]
				},
				{
					"name": "arm_left",
					"parent": "arms",
					"pivot": [2.5, 11.3, 0],
					"cubes": [
						{"origin": [2, 10.3, -1], "size": [4, 2, 2], "inflate": -0.1, "uv": [26, 4]}
					]
				},
				{
					"name": "arm_left2",
					"parent": "arm_left",
					"pivot": [5.9, 11.3, 0.9],
					"cubes": [
						{"origin": [5.8, 10.3, -1], "size": [4, 2, 2], "inflate": -0.099, "uv": [38, 4]}
					]
				},
				{
					"name": "hand_left",
					"parent": "arm_left2",
					"pivot": [9.7, 11.3, 0],
					"cubes": [
						{"origin": [9.7, 10.3, -2], "size": [4, 2, 4], "uv": [48, 6], "mirror": true}
					]
				},
				{
					"name": "fingers_left",
					"parent": "hand_left",
					"pivot": [13.7, 12.3, 0],
					"cubes": [
						{"origin": [13.7, 10.3, -2], "size": [3, 2, 4], "inflate": 0.01, "uv": [39, 14], "mirror": true}
					]
				},
				{
					"name": "thumb_left",
					"parent": "hand_left",
					"pivot": [9.7, 12.3, -2],
					"cubes": [
						{"origin": [9.7, 10.3, -4], "size": [2, 2, 2], "inflate": 0.01, "uv": [24, 25], "mirror": true}
					]
				},
				{
					"name": "arm_right",
					"parent": "arms",
					"pivot": [-2.5, 11.3, 0],
					"cubes": [
						{"origin": [-6, 10.3, -1], "size": [4, 2, 2], "inflate": -0.1, "uv": [26, 0]}
					]
				},
				{
					"name": "arm_right2",
					"parent": "arm_right",
					"pivot": [-5.9, 11.3, 0.9],
					"cubes": [
						{"origin": [-9.8, 10.3, -1], "size": [4, 2, 2], "inflate": -0.099, "uv": [38, 0]}
					]
				},
				{
					"name": "hand_right",
					"parent": "arm_right2",
					"pivot": [-9.7, 11.3, 0],
					"cubes": [
						{"origin": [-13.7, 10.3, -2], "size": [4, 2, 4], "uv": [48, 0]}
					]
				},
				{
					"name": "fingers_right",
					"parent": "hand_right",
					"pivot": [-13.7, 12.3, 0],
					"cubes": [
						{"origin": [-16.7, 10.3, -2], "size": [3, 2, 4], "inflate": 0.01, "uv": [38, 8]}
					]
				},
				{
					"name": "thumb_right",
					"parent": "hand_right",
					"pivot": [-9.7, 12.3, -2],
					"cubes": [
						{"origin": [-11.7, 10.3, -4], "size": [2, 2, 2], "inflate": 0.01, "uv": [16, 25]}
					]
				},
				{
					"name": "legs",
					"parent": "body",
					"pivot": [0, 6.3, 0]
				},
				{
					"name": "leg_left",
					"parent": "legs",
					"pivot": [2, 6.3, 0],
					"cubes": [
						{"origin": [-0.3, 2.8, -2.5], "size": [5, 5, 5], "inflate": -0.2, "uv": [20, 15]}
					]
				},
				{
					"name": "leg_left2",
					"parent": "leg_left",
					"pivot": [2, 3, -1],
					"cubes": [
						{"origin": [1, 0.7, -1], "size": [2, 4, 2], "uv": [8, 25]}
					]
				},
				{
					"name": "foot_left",
					"parent": "leg_left2",
					"pivot": [2, 0.5, 0],
					"cubes": [
						{"origin": [0.5, 0, -2.5], "size": [3, 1, 4], "inflate": 0.01, "uv": [50, 12]}
					]
				},
				{
					"name": "leg_right",
					"parent": "legs",
					"pivot": [-2, 6.3, 0],
					"cubes": [
						{"origin": [-4.7, 2.8, -2.5], "size": [5, 5, 5], "inflate": -0.22, "uv": [0, 15]}
					]
				},
				{
					"name": "leg_right2",
					"parent": "leg_right",
					"pivot": [-2, 3, -1],
					"cubes": [
						{"origin": [-3, 0.7, -1], "size": [2, 4, 2], "uv": [0, 25]}
					]
				},
				{
					"name": "foot_right",
					"parent": "leg_right2",
					"pivot": [-2, 0.5, 0],
					"cubes": [
						{"origin": [-3.5, 0, -2.5], "size": [3, 1, 4], "inflate": 0.01, "uv": [50, 17]}
					]
				}
			]
		}
	]
}