{
	"format_version": "1.8.0",
	"animations": {
		"animation.wattrel.ground_idle": {
			"loop": true,
			"bones": {
				"wattrel": {
					"scale": 1
				},
				"leg_right": {
					"rotation": [17.5, 22.5, 0]
				},
				"wing_closed_right2": {
					"rotation": [17.5, 12.5, 0]
				},
				"wing_closed_left2": {
					"rotation": [17.5, -12.5, 0]
				},
				"body": {
					"position": [0, -0.25, 0]
				},
				"leg_right2": {
					"rotation": [-25, 0, 0]
				},
				"foot_right": {
					"rotation": [7.5, 0, 0]
				},
				"torso": {
					"rotation": [-7.5, 0, 0]
				},
				"wing_closed_right": {
					"rotation": [-15.05357, -1.11998, 5.47681]
				},
				"wing_closed_left": {
					"rotation": [-15.05357, 1.11998, -5.47681]
				},
				"tail_feathers": {
					"rotation": [-15, 0, 0]
				},
				"tail_feather_left": {
					"rotation": [0, 10, 0]
				},
				"tail_feather_right": {
					"rotation": [0, -10, 0]
				},
				"neck": {
					"rotation": [7.5, 0, 0]
				},
				"neck_fur": {
					"rotation": [-12.5, 0, 0]
				},
				"neck_fur_middle": {
					"rotation": [5, 0, 0]
				},
				"head": {
					"rotation": [-7.5, 0, 0]
				},
				"leg_left": {
					"rotation": [17.5, -22.5, 0]
				},
				"leg_left2": {
					"rotation": [-25, 0, 0]
				},
				"foot_left": {
					"rotation": [7.5, 0, 0]
				},
				"head_ai": {
					"rotation": [7.5, 0, 0]
				}
			}
		},
		"animation.wattrel.blink": {
			"animation_length": 0.1667,
			"bones": {
				"eyelid_right": {
					"position": {
						"0.0": [-0.1, 0, -0.1],
						"0.125": {"pre": [-0.1, 0, -0.1], "post": [-0.1, 0, -0.1]},
						"0.1667": {"pre": [-0.1, 0, -0.1], "post": [0, 0, 0]}
					}
				},
				"eyelid_left": {
					"position": {
						"0.0": [0.1, 0, -0.1],
						"0.125": {"pre": [0.1, 0, -0.1], "post": [0.1, 0, -0.1]},
						"0.1667": {"pre": [0.1, 0, -0.1], "post": [0, 0, 0]}
					}
				}
			}
		},
		"animation.wattrel.roy_half": {
			"loop": true,
			"bones": {
				"eyelid_half_left": {
					"position": [0.1, 0, -0.1]
				},
				"eyelid_half_right": {
					"position": [-0.1, 0, -0.1]
				}
			}
		},
		"animation.wattrel.mad": {
			"loop": true,
			"bones": {
				"eyelid_side_right": {
					"position": [1, 0, -0.1]
				},
				"eyelid_side_left": {
					"position": [-1, 0, -0.1]
				}
			}
		},
		"animation.wattrel.sad": {
			"loop": true,
			"bones": {
				"eyelid_side_right": {
					"position": [-0.1, 0, -0.1]
				},
				"eyelid_side_left": {
					"position": [0.1, 0, -0.1]
				}
			}
		},
		"animation.wattrel.happy": {
			"loop": true,
			"bones": {
				"jaw": {
					"rotation": [32.5, 0, 0]
				},
				"eyelid_right_happy": {
					"position": [-0.1, 0, -0.1]
				},
				"eyelid_left_happy": {
					"position": [0.1, 0, -0.1]
				},
				"blush_right": {
					"position": [-0.1, 0, 0]
				},
				"blush_left": {
					"position": [0.1, 0, 0]
				}
			}
		},
		"animation.wattrel.pose": {
			"loop": true,
			"bones": {
				"tail_feather_left": {
					"rotation": [0, 12.5, 0]
				},
				"tail_feather_right": {
					"rotation": [0, -12.5, 0]
				},
				"neck": {
					"rotation": [12.5, 0, 0]
				},
				"head_ai": {
					"rotation": [34.77022, 3.47077, -4.27881],
					"position": [0, -0.5, -1]
				},
				"neck_fur": {
					"rotation": [-42.5, 0, 0]
				},
				"head": {
					"rotation": [-35, 0, 0],
					"position": [0, -0.75, -1.5]
				},
				"leg_right": {
					"rotation": [26.54514, -9.06524, 12.0012]
				},
				"leg_right2": {
					"rotation": [-38.20957, -0.73553, -6.18167]
				},
				"foot_right": {
					"rotation": [52.04838, -17.03344, -5.79288],
					"position": [0, 0, 0.25]
				},
				"leg_left": {
					"rotation": [54.04514, 9.06524, -12.0012]
				},
				"leg_left2": {
					"rotation": [-95.51517, 17.95237, 6.84188]
				},
				"foot_left": {
					"rotation": [60.84915, -2.77587, 2.92201],
					"position": [0, 0, 0.25]
				},
				"foot_left2": {
					"rotation": [57.5, 0, 0]
				},
				"foot_right2": {
					"rotation": [42.5, 0, 0]
				},
				"wing_open_right": {
					"rotation": [-9.91343, -12.61524, 20.27615]
				},
				"wing_open_right2": {
					"rotation": [-5.50245, 3.76991, -17.50144]
				},
				"body": {
					"rotation": [-5.41319, 3.21132, -14.65993],
					"position": [0, 1, 0]
				},
				"torso": {
					"rotation": [-5.40684, -3.5149, 6.13427]
				},
				"wings_open": {
					"rotation": [7.5, 0, 0]
				},
				"wing_open_right3": {
					"rotation": [-3.49763, 44.94549, -3.53333],
					"position": [0, 0, 0]
				},
				"wing_closed_right": {
					"rotation": [-3.09472, -22.29711, 18.11003],
					"position": [-0.5, 0, -0.5]
				},
				"wing_closed_right2": {
					"rotation": [20, 0, 0]
				},
				"wing_closed_left": {
					"rotation": [-3.09472, 22.29711, -18.11003]
				},
				"wing_closed_left2": {
					"rotation": [20, 0, 0]
				},
				"tail": {
					"rotation": [-15, 0, 0]
				},
				"jaw": {
					"rotation": [27.5, 0, 0]
				},
				"wing_open_right4": {
					"rotation": [-3.03513, 9.53274, -17.75313]
				},
				"wing_open_left": {
					"rotation": [-9.91343, 12.61524, -20.27615]
				},
				"wing_open_left2": {
					"rotation": [-3.50245, -3.76991, 17.50144]
				},
				"wing_open_left3": {
					"rotation": [-2.49763, -44.94549, 3.53333]
				},
				"wing_open_left4": {
					"rotation": [-3.03513, -9.53274, 17.75313]
				}
			}
		},
		"animation.wattrel.pose_wings": {
			"loop": true,
			"bones": {
				"wings_closed": {
					"scale": 0
				},
				"wing_open_right": {
					"rotation": [-4.9451, -15.22987, -0.16081]
				},
				"wing_open_right2": {
					"rotation": [0, 2.5, 0]
				},
				"wing_open_right3": {
					"rotation": [-0.00001, 45, -0.00004]
				},
				"wing_open_right4": {
					"rotation": [0, 7.5, 0]
				},
				"wing_open_left": {
					"rotation": [-4.9451, 15.22987, 0.16081]
				},
				"wing_open_left2": {
					"rotation": [0, -2.5, 0]
				},
				"wing_open_left3": {
					"rotation": [-0.00001, -45, 0.00004]
				},
				"wing_open_left4": {
					"rotation": [0, -7.5, 0]
				}
			}
		}
	}
}