{
	"format_version": "1.8.0",
	"animations": {
		"animation.yamper.ground_idle": {
			"loop": true,
			"bones": {
				"ear_left": {
					"rotation": ["-32.5+Math.cos((query.anim_time) * 90 * 2 - 90) * 3", 0, 37.5]
				},
				"ear_right": {
					"rotation": ["-32.5+Math.cos((query.anim_time) * 90 * 2 - 90) * 3", 0, -37.5]
				},
				"tail": {
					"rotation": [
						"-32.5+Math.cos((query.anim_time) * 90 * 2 - 180) * -3",
						"0+Math.cos((query.anim_time) * 90 * 8) * 5",
						"0+Math.cos((query.anim_time) * 90 * 8) * 5"
					]
				},
				"torso": {
					"rotation": ["0+Math.cos((query.anim_time) * 90 * 2 - 90) * -1", 0, 0],
					"position": [0, "0+Math.cos((query.anim_time) * 90 * 2) * 0.15", 0]
				},
				"head": {
					"rotation": ["0+Math.cos((query.anim_time) * 90 * 2 - 120) * -2", 0, 0]
				},
				"head2": {
					"rotation": ["0+Math.cos((query.anim_time) * 90 * 2 - 90) * 2", 0, 0]
				},
				"torso2": {
					"rotation": [0, "0+Math.cos((query.anim_time) * 90 * 8 + 90) * 0.5", 0]
				},
				"leg_front_right": {
					"rotation": [0, 10, 0]
				},
				"leg_front_left": {
					"rotation": [0, -10, 0]
				},
				"leg_back_right": {
					"rotation": [0, 7.5, 0]
				},
				"leg_back_left": {
					"rotation": [0, -7.5, 0]
				}
			}
		},
		"animation.yamper.ground_walk": {
			"loop": true,
			"animation_length": 1,
			"bones": {
				"ear_left": {
					"rotation": ["-32.5+Math.cos((query.anim_time) * 90 * 4*2 - 40) * 8", 0, "37.5+Math.cos((query.anim_time) * 90 * 4 - 40) * 4"]
				},
				"ear_right": {
					"rotation": ["-32.5+Math.cos((query.anim_time) * 90 * 4*2 - 40) * 8", 0, "-37.5+Math.cos((query.anim_time) * 90 * 4 - 40) * 4"]
				},
				"tail": {
					"rotation": ["-32.5+Math.cos((query.anim_time) * 90 * 4*2 - 90) * 8", "0+Math.cos((query.anim_time) * 90 * 4 - 90) * 12", 0]
				},
				"torso": {
					"rotation": ["0+Math.cos((query.anim_time) * 90 * 4*2 - 90) * -2", 0, "0+Math.cos((query.anim_time) * 90 * 4 - 120) * -8"],
					"position": [0, "0.25+Math.cos((query.anim_time) * 90 * 4*2) * 0.5", 0]
				},
				"head": {
					"rotation": ["0+Math.cos((query.anim_time) * 90 * 4*2) * 4", 0, "0+Math.cos((query.anim_time) * 90 * 4  -120) * 6"]
				},
				"neck_fluff": {
					"rotation": ["0+Math.cos((query.anim_time) * 90 * 4*2 - 45) * -6", 0, "0+Math.cos((query.anim_time) * 90 * 4 - 6) * 6"]
				},
				"torso2": {
					"rotation": [0, "0+Math.cos((query.anim_time) * 90 * 4 - 90) * -2", "0+Math.cos((query.anim_time) * 90 * 4 - 90) * -2"]
				},
				"leg_front_right": {
					"rotation": {
						"0.0": [-27.5, 0, 0],
						"0.0417": {
							"pre": [-26.08, 0, 0],
							"post": [-26.08, 0, 0],
							"lerp_mode": "catmullrom"
						},
						"0.0833": {
							"post": [-20.67, 0, 0],
							"lerp_mode": "catmullrom"
						},
						"0.2083": [-1.04, 0, 0],
						"0.4167": [-1.04, 0, 0],
						"0.5417": [21.33, 0, 0],
						"0.5833": [25.46, 0, 0],
						"0.6667": {
							"pre": [19.86, 0, 0],
							"post": [19.86, 0, 0],
							"lerp_mode": "catmullrom"
						},
						"0.7917": {
							"post": [-1.04, 0, 0],
							"lerp_mode": "catmullrom"
						},
						"0.9167": {
							"post": [-20.67, 0, 0],
							"lerp_mode": "catmullrom"
						},
						"1.0": [-27.5, 0, 0]
					},
					"position": {
						"0.0": [0, 1, -0.75],
						"0.0833": {
							"pre": [0, 0.35, -0.85],
							"post": [0, 0.35, -0.85],
							"lerp_mode": "catmullrom"
						},
						"0.2083": {
							"post": [0, 0, -0.75],
							"lerp_mode": "catmullrom"
						},
						"0.5": {
							"post": [0, 0, 0.75],
							"lerp_mode": "catmullrom"
						},
						"0.625": {
							"post": [0, 0.5, 1],
							"lerp_mode": "catmullrom"
						},
						"0.9167": {
							"post": [0, 1.09, -0.31],
							"lerp_mode": "catmullrom"
						},
						"1.0": [0, 1, -0.75]
					}
				},
				"foot_front_right": {
					"rotation": {
						"0.0": [20, 0, 0],
						"0.125": [-7, 0, 0],
						"0.1667": [0, 0, 0],
						"0.4167": [0, 0, 0],
						"0.5417": [-10, 0, 0],
						"0.6667": {
							"pre": [1.5, 0, 0],
							"post": [1.5, 0, 0],
							"lerp_mode": "catmullrom"
						},
						"0.8333": {
							"post": [15, 0, 0],
							"lerp_mode": "catmullrom"
						},
						"0.9167": {
							"post": [18.75, 0, 0],
							"lerp_mode": "catmullrom"
						},
						"1.0": [20, 0, 0]
					}
				},
				"leg_front_left": {
					"rotation": {
						"0.0": [13.87, 0, 0],
						"0.0417": [21.33, 0, 0],
						"0.0833": [25.46, 0, 0],
						"0.1667": {
							"pre": [19.86, 0, 0],
							"post": [19.86, 0, 0],
							"lerp_mode": "catmullrom"
						},
						"0.2917": {
							"post": [-1.04, 0, 0],
							"lerp_mode": "catmullrom"
						},
						"0.4167": {
							"post": [-20.67, 0, 0],
							"lerp_mode": "catmullrom"
						},
						"0.5": [-27.5, 0, 0],
						"0.5417": {
							"pre": [-26.08, 0, 0],
							"post": [-26.08, 0, 0],
							"lerp_mode": "catmullrom"
						},
						"0.5833": {
							"post": [-20.67, 0, 0],
							"lerp_mode": "catmullrom"
						},
						"0.7083": [-1.04, 0, 0],
						"0.9167": [-1.04, 0, 0],
						"1.0": [13.87, 0, 0]
					},
					"position": {
						"0.0": {
							"post": [0, 0, 0.75],
							"lerp_mode": "catmullrom"
						},
						"0.125": {
							"post": [0, 0.5, 1],
							"lerp_mode": "catmullrom"
						},
						"0.4167": {
							"post": [0, 1.09, -0.31],
							"lerp_mode": "catmullrom"
						},
						"0.5": [0, 1, -0.75],
						"0.5833": {
							"pre": [0, 0.35, -0.85],
							"post": [0, 0.35, -0.85],
							"lerp_mode": "catmullrom"
						},
						"0.7083": {
							"post": [0, 0, -0.75],
							"lerp_mode": "catmullrom"
						},
						"1.0": {
							"post": [0, 0, 0.75],
							"lerp_mode": "catmullrom"
						}
					}
				},
				"foot_front_left": {
					"rotation": {
						"0.0": [-6.67, 0, 0],
						"0.0417": [-10, 0, 0],
						"0.1667": {
							"pre": [1.5, 0, 0],
							"post": [1.5, 0, 0],
							"lerp_mode": "catmullrom"
						},
						"0.3333": {
							"post": [15, 0, 0],
							"lerp_mode": "catmullrom"
						},
						"0.4167": {
							"post": [18.75, 0, 0],
							"lerp_mode": "catmullrom"
						},
						"0.5": [20, 0, 0],
						"0.625": [-7, 0, 0],
						"0.6667": [0, 0, 0],
						"0.9167": [0, 0, 0],
						"1.0": [-6.67, 0, 0]
					}
				},
				"leg_back_right": {
					"rotation": {
						"0.0": [-0.04, 0, 0],
						"0.2083": [-0.04, 0, 0],
						"0.3333": [22.33, 0, 0],
						"0.375": [26.46, 0, 0],
						"0.4583": [20.86, 0, 0],
						"0.5833": [-0.04, 0, 0],
						"0.7083": [-19.67, 0, 0],
						"0.7917": [-26.5, 0, 0],
						"0.8333": [-25.08, 0, 0],
						"0.875": [-19.67, 0, 0],
						"1.0": [-0.04, 0, 0]
					},
					"position": {
						"0.0": [0, 0, -0.75],
						"0.2917": [0, 0, 0.75],
						"0.4167": [0, 0.5, 1],
						"0.7083": [0, 1.09, -0.31],
						"0.7917": [0, 1, -0.75],
						"0.875": [0, 0.35, -0.85],
						"1.0": [0, 0, -0.75]
					}
				},
				"foot_back_right": {
					"rotation": {
						"0.0": [2, 0, 0],
						"0.0417": [3, 0, 0],
						"0.125": [0, 0, 0],
						"0.3333": [0, 0, 0],
						"0.4583": [-10, 0, 0],
						"0.5833": {
							"pre": [1.5, 0, 0],
							"post": [1.5, 0, 0],
							"lerp_mode": "catmullrom"
						},
						"0.75": {
							"post": [15, 0, 0],
							"lerp_mode": "catmullrom"
						},
						"0.8333": {
							"post": [18.75, 0, 0],
							"lerp_mode": "catmullrom"
						},
						"0.9167": [2.5, 0, 0],
						"1.0": [2, 0, 0]
					}
				},
				"leg_back_left": {
					"rotation": {
						"0.0": [13.89, 0, 0],
						"0.0833": [-0.04, 0, 0],
						"0.2083": [-19.67, 0, 0],
						"0.2917": [-26.5, 0, 0],
						"0.3333": [-25.08, 0, 0],
						"0.375": [-19.67, 0, 0],
						"0.5": [-0.04, 0, 0],
						"0.7083": [-0.04, 0, 0],
						"0.8333": [22.33, 0, 0],
						"0.875": [26.46, 0, 0],
						"0.9583": [20.86, 0, 0],
						"1.0": [13.89, 0, 0]
					},
					"position": {
						"0.0": [0, 0.67, 0.63],
						"0.2083": [0, 1.09, -0.31],
						"0.2917": [0, 1, -0.75],
						"0.375": [0, 0.35, -0.85],
						"0.5": [0, 0, -0.75],
						"0.7917": [0, 0, 0.75],
						"0.9167": [0, 0.5, 1],
						"1.0": [0, 0.67, 0.63]
					}
				},
				"foot_back_left": {
					"rotation": {
						"0.0": [-7.83, 0, 0],
						"0.0833": {
							"pre": [1.5, 0, 0],
							"post": [1.5, 0, 0],
							"lerp_mode": "catmullrom"
						},
						"0.25": {
							"post": [15, 0, 0],
							"lerp_mode": "catmullrom"
						},
						"0.3333": {
							"post": [18.75, 0, 0],
							"lerp_mode": "catmullrom"
						},
						"0.4167": [2.5, 0, 0],
						"0.5": [2, 0, 0],
						"0.5417": [3, 0, 0],
						"0.625": [0, 0, 0],
						"0.8333": [0, 0, 0],
						"0.9583": [-10, 0, 0],
						"1.0": [-7.83, 0, 0]
					}
				}
			}
		},
		"animation.yamper.ground_run": {
			"loop": true,
			"animation_length": 0.58333,
			"bones": {
				"leg_back_right": {
					"rotation": ["-8+math.clamp((-math.cos(q.anim_time*90*6.9-40)+1)*30,8,60)", 0, 0],
					"position": [
						0,
						"-0.275+(math.clamp((-math.cos(q.anim_time*90*4.77+30-40))*1,0,1)*0.5)*1+math.clamp((-math.cos(q.anim_time*90*7.13-20-40)+1)*1.15,0.2,3)*1.2",
						"0.1+(-math.cos(q.anim_time*90*6.9-40))*2"
					],
					"scale": {
						"0.125": [1, 1, 1],
						"0.2083": [1, 0.95, 1],
						"0.2917": [1, 1.1, 1],
						"0.375": [1, 1, 1]
					}
				},
				"foot_back_right": {
					"rotation": [
						"(math.clamp((-math.cos(q.anim_time*90*6.9-15-40))*1,-0.7,0.1)+0.7)*40+(math.clamp((-math.cos(q.anim_time*90*6.9-15-40))*1,-0.1,1)+0.1)*50",
						0,
						0
					],
					"position": {
						"0.0833": [0, "(math.clamp((-math.cos(q.anim_time*90*6.9))*1,-0.8,1)*0.5+0.4)*1+(math.clamp((-math.cos(q.anim_time*90*6.9-90))*1,0,1)*0.5)*1.3", -1.025],
						"0.125": [0, "(math.clamp((-math.cos(q.anim_time*90*7))*1,-0.8,1)*0.5+0.4)*1+(math.clamp((-math.cos(q.anim_time*90*7-90))*1,0,1)*0.5)*1.3", -0.97],
						"0.2083": [0, "(math.clamp((-math.cos(q.anim_time*90*7))*1,-0.8,1)*0.5+0.4)*1+(math.clamp((-math.cos(q.anim_time*90*7-90))*1,0,1)*0.5)*1.3", 0.53],
						"0.25": [0, "(math.clamp((-math.cos(q.anim_time*90*7))*1,-0.8,1)*0.5+0.4)*1+(math.clamp((-math.cos(q.anim_time*90*7-90))*1,0,1)*0.5)*1.3", 0.425],
						"0.2917": [0, "(math.clamp((-math.cos(q.anim_time*90*7))*1,-0.8,1)*0.5+0.4)*1+(math.clamp((-math.cos(q.anim_time*90*7-90))*1,0,1)*0.5)*1.3", -0.775],
						"0.3333": [0, "(math.clamp((-math.cos(q.anim_time*90*7))*1,-0.8,1)*0.5+0.4)*1+(math.clamp((-math.cos(q.anim_time*90*7-90))*1,0,1)*0.5)*1.3", -0.9],
						"0.4167": [0, "(math.clamp((-math.cos(q.anim_time*90*7))*1,-0.8,1)*0.5+0.4)*1+(math.clamp((-math.cos(q.anim_time*90*7-90))*1,0,1)*0.5)*1.3", -0.225],
						"0.5": [0, "(math.clamp((-math.cos(q.anim_time*90*6.9))*1,-0.8,1)*0.5+0.4)*1+(math.clamp((-math.cos(q.anim_time*90*6.9-90))*1,0,1)*0.5)*1.3", -0.925],
						"0.5833": [0, "(math.clamp((-math.cos(q.anim_time*90*6.9))*1,-0.8,1)*0.5+0.4)*1+(math.clamp((-math.cos(q.anim_time*90*6.9-90))*1,0,1)*0.5)*1.3", -1.025]
					}
				},
				"leg_back_left": {
					"rotation": ["-8+math.clamp((-math.cos(q.anim_time*90*6.9)+1)*30,8,60)", 0, 0],
					"position": [
						0,
						"-0.275+(math.clamp((-math.cos(q.anim_time*90*5+30))*1,0,1)*0.5)*1.2+math.clamp((-math.cos(q.anim_time*90*7.5-20)+1)*1.15,0.2,3)*1.5",
						"0.1+(-math.cos(q.anim_time*90*6.9))*2"
					],
					"scale": {
						"0.0417": [1, 1, 1],
						"0.125": [1, 0.95, 1],
						"0.1667": [1, 0.95, 1],
						"0.2083": [1, 1.1, 1],
						"0.2917": [1, 1, 1]
					}
				},
				"foot_back_left": {
					"rotation": [
						"(math.clamp((-math.cos(q.anim_time*90*6.9-15))*1,-0.7,0.1)+0.7)*40+(math.clamp((-math.cos(q.anim_time*90*6.9-15))*1,-0.1,1)+0.1)*50",
						0,
						0
					],
					"position": {
						"0.0": [0, "(math.clamp((-math.cos(q.anim_time*90*7-40))*1,-0.8,1)*0.5+0.4)*1+(math.clamp((-math.cos(q.anim_time*90*7-90-40))*1,0,1)*0.5)*1.3", -1.025],
						"0.0417": [0, "(math.clamp((-math.cos(q.anim_time*90*7-40))*1,-0.8,1)*0.5+0.4)*1+(math.clamp((-math.cos(q.anim_time*90*7-90-40))*1,0,1)*0.5)*1.3", -0.97],
						"0.125": [0, "(math.clamp((-math.cos(q.anim_time*90*7-40))*1,-0.8,1)*0.5+0.4)*1+(math.clamp((-math.cos(q.anim_time*90*7-90-40))*1,0,1)*0.5)*1.3", 0.53],
						"0.1667": [0, "(math.clamp((-math.cos(q.anim_time*90*7-40))*1,-0.8,1)*0.5+0.4)*1+(math.clamp((-math.cos(q.anim_time*90*7-90-40))*1,0,1)*0.5)*1.3", 0.425],
						"0.2083": [0, "(math.clamp((-math.cos(q.anim_time*90*7-40))*1,-0.8,1)*0.5+0.4)*1+(math.clamp((-math.cos(q.anim_time*90*7-90-40))*1,0,1)*0.5)*1.3", -0.775],
						"0.25": [0, "(math.clamp((-math.cos(q.anim_time*90*7-40))*1,-0.8,1)*0.5+0.4)*1+(math.clamp((-math.cos(q.anim_time*90*7-90-40))*1,0,1)*0.5)*1.3", -0.9],
						"0.3333": [0, "(math.clamp((-math.cos(q.anim_time*90*7-40))*1,-0.8,1)*0.5+0.4)*1+(math.clamp((-math.cos(q.anim_time*90*7-90-40))*1,0,1)*0.5)*1.3", -0.225],
						"0.4167": [0, "(math.clamp((-math.cos(q.anim_time*90*7-40))*1,-0.8,1)*0.5+0.4)*1+(math.clamp((-math.cos(q.anim_time*90*7-90-40))*1,0,1)*0.5)*1.3", -1.025],
						"0.5833": [0, "(math.clamp((-math.cos(q.anim_time*90*7-40))*1,-0.8,1)*0.5+0.4)*1+(math.clamp((-math.cos(q.anim_time*90*7-90-40))*1,0,1)*0.5)*1.3", -1.025]
					}
				},
				"torso": {
					"rotation": ["-math.sin(q.anim_time*90*6.9+20)*6", 0, "-math.sin(q.anim_time*90*6.9+20)*4"],
					"position": [0, "0.25+(-math.cos(q.anim_time*90*6.9+20)+1)*0.9-0.15+math.clamp((-math.cos(q.anim_time*90*6.9-20+20)+0.8)*1.15,0.2,3)*0.7", 0]
				},
				"tail": {
					"rotation": ["(math.cos(q.anim_time*90*6.9-100))*17", 0, "-math.sin(q.anim_time*90*6.9-10)*4"]
				},
				"head": {
					"rotation": ["1-math.cos(q.anim_time*90*6.9+0)*2", 0, "-math.cos(q.anim_time*90*6.9-80)*-3"],
					"position": [0, 0, "-0.45-math.cos(q.anim_time*90*6.9-80)*-0.2"]
				},
				"ear_right": {
					"rotation": ["-40-(math.cos(q.anim_time*90*6.9-100)+1)*14", 0, -40],
					"position": [0, "-(math.cos(q.anim_time*90*6.9-70)+1)*0.2", 0]
				},
				"ear_left": {
					"rotation": ["-40-(math.cos(q.anim_time*90*6.9-100)+1)*14", 0, 40],
					"position": [0, "-(math.cos(q.anim_time*90*6.9-70)+1)*0.2", 0]
				},
				"jaw": {
					"rotation": [40, 0, 0]
				},
				"head2": {
					"rotation": ["0.5-math.cos(q.anim_time*90*6.9-30)*-6", 0, 0],
					"position": [0, 0, "-0.6-math.cos(q.anim_time*90*6.9-80)*-0.4"]
				},
				"leg_front_left": {
					"rotation": {
						"0.0": ["22+math.clamp(math.sin(query.anim_time*90*6.9-20+40)*15,-5,15)*1.3+math.clamp(math.sin(query.anim_time*90*5.5+40+40)*15,-15,-5)*2", 0, 0],
						"0.25": ["20+math.clamp(math.sin(query.anim_time*90*7-20+40)*15,-5,15)*2+math.clamp(math.sin(query.anim_time*90*5.5+40+40)*15,-15,-5)*5", 0, 0],
						"0.5833": ["21+math.clamp(math.sin(query.anim_time*90*6.9-20+40)*15,-5,15)*1.3+math.clamp(math.sin(query.anim_time*90*5.5+40+40)*15,-15,-5)*2", 0, 0]
					},
					"position": {
						"0.0": [0, 1, 0.25],
						"0.0417": [0, 1.65, 0.65],
						"0.0833": [0, 2.35, 0.75],
						"0.125": [0, 3, 0.65],
						"0.1667": [0, 3.42, 0.27],
						"0.2083": [0, 3.65, -0.5],
						"0.25": [0, 3.45, -1.3],
						"0.3333": [0, 2.6, -2.05],
						"0.4167": [0, 1.25, -2.35],
						"0.4583": [0, 0.55, -2],
						"0.5": [0, 0, -1.3],
						"0.5417": [0, 0.25, -0.45],
						"0.5833": [0, 1, 0.25]
					}
				},
				"leg_front_right": {
					"rotation": {
						"0.0": ["22+math.clamp(math.sin(query.anim_time*90*6.9-20)*15,-5,15)*1.3+math.clamp(math.sin(query.anim_time*90*5.5+40)*15,-15,-5)*2", 0, 0],
						"0.3333": ["18+math.clamp(math.sin(query.anim_time*90*7-20)*15,-5,15)*2+math.clamp(math.sin(query.anim_time*90*5.5+40)*15,-15,-5)*5", 0, 0],
						"0.5833": ["24+math.clamp(math.sin(query.anim_time*90*7-20)*15,-5,15)*1.3+math.clamp(math.sin(query.anim_time*90*5.5+40)*15,-15,-5)*2", 0, 0]
					},
					"position": {
						"0.0": [0, 0, -1.3],
						"0.0417": [0, 0.25, -0.45],
						"0.0833": [0, 1.15, 0.35],
						"0.125": [0, 1.85, 0.75],
						"0.1667": [0, 2.5, 0.65],
						"0.2083": [0, 2.82, 0.27],
						"0.2917": [0, 2.95, -0.7],
						"0.375": [0, 2.45, -1.75],
						"0.4167": [0, 1.6, -2.25],
						"0.4583": [0, 1, -2.45],
						"0.5": [0, 0.3, -2.5],
						"0.5417": [0, 0.05, -2.45],
						"0.5833": [0, 0, -1.3]
					}
				},
				"foot_front_right": {
					"rotation": {
						"0.0": [-4, 0, 0],
						"0.0417": [-4.75, 0, 0],
						"0.0833": [36, 0, 0],
						"0.125": [70, 0, 0],
						"0.1667": [86.65, 0, 0],
						"0.2083": [96.5, 0, 0],
						"0.25": [96, 0, 0],
						"0.2917": [82.75, 0, 0],
						"0.3333": [42, 0, 0],
						"0.375": [14, 0, 0],
						"0.4167": [5, 0, 0],
						"0.4583": [1, 0, 0],
						"0.5": [4, 0, 0],
						"0.5417": [-4, 0, 0],
						"0.5833": [-4, 0, 0]
					},
					"position": {
						"0.0": [0, 0, 0],
						"0.0417": [0, 0, 0.15],
						"0.0833": [0, 1.25, 0.25],
						"0.1667": [0, 1.35, 0],
						"0.25": [0, 1, -0.5],
						"0.3333": [0, 0.5, -1],
						"0.375": [0, 0.25, -1.05],
						"0.4583": [0, 0, -0.95],
						"0.5417": [0, 0, -0.65],
						"0.5833": [0, 0, 0]
					}
				},
				"foot_front_left": {
					"rotation": {
						"0.0": [19, 0, 0],
						"0.0417": [41, 0, 0],
						"0.0833": [68, 0, 0],
						"0.125": [84.65, 0, 0],
						"0.1667": [94.5, 0, 0],
						"0.2083": [91.25, 0, 0],
						"0.2917": [26, 0, 0],
						"0.3333": [13, 0, 0],
						"0.375": [5, 0, 0],
						"0.4167": [0, 0, 0],
						"0.4583": [10, 0, 0],
						"0.5417": [-3, 0, 0],
						"0.5833": [19, 0, 0]
					},
					"position": {
						"0.0": [0, 0.63, 0.25],
						"0.0417": [0, 1.25, 0.25],
						"0.0833": [0, 1.35, 0.2],
						"0.1667": [0, 1.1, -0.25],
						"0.25": [0, 0.6, -1],
						"0.3333": [0, 0.25, -1.05],
						"0.4167": [0, 0, -0.95],
						"0.4583": [0, 0, -0.65],
						"0.5": [0, 0, 0],
						"0.5417": [0, 0.25, 0.25],
						"0.5833": [0, 0.63, 0.25]
					},
					"scale": {
						"0.0": [1, 1, 0.95],
						"0.0417": [1, 1, 1.1],
						"0.0833": [1, 1, 1],
						"0.5417": [1, 1, 1],
						"0.5833": [1, 1, 0.95]
					}
				},
				"torso2": {
					"rotation": ["0-math.cos(q.anim_time*90*6.9-20)*5", "0-math.cos(q.anim_time*90*6.9-20)*1.5", 0],
					"scale": [1, 1, "1+math.cos(q.anim_time*90*6.9-180)*0.05"]
				},
				"body": {
					"position": {
						"0.0": [0, 0, 0],
						"0.0417": [0, 0, 0],
						"0.1667": {
							"pre": [0, 1.25, 0],
							"post": [0, 1.25, 0],
							"lerp_mode": "catmullrom"
						},
						"0.2917": {
							"post": [0, 1.625, 0],
							"lerp_mode": "catmullrom"
						},
						"0.4167": {
							"post": [0, 1.25, 0],
							"lerp_mode": "catmullrom"
						},
						"0.5417": [0, 0, 0]
					}
				},
				"tongue": {
					"position": [0, 0, -2]
				},
				"tongue2": {
					"rotation": [15, 0, 0]
				}
			}
		},
		"animation.yamper.battle_idle": {
			"loop": true,
			"bones": {
				"ear_left": {
					"rotation": ["-50+Math.cos((query.anim_time) * 90 * 4 - 140) * 3", 10, 37.5]
				},
				"ear_right": {
					"rotation": ["-50+Math.cos((query.anim_time) * 90 * 4 - 140) * 3", -10, -37.5]
				},
				"tail": {
					"rotation": ["10+Math.cos((query.anim_time) * 90 * 4 - 90) * -5", 0, "0+Math.cos((query.anim_time) * 90 * 2 - 140) * -20"]
				},
				"body": {
					"position": [0, "0+Math.cos((query.anim_time) * 90 * 4) * 0.2", 0]
				},
				"torso": {
					"rotation": ["10+Math.cos((query.anim_time) * 90 * 4 - 90) * -1", 0, 0]
				},
				"head": {
					"rotation": ["17.5+Math.cos((query.anim_time) * 90 * 4 - 120) * -1", 0, 0],
					"position": [0, 0, -1.25]
				},
				"head2": {
					"rotation": ["-27.5+Math.cos((query.anim_time) * 90 * 4 - 50) * 3", 0, 0],
					"position": [0, -1.25, -1.5]
				},
				"jaw": {
					"rotation": [42.5, 0, 0]
				},
				"torso2": {
					"rotation": [0, "0+Math.cos((query.anim_time) * 90 * 2 - 90) * -4", 0]
				},
				"leg_front_right": {
					"rotation": [0, 22.5, 12.5],
					"position": [-0.5, 0, -1]
				},
				"foot_front_right": {
					"rotation": ["7.5+Math.cos((query.anim_time) * 90 * 4) * 3", 0, -12.5]
				},
				"leg_front_left": {
					"rotation": [0, -22.5, -12.5],
					"position": [0.5, 0, -1]
				},
				"foot_front_left": {
					"rotation": ["7.5+Math.cos((query.anim_time) * 90 * 4) * 3", 0, 12.5]
				},
				"leg_back_right": {
					"rotation": ["25+Math.cos((query.anim_time) * 90 * 4) * -2", -7.5, 0],
					"position": ["-0.25+Math.cos((query.anim_time) * 90 * 2 - 90) * -0.5", -0.5, 0]
				},
				"foot_back_right": {
					"rotation": ["-20+Math.cos((query.anim_time) * 90 * 4) * 4", "5+Math.cos((query.anim_time) * 90 * 2 - 90) * -7", 0]
				},
				"leg_back_left": {
					"rotation": ["25+Math.cos((query.anim_time) * 90 * 4) * -2", 7.5, 0],
					"position": ["0.25+Math.cos((query.anim_time) * 90 * 2 - 90) * -0.5", -0.5, 0]
				},
				"foot_back_left": {
					"rotation": ["-20+Math.cos((query.anim_time) * 90 * 4) * 4", "-5+Math.cos((query.anim_time) * 90 * 2 - 90) * -7", 0]
				},
				"tongue": {
					"rotation": ["-5+Math.cos((query.anim_time) * 90 * 4 - 120) * -2", 0, 0],
					"position": [0, 0, "-2+Math.cos((query.anim_time) * 90 * 8 - 120) * 0.1"]
				},
				"tongue2": {
					"rotation": [25, 0, 0]
				}
			}
		},
		"animation.yamper.sleep": {
			"loop": true,
			"bones": {
				"body": {
					"rotation": [0, 0, -87.5],
					"position": [0, -1, 0]
				},
				"torso": {
					"rotation": [0, "0+Math.cos((query.anim_time) * 90 * 1) * 1", 0]
				},
				"head": {
					"rotation": [0, "0+Math.cos((query.anim_time) * 90 * 1) * -1", 0]
				},
				"neck_fluff": {
					"rotation": [10, 0, 0],
					"position": [0, -0.75, -0.75]
				},
				"head2": {
					"rotation": [22.5, 7.5, "-5+Math.cos((query.anim_time) * 90 * 1) * 1"],
					"position": [0, -0.5, -1]
				},
				"eyelid_right": {
					"position": [0, 0, -0.1]
				},
				"eyelid_left": {
					"position": [0, 0, -0.1]
				},
				"ear_right": {
					"rotation": ["0+Math.cos((query.anim_time) * 90 * 1) * -2", -72.5, 0]
				},
				"ear_right2": {
					"rotation": [0, -10, 0]
				},
				"ear_left": {
					"rotation": ["-33.2579+Math.cos((query.anim_time) * 90 * 1 -90) * -2", 44.35095, -45.4336]
				},
				"tail": {
					"rotation": [12.5, 0, "-47.5+Math.cos((query.anim_time) * 90 * 1) * -2"]
				},
				"leg_front_right": {
					"rotation": [-10, 0, -7.5],
					"position": [0, -1, -0.75]
				},
				"foot_front_right": {
					"rotation": [27.5, 0, 0]
				},
				"leg_front_left": {
					"rotation": [15, 0, 32.5],
					"position": [0, -0.25, 0]
				},
				"foot_front_left": {
					"rotation": [12.5, 0, 0]
				},
				"leg_back_right": {
					"rotation": [30, 0, 0],
					"position": [0, -0.75, 0]
				},
				"foot_back_right": {
					"rotation": [17.5, -5, 0]
				},
				"leg_back_left": {
					"rotation": [15, 0, 32.5],
					"position": [0, -0.5, 0]
				},
				"foot_back_left": {
					"rotation": [12.5, 0, 0]
				}
			}
		},
		"animation.yamper.faint": {
			"animation_length": 3,
			"bones": {
				"body": {
					"rotation": {
						"0.0": [0, 0, 0],
						"1.0": [0, 0, 0],
						"1.125": [0, 0, -0.35],
						"1.5833": [0, 0, -22.2],
						"1.6667": [0, 0, -19.95],
						"1.7917": [0, 0, -0.7],
						"2.0": [0, 0, 162.89],
						"2.0833": {
							"pre": [0, 0, 185.25],
							"post": [0, 0, 185.25],
							"lerp_mode": "catmullrom"
						},
						"2.1667": {
							"post": [0, 0, 192],
							"lerp_mode": "catmullrom"
						},
						"2.4167": [0, 0, 179.75]
					},
					"position": {
						"0.0": [0, 0, 0],
						"0.1667": [0, -0.75, 2],
						"0.25": [0, -1, 2.25],
						"0.3333": [0, -2, 2.25],
						"0.4167": {
							"pre": [0, 6.5, -2.75],
							"post": [0, 6.5, -2.75],
							"lerp_mode": "catmullrom"
						},
						"0.5833": {
							"post": [0, 9.25, -9.75],
							"lerp_mode": "catmullrom"
						},
						"0.7917": {
							"post": [0, 7, -13.25],
							"lerp_mode": "catmullrom"
						},
						"0.875": {
							"post": [0, 0, -13.5],
							"lerp_mode": "catmullrom"
						},
						"0.9167": {
							"post": [0, -1.75, -13.5],
							"lerp_mode": "catmullrom"
						},
						"1.0": [0, -1.25, -13.5],
						"1.125": [-0.525, 0, -13.5],
						"1.3333": [-1.605, 0, -14.975],
						"1.5833": [-2.45, 0, -15.225],
						"1.7917": [-0.95, -0.5, -15.225],
						"2.0": [8.3, -1.075, -15.225],
						"2.1667": {
							"pre": [9.8, -1.075, -15.225],
							"post": [9.8, -1.075, -15.225],
							"lerp_mode": "catmullrom"
						},
						"2.4167": [8.55, -1.075, -15.225]
					}
				},
				"torso": {
					"rotation": {
						"0.0": [0, 0, 0],
						"0.1667": [7, 0, 0],
						"0.25": [7.5, 0, 0],
						"0.3333": [15, 0, 0],
						"0.375": [-1, 0, 0],
						"0.5417": [-15, 0, 0],
						"0.8333": [-12.5, 0, 0],
						"0.9167": [7.5, 0, 0],
						"1.0417": [13.75, 0, 0],
						"1.125": [12.75, 0, 0],
						"1.25": [-7.5, 0, 0.75],
						"1.4167": [-12.5, 0, -3.25],
						"1.7917": [-12.5, 0, -15.75],
						"1.9583": [0, 0, 0]
					},
					"position": {
						"0.0": [0, 0, 0],
						"0.3333": [0, 0, 0],
						"0.375": [0, -1, 0],
						"0.4583": [0, 0, 0],
						"0.7917": [0, 0, 0],
						"0.875": [0, 1.05, 0],
						"0.9583": {
							"pre": [0, 0, 0],
							"post": [0, 0, 0],
							"lerp_mode": "catmullrom"
						},
						"1.125": [0, -1.1, 0],
						"1.2917": ["0+Math.cos((query.anim_time) * 90 * 48) * 0.2", 0.5, 0],
						"1.5": ["-0.5+Math.cos((query.anim_time) * 90 * 48) * 0.1", 1, 0],
						"1.7917": [0, 1, 0],
						"1.9167": [0, 0, 0]
					},
					"scale": {
						"0.2917": [1, 1, 1],
						"0.3333": {
							"pre": [1.1, 0.95, 1.05],
							"post": [1.1, 0.95, 1.05],
							"lerp_mode": "catmullrom"
						},
						"0.4167": {
							"post": [1, 1.1, 0.9],
							"lerp_mode": "catmullrom"
						},
						"0.5417": [1, 1, 1]
					}
				},
				"head": {
					"rotation": {
						"0.0": [0, 0, 0],
						"0.125": [-9, 0, 0],
						"0.2083": [-10, 0, 0],
						"0.3333": [-15.5, 0, 0],
						"0.375": [40.33, 0, 0],
						"0.5833": [9.5, 0, 0],
						"0.8333": [0, 0, 0],
						"0.9583": [-0.5, 0, 0],
						"1.0833": [27, 0, 0],
						"1.25": [-2.25, 0, 0],
						"1.375": [-10.5, 0, 0],
						"1.6667": [-8.82, 0, 0],
						"1.875": {
							"pre": [0, 0, 0],
							"post": [0, 0, 0],
							"lerp_mode": "catmullrom"
						},
						"2.0": {
							"post": [42.5, 0, 0],
							"lerp_mode": "catmullrom"
						},
						"2.1667": [53.25, -5, 0],
						"2.375": [51.5, -1.25, 0]
					},
					"position": {
						"0.0": [0, 0, 0],
						"0.2083": [0, -0.88, -0.88],
						"0.3333": [0, -1, -1],
						"0.4167": [0, 0, -1],
						"0.9583": [0, 0, 0],
						"1.0833": [0, -1, -1],
						"1.25": [0, 0, 0],
						"1.875": [0, 0, 0],
						"2.0417": [0, -2, -2]
					}
				},
				"head2": {
					"rotation": {
						"0.0": [0, 0, 0],
						"0.25": [5, 0, 0],
						"0.375": [17.5, 0, 0],
						"0.4583": [7.5, 0, 0],
						"0.7083": [0, 0, 0],
						"0.9167": [0.94, 0, 0],
						"1.0417": [17.5, 0, 0],
						"1.1667": [30, 0, 0],
						"1.3333": [2.25, 0, -2.25],
						"1.5": [-12.25, 2, -7.5],
						"1.6667": [-25.75, 7.5, -12.5],
						"1.8333": [-31, 7.5, -20],
						"1.9583": [17.5, -10, -27.5],
						"2.0833": [25, 0, 0],
						"2.25": [25, 7.5, 0],
						"2.375": [25, 6.25, 0],
						"2.5833": [25, 0.78, 0],
						"2.75": [25, 0, 0]
					},
					"position": {
						"1.875": [0, 0, 0],
						"2.0": [0, -0.25, -2.25],
						"2.125": [0, 1, -0.75]
					}
				},
				"eyelid_right": {
					"position": {
						"0.0": [0, 0, 0],
						"0.375": {"pre": [0, 0, 0], "post": [0, 0, -0.1]},
						"0.5417": {"pre": [0, 0, -0.1], "post": [0, 0, 0]},
						"0.9167": {"pre": [0, 0, 0], "post": [0, 0, -0.1]}
					}
				},
				"eyelid_left": {
					"position": {
						"0.0": [0, 0, 0],
						"0.375": {"pre": [0, 0, 0], "post": [0, 0, -0.1]},
						"0.5417": {"pre": [0, 0, -0.1], "post": [0, 0, 0]},
						"0.9167": {"pre": [0, 0, 0], "post": [0, 0, -0.1]}
					}
				},
				"ear_right": {
					"rotation": {
						"0.0": [-32.5, 0, -37.5],
						"0.1667": [-52.86, 0, -37.5],
						"0.2917": [-55, 0, -37.5],
						"0.375": [-77.5, -32.5, -37.5],
						"0.5833": [-32.5, 0, -37.5],
						"0.875": [0, 0, -37.5],
						"1.0833": [-42.5, 0, -37.5],
						"1.2083": [35, 0, -37.5],
						"1.2917": [-37.5, 0, -37.5],
						"1.4583": [-65, 0, -37.5],
						"1.8333": [-42.5, -30, -37.5],
						"1.9583": [-29.25, -32.76, -55.02],
						"2.125": {
							"pre": [-12.5, -30, -6.5],
							"post": [-12.5, -30, -6.5],
							"lerp_mode": "catmullrom"
						},
						"2.2917": {
							"post": [0, -7.5, -1.5],
							"lerp_mode": "catmullrom"
						},
						"2.5417": [0, 5, 0],
						"2.6667": [-2.5, 5, 0]
					}
				},
				"ear_left": {
					"rotation": {
						"0.0": [-32.5, 0, 37.5],
						"0.1667": [-52.86, 0, 37.5],
						"0.2917": [-55, 0, 37.5],
						"0.375": [-77.5, 32.5, 37.5],
						"0.5833": [-32.5, 0, 37.5],
						"0.875": [0, 0, 37.5],
						"1.0833": [-42.5, 0, 37.5],
						"1.2083": [35, 0, 37.5],
						"1.2917": [-37.5, 0, 37.5],
						"1.4583": [-65, 0, 37.5],
						"1.8333": [-42.5, -17.5, -10],
						"2.0": [35, 12.5, -10],
						"2.0833": [2.5, -37.5, -10],
						"2.4167": [-5, -2.5, -1],
						"2.625": [-5, 0, -1]
					}
				},
				"jaw": {
					"rotation": {
						"1.2083": [0, 0, 0],
						"1.3333": [45, 0, 0],
						"1.8333": [45, 0, 0],
						"1.9583": [0, 0, 0]
					}
				},
				"tail": {
					"rotation": {
						"0.0": [-30, 0, 0],
						"0.25": [-17.5, 0, 0],
						"0.3333": [-12.5, 0, 0],
						"0.5": [-52.5, 0, 0],
						"0.6667": [-61.75, 0, 0],
						"0.8333": [-28, 0, 0],
						"1.0": [-65.5, 0, 0],
						"1.125": [-50.5, 0, 0],
						"1.25": [-80.5, 0, 0],
						"1.4167": [-85.5, 0, 0],
						"1.625": [-85.5, -5.31, 0],
						"1.75": [-85.5, -32.5, 0],
						"2.125": {
							"pre": [-80.5, 12.75, 0],
							"post": [-80.5, 12.75, 0],
							"lerp_mode": "catmullrom"
						},
						"2.3333": {
							"post": [-80.5, 4, 0],
							"lerp_mode": "catmullrom"
						},
						"2.5417": [-80.5, 0.5, 0]
					}
				},
				"leg_front_right": {
					"rotation": {
						"0.0": [0, 0, 0],
						"0.1667": [-25, 0, 0],
						"0.25": [-30, 0, 0],
						"0.3333": [-30, 0, 0],
						"0.375": [10, 0, 0],
						"0.625": [-40, 0, 0],
						"0.7917": [-65, 0, 0],
						"0.9167": [-5, 0, 0],
						"1.0": [5, 0, 0],
						"1.125": [5, 0, 0],
						"1.2917": [25, 0, 0],
						"1.4167": [30, 0, 0],
						"1.6667": [30, 0, 10],
						"1.875": [30, 0, 7.5],
						"1.9583": [30, 0, -50.86],
						"2.1667": [30, 0, 29.14],
						"2.2917": [30, 0, 36.64],
						"2.4167": [30, 0, 14.14],
						"2.5417": [30, 0, 9.14]
					},
					"position": {
						"0.0": [0, 0, 0],
						"0.25": [0, 0.5, 0],
						"0.3333": [0, 1, 0],
						"0.375": [0, 0, 0],
						"0.875": [0, 0, 0],
						"0.9167": [0, 1, 0],
						"1.0833": [0, 0, 0]
					}
				},
				"foot_front_right": {
					"rotation": {
						"0.0": [0, 0, 0],
						"0.1667": [16.67, 0, 0],
						"0.25": [17.5, 0, 0],
						"0.3333": [17.5, 0, 0],
						"0.375": [30, 0, 0],
						"0.625": [0, 0, 0],
						"1.125": [0, 0, 0],
						"1.2917": [-15, 0, 2.5],
						"1.4167": [-20, 5, 15],
						"1.5833": [-23.75, 10, 15],
						"1.75": [-27.5, -10, -20],
						"2.0": [-10, -17.5, 0],
						"2.25": [-10, 7.5, 0],
						"2.4583": [-10, 1.5, 0],
						"2.6667": [-10, 0, 0]
					}
				},
				"leg_front_left": {
					"rotation": {
						"0.0": [0, 0, 0],
						"0.1667": [-25, 0, 0],
						"0.25": [-30, 0, 0],
						"0.3333": [-30, 0, 0],
						"0.375": [10, 0, 0],
						"0.625": [-40, 0, 0],
						"0.7917": [-65, 0, 0],
						"0.9167": [-5, 0, 0],
						"1.0": [5, 0, 0],
						"1.125": [5, 0, 0],
						"1.2917": [25, 0, -10],
						"1.4167": [30, 0, -17.5],
						"1.6667": [30, 0, -28],
						"1.875": [30, 0, 7.5],
						"1.9583": [30, 0, -50.86],
						"2.2083": [30, 0, 29.14],
						"2.3333": [30, 0, 36.64],
						"2.4583": [30, 0, 14.14],
						"2.5833": [30, 0, 9.14]
					},
					"position": {
						"0.0": [0, 0, 0],
						"0.25": [0, 0.5, 0],
						"0.3333": [0, 1, 0],
						"0.375": [0, 0, 0],
						"0.875": [0, 0, 0],
						"0.9167": [0, 1, 0],
						"1.0833": [0, 0, 0]
					}
				},
				"foot_front_left": {
					"rotation": {
						"0.0": [0, 0, 0],
						"0.1667": [16.67, 0, 0],
						"0.25": [17.5, 0, 0],
						"0.3333": [17.5, 0, 0],
						"0.375": [30, 0, 0],
						"0.625": [0, 0, 0],
						"1.125": [0, 0, 0],
						"1.2917": [0, 0, 0],
						"1.4167": [12.5, 0, 0],
						"1.5833": [21.25, -5, -5],
						"1.75": [-7.5, -10, -20],
						"2.0417": [-10, -17.5, 0],
						"2.2917": [-10, 7.5, 0],
						"2.5": [-10, 1.5, 0],
						"2.7083": [-10, 0, 0]
					}
				},
				"leg_back_right": {
					"rotation": {
						"0.0": [0, 0, 0],
						"0.125": [-17, 0, 0],
						"0.2083": [-20, 0, 0],
						"0.3333": [-25, 0, 0],
						"0.375": [40, 0, 0],
						"0.5417": [55, 0, 0],
						"0.7083": [48.93, 0, 0],
						"0.8333": [22.5, 0, 0],
						"0.9167": [-17.5, 0, 0],
						"1.0833": [-22.5, 0, 0],
						"1.3333": [8.5, 0, 0],
						"1.4583": [11, 0, 0],
						"1.7083": [11, 0, 7.5],
						"1.8333": [11, 0, 5],
						"1.9167": [11, 0, -55],
						"2.25": [11, 0, 22.5],
						"2.4167": [11, 0, 27.5],
						"2.5833": [11, 0, 15],
						"2.7083": [11, 0, 12.5]
					},
					"position": {
						"0.0": [0, 0, 0],
						"0.1667": [0, 0.82, 0],
						"0.2917": [0, 1, 0],
						"0.375": [0, -1, 0],
						"0.8333": [0, 0, 0]
					}
				},
				"foot_back_right": {
					"rotation": {
						"0.0": [0, 0, 0],
						"0.125": [10, 0, 0],
						"0.2083": [12.5, 0, 0],
						"0.3333": [17.5, 0, 0],
						"0.4167": [57.5, 0, 0],
						"0.8333": [40, 0, 0],
						"0.9167": [12.5, 0, 0],
						"1.0417": [20, 0, 0],
						"1.2917": [-0.83, 0, 0],
						"1.4167": [-10, 0, 15],
						"1.5833": [-13.93, 10, 21.43],
						"1.7083": [-12.5, 10, 12.5],
						"2.0": [0, 0, 0]
					}
				},
				"leg_back_left": {
					"rotation": {
						"0.0": [0, 0, 0],
						"0.125": [-17, 0, 0],
						"0.2083": [-20, 0, 0],
						"0.3333": [-25, 0, 0],
						"0.375": [40, 0, 0],
						"0.5417": [55, 0, 0],
						"0.7083": [48.93, 0, 0],
						"0.8333": [22.5, 0, 0],
						"0.9167": [-17.5, 0, 0],
						"1.0833": [-22.5, 0, 0],
						"1.3333": [8.5, 0, -20],
						"1.4583": [11, 0, -22.5],
						"1.7083": [11, 0, -27.5],
						"1.8333": [11, 0, 5],
						"1.9167": [11, 0, -55],
						"2.25": [11, 0, 22.5],
						"2.4167": [11, 0, 27.5],
						"2.5833": [11, 0, 15],
						"2.7083": [11, 0, 12.5]
					},
					"position": {
						"0.0": [0, 0, 0],
						"0.1667": [0, 0.82, 0],
						"0.2917": [0, 1, 0],
						"0.375": [0, -1, 0],
						"0.8333": [0, 0, 0]
					}
				},
				"foot_back_left": {
					"rotation": {
						"0.0": [0, 0, 0],
						"0.125": [10, 0, 0],
						"0.2083": [12.5, 0, 0],
						"0.3333": [17.5, 0, 0],
						"0.4167": [57.5, 0, 0],
						"0.8333": [40, 0, 0],
						"0.9167": [12.5, 0, 0],
						"1.0417": [20, 0, 0],
						"1.2917": [-0.83, 0, 0],
						"1.4167": [7.5, 0, 0],
						"1.625": [22.5, 0, 0],
						"1.8333": [0, 0, 0]
					}
				}
			}
		},
		"animation.yamper.blink": {
			"animation_length": 0.16667,
			"bones": {
				"eyelid_right": {
					"position": {
						"0.0": [0, 0, -0.1],
						"0.125": [0, 0, -0.1],
						"0.1667": [0, 0, 0]
					}
				},
				"eyelid_left": {
					"position": {
						"0.125": [0, 0, -0.1],
						"0.1667": [0, 0, 0]
					}
				}
			}
		},
		"animation.yamper.cry": {
			"animation_length": 1.25,
			"bones": {
				"torso": {
					"rotation": {
						"0.0": [0, 0, 0],
						"0.0417": [10, 0, 0],
						"0.1667": {
							"pre": [-10, 0, 0],
							"post": [-10, 0, 0],
							"lerp_mode": "catmullrom"
						},
						"0.375": {
							"post": [-12.5, 0, 0],
							"lerp_mode": "catmullrom"
						},
						"0.625": {
							"post": [-9.17, 0, 0],
							"lerp_mode": "catmullrom"
						},
						"0.75": {
							"post": [0, 0, 0],
							"lerp_mode": "catmullrom"
						},
						"0.875": {
							"post": [2, 0, 0],
							"lerp_mode": "catmullrom"
						},
						"1.125": [0, 0, 0]
					}
				},
				"head2": {
					"rotation": {
						"0.0": [0, 0, 0],
						"0.0833": {
							"pre": [17.5, 0, 0],
							"post": [17.5, 0, 0],
							"lerp_mode": "catmullrom"
						},
						"0.2083": {
							"post": [-20, 0, 0],
							"lerp_mode": "catmullrom"
						},
						"0.5": {
							"post": [-17.75, 0, 0],
							"lerp_mode": "catmullrom"
						},
						"0.7083": {
							"post": [-5, 0, 0],
							"lerp_mode": "catmullrom"
						},
						"0.875": {
							"post": [2.25, 0, 0],
							"lerp_mode": "catmullrom"
						},
						"1.0417": {
							"post": [2.5, 0, 0],
							"lerp_mode": "catmullrom"
						},
						"1.1667": [0, 0, 0]
					}
				},
				"ear_right": {
					"rotation": {
						"0.0": [0, 0, 0],
						"0.0417": [-30, 0, 0],
						"0.125": {
							"pre": [30, 0, 0],
							"post": [30, 0, 0],
							"lerp_mode": "catmullrom"
						},
						"0.3333": {
							"post": [-12.5, 0, 0],
							"lerp_mode": "catmullrom"
						},
						"0.5833": {
							"post": [-17.5, 0, 0],
							"lerp_mode": "catmullrom"
						},
						"0.875": {
							"post": [5, 0, 0],
							"lerp_mode": "catmullrom"
						},
						"1.125": [0, 0, 0]
					}
				},
				"ear_left": {
					"rotation": {
						"0.0": [0, 0, 0],
						"0.0417": [-30, 0, 0],
						"0.125": {
							"pre": [30, 0, 0],
							"post": [30, 0, 0],
							"lerp_mode": "catmullrom"
						},
						"0.3333": {
							"post": [-12.5, 0, 0],
							"lerp_mode": "catmullrom"
						},
						"0.5833": {
							"post": [-17.5, 0, 0],
							"lerp_mode": "catmullrom"
						},
						"0.875": {
							"post": [5, 0, 0],
							"lerp_mode": "catmullrom"
						},
						"1.125": [0, 0, 0]
					}
				},
				"jaw": {
					"rotation": {
						"0.0": [0, 0, 0],
						"0.0833": [0, 0, 0],
						"0.2083": [42.5, 0, 0],
						"0.375": [45, 0, 0],
						"0.625": [0, 0, 0]
					}
				}
			}
		}
	}
}